,q,s
2018-09-01 00:00:00+01:00,36.279449158829,118.810917479225
2018-09-02 00:00:00+01:00,33.9135339031405,114.692723846263
2018-09-03 00:00:00+01:00,33.2950880948848,110.961888160027
2018-09-04 00:00:00+01:00,33.5747974384042,106.807924428041
2018-09-05 00:00:00+01:00,34.5893468232061,102.578173440836
2018-09-06 00:00:00+01:00,38.760255361215,98.1083791657306
2018-09-07 00:00:00+01:00,40.2708985214588,94.4903279593263
2018-09-08 00:00:00+01:00,38.986011964316,92.1428579854238
2018-09-09 00:00:00+01:00,48.0750046115723,92.206858477047
2018-09-10 00:00:00+01:00,69.6161374654754,103.421165916618
2018-09-11 00:00:00+01:00,114.013468102787,169.007889548011
2018-09-12 00:00:00+01:00,153.188611832099,204.740915083498
2018-09-13 00:00:00+01:00,164.360278509755,234.81297868004
2018-09-14 00:00:00+01:00,161.384282018939,257.414268878102
2018-09-15 00:00:00+01:00,138.310132591287,281.221495854329
2018-09-16 00:00:00+01:00,118.909903296665,291.019914452211
2018-09-17 00:00:00+01:00,117.996711814628,236.730910308429
2018-09-18 00:00:00+01:00,116.725336934403,196.704150152832
2018-09-19 00:00:00+01:00,136.511502416081,218.770828028809
2018-09-20 00:00:00+01:00,143.327539241358,256.649128169531
2018-09-21 00:00:00+01:00,151.48396212507,308.364941109547
2018-09-22 00:00:00+01:00,152.89278126416,320.247310811277
2018-09-23 00:00:00+01:00,117.127515480657,329.711393268176
2018-09-24 00:00:00+01:00,79.9082350839226,502.401570158322
2018-09-25 00:00:00+01:00,96.8964606056075,511.145617530621
2018-09-26 00:00:00+01:00,121.707241442401,201.123537457846
2018-09-27 00:00:00+01:00,115.818498003163,138.754597879503
2018-09-28 00:00:00+01:00,100.003446367205,265.917662288621
2018-09-29 00:00:00+01:00,93.0508170786085,274.314913743255
2018-09-30 00:00:00+01:00,89.0111469925546,288.436268189975
2018-10-01 00:00:00+01:00,67.1658642828134,322.782058243149
2018-10-02 00:00:00+01:00,51.0703602012965,333.92958652441
2018-10-03 00:00:00+01:00,40.4219267499835,449.312719204728
2018-10-04 00:00:00+01:00,55.4225813864956,494.715420874977
2018-10-05 00:00:00+01:00,74.3445847896781,504.685711679556
2018-10-06 00:00:00+01:00,60.4256056681857,597.810628675137
2018-10-07 00:00:00+01:00,45.3955393194252,646.74739146095
2018-10-08 00:00:00+01:00,54.7711521445295,612.363672304319
2018-10-09 00:00:00+01:00,115.041559841898,540.690278944875
2018-10-10 00:00:00+01:00,133.75142035902,450.629466625647
2018-10-11 00:00:00+01:00,110.437914184831,361.612405894266
2018-10-12 00:00:00+01:00,145.69136519008,285.13697989486
2018-10-13 00:00:00+01:00,240.739437215355,226.151836526319
2018-10-14 00:00:00+01:00,295.19127841822,227.355554188305
2018-10-15 00:00:00+01:00,227.669216977272,225.041815712402
2018-10-16 00:00:00+01:00,143.741195805088,209.048329413621
2018-10-17 00:00:00+01:00,113.346398178004,202.424403609337
2018-10-18 00:00:00+01:00,88.5634126536953,218.58429040601
2018-10-19 00:00:00+01:00,68.5297146939065,247.962050262206
2018-10-20 00:00:00+01:00,60.9790738523172,302.991789719954
2018-10-21 00:00:00+01:00,96.0808275660183,567.214171377666
2018-10-22 00:00:00+01:00,112.106701696259,591.756540163357
2018-10-23 00:00:00+01:00,82.3764052083261,651.955943215449
2018-10-24 00:00:00+01:00,60.8180693583281,653.729990895167
2018-10-25 00:00:00+01:00,47.1713395763201,654.195535796422
2018-10-26 00:00:00+01:00,36.8587717417996,654.563810995647
2018-10-27 00:00:00+01:00,28.4449795322787,654.802947854119
2018-10-28 00:00:00+01:00,22.6605629036853,656.699165988336
2018-10-29 00:00:00+01:00,19.1852125302733,667.875502213341
2018-10-30 00:00:00+01:00,16.866928332861,663.718489046831
2018-10-31 00:00:00+01:00,16.5441835423981,706.299614446235
2018-11-01 00:00:00+01:00,25.7303381309296,713.181093307983
2018-11-02 00:00:00+01:00,34.0096346778264,737.851316426721
2018-11-03 00:00:00+01:00,30.0860682644606,690.694728617343
2018-11-04 00:00:00+01:00,30.0501972672862,654.648940653869
2018-11-05 00:00:00+01:00,33.768184218417,631.197884054944
2018-11-06 00:00:00+01:00,32.5452542153308,581.426815300892
2018-11-07 00:00:00+01:00,34.857047242492,545.691599790295
2018-11-08 00:00:00+01:00,38.845729723086,535.136006949871
2018-11-09 00:00:00+01:00,35.1872343591272,526.940842749381
2018-11-10 00:00:00+01:00,38.2685915156594,523.7395219988
2018-11-11 00:00:00+01:00,51.3258927864904,527.87782161028
2018-11-12 00:00:00+01:00,53.1149364762825,538.65219302537
2018-11-13 00:00:00+01:00,45.0354453433884,548.533078650582
2018-11-14 00:00:00+01:00,38.763957100656,516.976790544601
2018-11-15 00:00:00+01:00,36.3245005516647,500.301040888782
2018-11-16 00:00:00+01:00,34.3426479031197,492.33642485723
2018-11-17 00:00:00+01:00,30.3505562492762,491.473841056116
2018-11-18 00:00:00+01:00,24.5731543770295,491.993160593583
2018-11-19 00:00:00+01:00,18.9447427112763,492.268620952705
2018-11-20 00:00:00+01:00,14.8143438943624,491.768816532563
2018-11-21 00:00:00+01:00,12.3812516935539,491.893283077353
2018-11-22 00:00:00+01:00,10.8823274444164,492.061814944177
2018-11-23 00:00:00+01:00,9.67442902987834,492.224927351549
2018-11-24 00:00:00+01:00,8.69544832299433,492.839767915575
2018-11-25 00:00:00+01:00,7.89798608101189,493.203025965212
2018-11-26 00:00:00+01:00,7.21990564574332,493.443812549926
2018-11-27 00:00:00+01:00,6.68934288206248,520.095580774676
2018-11-28 00:00:00+01:00,6.40777905089191,553.467212823124
2018-11-29 00:00:00+01:00,8.78052639286869,572.677406596129
2018-11-30 00:00:00+01:00,18.562209027842,612.582244860218
2018-12-01 00:00:00+01:00,22.8558164800843,653.738969032907
2018-12-02 00:00:00+01:00,19.1907685366478,712.231889309317
2018-12-03 00:00:00+01:00,17.2459270141554,725.66593936332
2018-12-04 00:00:00+01:00,14.7059736382928,745.870573042729
2018-12-05 00:00:00+01:00,11.7892847614962,784.273319967888
2018-12-06 00:00:00+01:00,10.1660075857904,818.560788915845
2018-12-07 00:00:00+01:00,9.7971765373563,832.401236909131
2018-12-08 00:00:00+01:00,9.42417604521551,840.41354630507
2018-12-09 00:00:00+01:00,8.50694497280912,845.737487266044
2018-12-10 00:00:00+01:00,7.62535807339261,847.037192995311
2018-12-11 00:00:00+01:00,6.90353992495919,848.458144578868
2018-12-12 00:00:00+01:00,6.29443151925073,849.4272182789
2018-12-13 00:00:00+01:00,5.75942228873064,850.201569972887
2018-12-14 00:00:00+01:00,5.31164679258286,852.287552922719
2018-12-15 00:00:00+01:00,4.95102391069541,854.106597941373
2018-12-16 00:00:00+01:00,4.65144834596622,854.714950886114
2018-12-17 00:00:00+01:00,4.36627352932279,858.710925347963
2018-12-18 00:00:00+01:00,4.12736399092675,879.424967039956
2018-12-19 00:00:00+01:00,4.18460920321752,880.211122753376
2018-12-20 00:00:00+01:00,4.24781865834998,889.30389060786
2018-12-21 00:00:00+01:00,4.14958929704385,902.688375526786
2018-12-22 00:00:00+01:00,3.90745775497671,905.822672017915
2018-12-23 00:00:00+01:00,3.69485866689708,997.971755983642
2018-12-24 00:00:00+01:00,4.1943491952645,1004.25193244661
2018-12-25 00:00:00+01:00,4.49801461848761,1044.61242388594
2018-12-26 00:00:00+01:00,6.64214057521051,1074.62785236378
2018-12-27 00:00:00+01:00,10.3298617113053,1087.63745514447
2018-12-28 00:00:00+01:00,11.6075954863542,1122.10804117968
2018-12-29 00:00:00+01:00,10.286850511025,1223.96212772125
2018-12-30 00:00:00+01:00,9.48822277396329,1369.58614215823
2018-12-31 00:00:00+01:00,19.1058413340521,1423.10875621377
2019-01-01 00:00:00+01:00,24.8522042544315,1429.18528643518
2019-01-02 00:00:00+01:00,19.58922771477,1450.03788761982
2019-01-03 00:00:00+01:00,15.4407885694685,1462.69375760905
2019-01-04 00:00:00+01:00,14.3134143808603,1451.62285101757
2019-01-05 00:00:00+01:00,15.4431438704239,1452.00557554544
2019-01-06 00:00:00+01:00,15.4363733594021,1497.81999186006
2019-01-07 00:00:00+01:00,13.9231207451012,1498.82340375856
2019-01-08 00:00:00+01:00,11.3063017609718,1508.81813520432
2019-01-09 00:00:00+01:00,9.62548643481751,1551.51737558351
2019-01-10 00:00:00+01:00,8.79014788820752,1551.78453696906
2019-01-11 00:00:00+01:00,7.97113926327946,1612.86043273821
2019-01-12 00:00:00+01:00,7.6382996122714,1677.81527034544
2019-01-13 00:00:00+01:00,7.22014380667203,1739.95778752046
2019-01-14 00:00:00+01:00,6.90211568612129,1835.85195408863
2019-01-15 00:00:00+01:00,6.94884925586553,1925.5265386726
2019-01-16 00:00:00+01:00,6.79279618412862,1932.39374869166
2019-01-17 00:00:00+01:00,6.30003068478912,2020.4193023658
2019-01-18 00:00:00+01:00,6.31398998555542,2048.17258166542
2019-01-19 00:00:00+01:00,5.95958480058414,2083.15075048567
2019-01-20 00:00:00+01:00,5.72262129149685,2085.67451005305
2019-01-21 00:00:00+01:00,5.28162394539936,2089.08333553909
2019-01-22 00:00:00+01:00,4.96383231752229,2092.00953828259
2019-01-23 00:00:00+01:00,4.70328729721266,2096.73551427019
2019-01-24 00:00:00+01:00,4.44843465379804,2122.89156018399
2019-01-25 00:00:00+01:00,4.39749770218337,2129.88884225578
2019-01-26 00:00:00+01:00,4.05548269143007,2135.79550973535
2019-01-27 00:00:00+01:00,3.86014914139598,2138.42187522972
2019-01-28 00:00:00+01:00,3.67591873857201,2143.09083959311
2019-01-29 00:00:00+01:00,3.51750469385371,2146.4152990941
2019-01-30 00:00:00+01:00,3.33716909091969,2157.67220678185
2019-01-31 00:00:00+01:00,3.21706593837664,2159.53310967808
2019-02-01 00:00:00+01:00,3.07390355179605,2160.7047452233
2019-02-02 00:00:00+01:00,2.93169929124761,2164.94641676529
2019-02-03 00:00:00+01:00,2.84125034139024,2180.75560292412
2019-02-04 00:00:00+01:00,2.80244207265963,2183.11674626292
2019-02-05 00:00:00+01:00,2.64446654130801,2251.32101718773
2019-02-06 00:00:00+01:00,2.89222142576415,2276.87709667197
2019-02-07 00:00:00+01:00,2.92183170008195,2318.1752019524
2019-02-08 00:00:00+01:00,3.14111533660241,2323.30972843309
2019-02-09 00:00:00+01:00,3.39614313692208,2328.96927654169
2019-02-10 00:00:00+01:00,3.60523097080112,2344.24437591308
2019-02-11 00:00:00+01:00,3.40943505364463,2524.69765655167
2019-02-12 00:00:00+01:00,4.64620419115825,2544.93173503964
2019-02-13 00:00:00+01:00,4.87919739205313,2586.98393704016
2019-02-14 00:00:00+01:00,7.9890563618053,2557.19265495741
2019-02-15 00:00:00+01:00,12.7061844937786,2551.64893914688
2019-02-16 00:00:00+01:00,17.894456497723,2541.09622819245
2019-02-17 00:00:00+01:00,19.4078758457924,2544.23802460874
2019-02-18 00:00:00+01:00,25.2020688326726,2597.56751324754
2019-02-19 00:00:00+01:00,27.1881836765529,2676.53016475213
2019-02-20 00:00:00+01:00,21.1323804967952,2690.40020264914
2019-02-21 00:00:00+01:00,17.1672564659204,2676.85024588107
2019-02-22 00:00:00+01:00,16.1722006633694,2641.85661964159
2019-02-23 00:00:00+01:00,23.0814269441497,2621.43794710978
2019-02-24 00:00:00+01:00,28.7310618770853,2620.87618701781
2019-02-25 00:00:00+01:00,25.004212038332,2595.51786142681
2019-02-26 00:00:00+01:00,22.6372400928272,2594.3168881331
2019-02-27 00:00:00+01:00,21.414341863401,2594.71186414245
2019-02-28 00:00:00+01:00,17.4039796696594,2595.23308349051
2019-03-01 00:00:00+01:00,13.6209493337475,2633.75493514701
2019-03-02 00:00:00+01:00,11.2160129988029,2669.81304592073
2019-03-03 00:00:00+01:00,10.4410024229256,2671.9654601668
2019-03-04 00:00:00+01:00,9.77410883141314,2690.04239870391
2019-03-05 00:00:00+01:00,8.95561417400923,2714.7560258581
2019-03-06 00:00:00+01:00,8.35479621863273,2762.52766218177
2019-03-07 00:00:00+01:00,8.05862454986765,2779.12343206976
2019-03-08 00:00:00+01:00,7.64103911772202,2787.36185748262
2019-03-09 00:00:00+01:00,6.7944583412911,2788.03696317084
2019-03-10 00:00:00+01:00,6.0138353925825,2790.24931052717
2019-03-11 00:00:00+01:00,5.46905044838733,2890.70261446292
2019-03-12 00:00:00+01:00,5.80835143321692,2903.05837772531
2019-03-13 00:00:00+01:00,5.38543095558782,2909.40361069304
2019-03-14 00:00:00+01:00,4.96135202966505,2933.4246258436
2019-03-15 00:00:00+01:00,4.85977336132947,2955.17661754149
2019-03-16 00:00:00+01:00,4.73044630132097,2960.51781988879
2019-03-17 00:00:00+01:00,4.49865124165632,2961.69840479597
2019-03-18 00:00:00+01:00,4.17749054635323,3030.48628018736
2019-03-19 00:00:00+01:00,4.27795967855179,3240.3446097618
2019-03-20 00:00:00+01:00,8.8389245322946,3278.46691759001
2019-03-21 00:00:00+01:00,12.5888369330514,3408.81114517716
2019-03-22 00:00:00+01:00,15.3696980948249,3568.8385914199
2019-03-23 00:00:00+01:00,17.9496819559234,3637.82382044791
2019-03-24 00:00:00+01:00,16.8003997319215,3641.80212164434
2019-03-25 00:00:00+01:00,13.5086327617756,3687.51597412783
2019-03-26 00:00:00+01:00,11.7103715960501,3698.59521076947
2019-03-27 00:00:00+01:00,11.1109751887313,3731.53292554621
2019-03-28 00:00:00+01:00,14.8852501391821,3798.56795254568
2019-03-29 00:00:00+01:00,27.8941825288879,3871.13152059685
2019-03-30 00:00:00+01:00,32.5672980593724,3881.28611911505
2019-03-31 00:00:00+01:00,24.4866601821081,3883.08932866499
2019-04-01 00:00:00+01:00,18.2958576012477,3883.114790337
2019-04-02 00:00:00+01:00,14.2339127651984,3877.91892977705
2019-04-03 00:00:00+01:00,12.339071053852,3848.38210667245
2019-04-04 00:00:00+01:00,13.8856495820789,3802.15195014871
2019-04-05 00:00:00+01:00,20.2955748617444,3770.94652869953
2019-04-06 00:00:00+01:00,24.8646157741955,3759.68263817573
2019-04-07 00:00:00+01:00,23.6371058969956,3759.13360101197
2019-04-08 00:00:00+01:00,19.0982670426066,3759.1438531536
2019-04-09 00:00:00+01:00,14.6988000850846,3759.1243436485
2019-04-10 00:00:00+01:00,11.516217091963,3759.1081546118
2019-04-11 00:00:00+01:00,9.30229895551518,3759.07333805524
2019-04-12 00:00:00+01:00,8.13718699243837,3758.62906234046
2019-04-13 00:00:00+01:00,7.28708052123221,3757.56186159801
2019-04-14 00:00:00+01:00,6.67277355839242,3754.88234122739
2019-04-15 00:00:00+01:00,6.2489084758649,3734.74144144324
2019-04-16 00:00:00+01:00,7.38955836451259,3715.28876648911
2019-04-17 00:00:00+01:00,10.0882698707824,3690.4607168379
2019-04-18 00:00:00+01:00,12.8470325252347,3643.34963612978
2019-04-19 00:00:00+01:00,18.581151424658,3596.44249439814
2019-04-20 00:00:00+01:00,25.0400107183097,3544.35871926389
2019-04-21 00:00:00+01:00,31.8964777983658,3446.56861628394
2019-04-22 00:00:00+01:00,45.0517506546952,3333.51337261389
2019-04-23 00:00:00+01:00,61.7342525625679,3234.02548291465
2019-04-24 00:00:00+01:00,73.8556818173664,3124.19770916406
2019-04-25 00:00:00+01:00,84.5428754843221,3018.94020046581
2019-04-26 00:00:00+01:00,90.9566863371403,2898.82236342144
2019-04-27 00:00:00+01:00,95.8703701921332,2788.88456739916
2019-04-28 00:00:00+01:00,100.887532947191,2672.8777397361
2019-04-29 00:00:00+01:00,103.350713274606,2563.45139964076
2019-04-30 00:00:00+01:00,104.946192588715,2524.29213989909
2019-05-01 00:00:00+01:00,94.9454724002853,2531.59416499979
2019-05-02 00:00:00+01:00,69.6011571073987,2534.70044810594
2019-05-03 00:00:00+01:00,49.6278539708926,2539.64398647462
2019-05-04 00:00:00+01:00,37.8737417583804,2568.48901354053
2019-05-05 00:00:00+01:00,29.9323182266626,2568.54871513999
2019-05-06 00:00:00+01:00,23.950222467336,2573.79109614263
2019-05-07 00:00:00+01:00,19.4620524190417,2574.69341556391
2019-05-08 00:00:00+01:00,16.8175761459148,2632.71340985822
2019-05-09 00:00:00+01:00,16.7638129829244,2688.17065859654
2019-05-10 00:00:00+01:00,22.3986811814345,2688.49054160309
2019-05-11 00:00:00+01:00,24.3197484584202,2694.23422531741
2019-05-12 00:00:00+01:00,19.5425273264041,2691.87449054521
2019-05-13 00:00:00+01:00,16.0652288538685,2652.23605853555
2019-05-14 00:00:00+01:00,17.3798704143397,2576.89411012835
2019-05-15 00:00:00+01:00,26.2799109230902,2470.15176072472
2019-05-16 00:00:00+01:00,41.4859150107693,2330.32031045787
2019-05-17 00:00:00+01:00,63.2095785589098,2220.7602264652
2019-05-18 00:00:00+01:00,79.8010719854828,2112.49357299208
2019-05-19 00:00:00+01:00,88.9194838874166,2000.65996947928
2019-05-20 00:00:00+01:00,96.1095974948748,1877.04930311432
2019-05-21 00:00:00+01:00,107.978949780841,1780.5518759066
2019-05-22 00:00:00+01:00,137.063945952284,1730.38063384412
2019-05-23 00:00:00+01:00,134.076110292324,1686.2788706242
2019-05-24 00:00:00+01:00,104.17875023528,1661.43362903798
2019-05-25 00:00:00+01:00,83.1637265118791,1655.48294742043
2019-05-26 00:00:00+01:00,64.0773172707482,1649.29674474779
2019-05-27 00:00:00+01:00,50.5457204020377,1662.37485350033
2019-05-28 00:00:00+01:00,41.2986245181719,1699.08423252177
2019-05-29 00:00:00+01:00,33.3674108930974,1750.90280518208
2019-05-30 00:00:00+01:00,29.3369843595925,1767.50251668573
2019-05-31 00:00:00+01:00,30.9082228218144,1748.2439639564
2019-06-01 00:00:00+01:00,40.3981065088772,1711.06540873136
2019-06-02 00:00:00+01:00,60.4156646445718,1630.63060767802
2019-06-03 00:00:00+01:00,77.8267464152948,1591.31994844783
2019-06-04 00:00:00+01:00,78.9579896752455,1529.80441466129
2019-06-05 00:00:00+01:00,76.6813101232727,1433.99821985312
2019-06-06 00:00:00+01:00,98.9501137172117,1367.0825921579
2019-06-07 00:00:00+01:00,108.572359551399,1309.88618682106
2019-06-08 00:00:00+01:00,104.839027899685,1271.00161544813
2019-06-09 00:00:00+01:00,111.316402292275,1254.71620564501
2019-06-10 00:00:00+01:00,95.3865547278187,1211.59867685015
2019-06-11 00:00:00+01:00,75.4074758741465,1165.55720501294
2019-06-12 00:00:00+01:00,72.2691937118192,1128.20610462007
2019-06-13 00:00:00+01:00,68.8193671055092,1081.86601144236
2019-06-14 00:00:00+01:00,64.1235075056262,1026.46039023238
2019-06-15 00:00:00+01:00,64.6403073771203,979.189751416905
2019-06-16 00:00:00+01:00,71.8594463009607,951.363199009374
2019-06-17 00:00:00+01:00,80.1728999500248,930.385699672953
2019-06-18 00:00:00+01:00,78.7951440096866,907.604275014086
2019-06-19 00:00:00+01:00,69.0852320364007,881.927371712952
2019-06-20 00:00:00+01:00,65.4269392921507,871.60551304567
2019-06-21 00:00:00+01:00,70.7131206862435,874.311882017248
2019-06-22 00:00:00+01:00,69.0723878087949,865.471871928583
2019-06-23 00:00:00+01:00,58.9520834554795,839.917421545374
2019-06-24 00:00:00+01:00,60.7357975660018,812.935622724422
2019-06-25 00:00:00+01:00,65.7747638993464,790.943113768339
2019-06-26 00:00:00+01:00,60.6798717909343,778.311202515727
2019-06-27 00:00:00+01:00,51.6464631556143,758.75188879269
2019-06-28 00:00:00+01:00,44.8759486579289,729.580423106539
2019-06-29 00:00:00+01:00,45.6294108651695,703.229335415523
2019-06-30 00:00:00+01:00,67.6792055556112,690.016360510796
2019-07-01 00:00:00+01:00,84.3737777309679,707.03643930245
2019-07-02 00:00:00+01:00,76.3907296445148,747.491776139927
2019-07-03 00:00:00+01:00,67.1577214223144,734.000979307252
2019-07-04 00:00:00+01:00,57.7446527642088,721.491056619573
2019-07-05 00:00:00+01:00,47.9889169643647,704.035748682993
2019-07-06 00:00:00+01:00,45.1085232795583,688.768362583913
2019-07-07 00:00:00+01:00,43.7711943568995,675.81499137956
2019-07-08 00:00:00+01:00,39.8344125799792,659.610032040189
2019-07-09 00:00:00+01:00,36.617787968637,635.360567259546
2019-07-10 00:00:00+01:00,36.7879502299783,605.301362352973
2019-07-11 00:00:00+01:00,40.1404375634865,574.918935071568
2019-07-12 00:00:00+01:00,44.6781630628256,550.580491023929
2019-07-13 00:00:00+01:00,46.757905749424,534.043699120682
2019-07-14 00:00:00+01:00,44.5252841562205,523.898429325412
2019-07-15 00:00:00+01:00,39.4767849260671,509.85235323165
2019-07-16 00:00:00+01:00,35.99239640689,491.341892726322
2019-07-17 00:00:00+01:00,35.7996712677711,470.680050826645
2019-07-18 00:00:00+01:00,42.396225089792,454.142614275856
2019-07-19 00:00:00+01:00,47.2484702436431,437.489665083278
2019-07-20 00:00:00+01:00,56.0755618459013,423.033217806393
2019-07-21 00:00:00+01:00,63.9734482090931,411.184604927874
2019-07-22 00:00:00+01:00,61.8487614902153,395.992692617519
2019-07-23 00:00:00+01:00,56.1252621842022,374.177072427272
2019-07-24 00:00:00+01:00,52.7536680557195,349.00641344894
2019-07-25 00:00:00+01:00,54.0986621767148,324.377220195364
2019-07-26 00:00:00+01:00,56.8491285620403,299.260235480935
2019-07-27 00:00:00+01:00,59.8267157193823,275.888944565612
2019-07-28 00:00:00+01:00,62.4851812565718,254.854457309627
2019-07-29 00:00:00+01:00,62.9562209744237,240.105426885561
2019-07-30 00:00:00+01:00,77.0262200140212,232.627945564059
2019-07-31 00:00:00+01:00,80.3286683708549,223.743918721532
2019-08-01 00:00:00+01:00,64.2313132904533,212.227911937867
2019-08-02 00:00:00+01:00,55.2804252628865,199.281657904908
2019-08-03 00:00:00+01:00,51.667014965891,187.771001930647
2019-08-04 00:00:00+01:00,49.8655989500482,177.472646607759
2019-08-05 00:00:00+01:00,49.0757264632263,169.132434914903
2019-08-06 00:00:00+01:00,53.4418116947682,162.00342809741
2019-08-07 00:00:00+01:00,55.2829683472922,154.551818195271
2019-08-08 00:00:00+01:00,52.4872675174535,146.320186650045
2019-08-09 00:00:00+01:00,51.2392065758937,138.035873689273
2019-08-10 00:00:00+01:00,50.725467845426,130.625861870365
2019-08-11 00:00:00+01:00,54.5447368086252,124.755913271732
2019-08-12 00:00:00+01:00,73.1578490161901,122.391858729878
2019-08-13 00:00:00+01:00,77.9084581623919,121.396256420295
2019-08-14 00:00:00+01:00,64.3586452429423,117.919941413267
2019-08-15 00:00:00+01:00,58.6636097870761,113.526905205474
2019-08-16 00:00:00+01:00,56.6067562434303,108.464044372802
2019-08-17 00:00:00+01:00,69.7376441685294,104.636758017703
2019-08-18 00:00:00+01:00,74.7057532804095,101.419711936978
2019-08-19 00:00:00+01:00,86.9972123749574,99.2901807515912
2019-08-20 00:00:00+01:00,95.1146601523637,97.7729344725898
2019-08-21 00:00:00+01:00,74.0721319539127,95.0743070610439
2019-08-22 00:00:00+01:00,76.2672896905544,92.6339725771647
2019-08-23 00:00:00+01:00,81.0729972051786,88.7758328432941
2019-08-24 00:00:00+01:00,70.0047535526703,82.9293936048277
2019-08-25 00:00:00+01:00,60.9937421481588,76.4207226502637
2019-08-26 00:00:00+01:00,56.1217890995513,69.736057763245
2019-08-27 00:00:00+01:00,54.0472563676563,63.4215569246252
2019-08-28 00:00:00+01:00,71.349381737098,59.2011665530434
2019-08-29 00:00:00+01:00,96.0207688930021,56.8797266094601
2019-08-30 00:00:00+01:00,138.362483061157,53.4336318200629
2019-08-31 00:00:00+01:00,152.784623809196,51.4895398802155
2019-09-01 00:00:00+01:00,121.762193745107,62.3821304565469
2019-09-02 00:00:00+01:00,99.1516694461467,59.3545243396353
2019-09-03 00:00:00+01:00,78.7427779146885,80.0418399960628
2019-09-04 00:00:00+01:00,81.9105304310681,80.5526495610716
2019-09-05 00:00:00+01:00,80.4702759163076,81.9510017465641
2019-09-06 00:00:00+01:00,61.8765243935774,77.489956030116
2019-09-07 00:00:00+01:00,49.0258921791225,75.1670024816244
2019-09-08 00:00:00+01:00,40.241031518308,69.1752288172124
2019-09-09 00:00:00+01:00,35.7339834726536,58.2592781397365
2019-09-10 00:00:00+01:00,34.5145386430675,54.0904777096544
2019-09-11 00:00:00+01:00,49.6685976263444,63.0804598717593
2019-09-12 00:00:00+01:00,85.8825740360217,120.250768285717
2019-09-13 00:00:00+01:00,115.794751044522,228.779073220774
2019-09-14 00:00:00+01:00,163.842888021814,326.606551190246
2019-09-15 00:00:00+01:00,202.326268616307,362.832700293586
2019-09-16 00:00:00+01:00,170.861051428328,371.825720866029
2019-09-17 00:00:00+01:00,115.201171729879,367.118655600603
2019-09-18 00:00:00+01:00,77.7809515124689,388.069790280319
2019-09-19 00:00:00+01:00,60.0392959583768,365.62963090086
2019-09-20 00:00:00+01:00,52.0043790222005,341.914725191446
2019-09-21 00:00:00+01:00,46.3332347155281,303.033415070122
2019-09-22 00:00:00+01:00,43.7352582909042,271.950431273933
2019-09-23 00:00:00+01:00,43.7400537555991,257.539110203037
2019-09-24 00:00:00+01:00,41.379688182953,251.203608043044
2019-09-25 00:00:00+01:00,37.0565573549628,241.671046493155
2019-09-26 00:00:00+01:00,34.5209660459875,56.9247376401893
2019-09-27 00:00:00+01:00,36.5400712882861,39.9141495930719
2019-09-28 00:00:00+01:00,36.5222125357287,29.8409394322092
2019-09-29 00:00:00+01:00,34.1418930983405,51.2810636262536
2019-09-30 00:00:00+01:00,32.5261820422282,56.8893061474241
2019-10-01 00:00:00+01:00,28.0883294351102,47.4501129849784
2019-10-02 00:00:00+01:00,23.8346823815466,48.7214075172308
2019-10-03 00:00:00+01:00,21.4535591113596,48.8607731720077
2019-10-04 00:00:00+01:00,18.2939516510174,50.47603142123
2019-10-05 00:00:00+01:00,15.2739118754051,50.6381400582086
2019-10-06 00:00:00+01:00,13.0696616387132,80.0963243241832
2019-10-07 00:00:00+01:00,12.3695479395483,83.2201820952467
2019-10-08 00:00:00+01:00,12.8958890996326,76.9345096158175
2019-10-09 00:00:00+01:00,14.5194192553867,85.1454436645369
2019-10-10 00:00:00+01:00,20.1481376317487,119.282121200031
2019-10-11 00:00:00+01:00,33.5429441969318,129.244653251287
2019-10-12 00:00:00+01:00,39.536333366014,131.586950857163
2019-10-13 00:00:00+01:00,33.3197066323155,131.021883018106
2019-10-14 00:00:00+01:00,25.9233598962803,125.26945182533
2019-10-15 00:00:00+01:00,22.0453184931693,122.19242936212
2019-10-16 00:00:00+01:00,19.6707694073532,119.86302781209
2019-10-17 00:00:00+01:00,20.5808383220234,118.612164591536
2019-10-18 00:00:00+01:00,19.8497949405685,118.539510912947
2019-10-19 00:00:00+01:00,16.1632387069698,118.717641257219
2019-10-20 00:00:00+01:00,13.5790997368446,157.137606798184
2019-10-21 00:00:00+01:00,12.3034138995988,197.760369325783
2019-10-22 00:00:00+01:00,25.9161814592912,180.745794935425
2019-10-23 00:00:00+01:00,35.1642611789896,177.38113227801
2019-10-24 00:00:00+01:00,42.7022678578522,196.978143470911
2019-10-25 00:00:00+01:00,46.2224128867507,203.088208558451
2019-10-26 00:00:00+01:00,36.1037681371639,204.641227279582
2019-10-27 00:00:00+01:00,27.0748570098245,205.136063107867
2019-10-28 00:00:00+01:00,20.6766128405992,209.616695332198
2019-10-29 00:00:00+01:00,16.1965245490204,266.253233094084
2019-10-30 00:00:00+01:00,13.8433351625057,270.146359385688
2019-10-31 00:00:00+01:00,12.8075298875831,270.6201874481
2019-11-01 00:00:00+01:00,11.8221879052168,270.718964791393
2019-11-02 00:00:00+01:00,10.6406371595851,270.692502002415
2019-11-03 00:00:00+01:00,9.62532741257568,271.265486572196
2019-11-04 00:00:00+01:00,8.72659270401065,272.562878821763
2019-11-05 00:00:00+01:00,7.94720654390445,281.693408943286
2019-11-06 00:00:00+01:00,7.36895072139511,286.228764653492
2019-11-07 00:00:00+01:00,6.84529115639266,287.143725355559
2019-11-08 00:00:00+01:00,6.38875167806085,287.961730345522
2019-11-09 00:00:00+01:00,6.01992649393107,288.167495267902
2019-11-10 00:00:00+01:00,5.68218965939324,291.750855847939
2019-11-11 00:00:00+01:00,5.38579832691642,331.115593619373
2019-11-12 00:00:00+01:00,5.26945508973789,333.876124006303
2019-11-12 14:09:00+01:00,,333.876124006303
