,q,s
2018-09-01 00:00:00+01:00,10.1599661102306,0.0
2018-09-02 00:00:00+01:00,10.0515776033574,0.0
2018-09-03 00:00:00+01:00,9.94612531609698,0.0
2018-09-04 00:00:00+01:00,9.83912637367859,0.0
2018-09-05 00:00:00+01:00,9.73146453512722,0.0
2018-09-06 00:00:00+01:00,9.62605170946463,0.0
2018-09-07 00:00:00+01:00,9.522241247118,0.0
2018-09-08 00:00:00+01:00,11.6895797173944,0.0
2018-09-09 00:00:00+01:00,14.9199623645268,0.0
2018-09-10 00:00:00+01:00,18.9600291991433,0.0
2018-09-11 00:00:00+01:00,23.9227383145033,0.0
2018-09-12 00:00:00+01:00,24.2763671660341,0.0
2018-09-13 00:00:00+01:00,22.2748199990039,0.0
2018-09-14 00:00:00+01:00,20.830129383555,0.0
2018-09-15 00:00:00+01:00,19.4191373153318,0.0
2018-09-16 00:00:00+01:00,18.8602798016908,0.0
2018-09-17 00:00:00+01:00,19.3374114300002,0.0
2018-09-18 00:00:00+01:00,18.8393337357101,0.0
2018-09-19 00:00:00+01:00,18.0242545600876,0.0
2018-09-20 00:00:00+01:00,17.0134388858911,0.0
2018-09-21 00:00:00+01:00,22.2675979591189,0.0
2018-09-22 00:00:00+01:00,26.9291493491833,0.0
2018-09-23 00:00:00+01:00,24.7140753498826,0.0
2018-09-24 00:00:00+01:00,22.7359403522512,0.0
2018-09-25 00:00:00+01:00,20.8703418018884,0.0
2018-09-26 00:00:00+01:00,19.0902922900584,0.0
2018-09-27 00:00:00+01:00,17.9881222465247,0.0
2018-09-28 00:00:00+01:00,16.8588797853672,0.0215502243576611
2018-09-29 00:00:00+01:00,16.4611110917021,0.448961753551588
2018-09-30 00:00:00+01:00,16.0744861119831,0.0763637962376513
2018-10-01 00:00:00+01:00,14.7205461958435,0.266375488380463
2018-10-02 00:00:00+01:00,13.9140326564418,4.71149424830264
2018-10-03 00:00:00+01:00,13.4507948486738,3.81663941981775
2018-10-04 00:00:00+01:00,12.7835937671668,5.62766436734264
2018-10-05 00:00:00+01:00,13.8975202749305,0.164212136289934
2018-10-06 00:00:00+01:00,13.6839091632315,0.164212136289934
2018-10-07 00:00:00+01:00,12.6741448779334,0.812002880769244
2018-10-08 00:00:00+01:00,12.635184516313,0.0
2018-10-09 00:00:00+01:00,12.4686679667604,0.0
2018-10-10 00:00:00+01:00,12.3373631113782,0.0
2018-10-11 00:00:00+01:00,12.2143825512939,0.0
2018-10-12 00:00:00+01:00,12.0910321532894,0.0
2018-10-13 00:00:00+01:00,11.9620156579216,0.0
2018-10-14 00:00:00+01:00,12.1176978894502,0.0
2018-10-15 00:00:00+01:00,13.0484055472999,0.0
2018-10-16 00:00:00+01:00,13.0759715702842,0.0
2018-10-17 00:00:00+01:00,12.2144148382255,0.0
2018-10-18 00:00:00+01:00,12.0648140344703,0.0
2018-10-19 00:00:00+01:00,11.9327982424782,0.0
2018-10-20 00:00:00+01:00,11.8465400078835,0.352382732208744
2018-10-21 00:00:00+01:00,13.7044529254101,0.0
2018-10-22 00:00:00+01:00,15.3303690754912,0.295670765096304
2018-10-23 00:00:00+01:00,14.6578577992483,0.373779617892978
2018-10-24 00:00:00+01:00,13.3666935242478,0.440652989093485
2018-10-25 00:00:00+01:00,12.3467848302716,0.440652989093485
2018-10-26 00:00:00+01:00,12.1365391115492,1.68396899257229
2018-10-27 00:00:00+01:00,12.0040714954904,1.68396899257229
2018-10-28 00:00:00+01:00,11.872720361434,1.68396899257229
2018-10-29 00:00:00+01:00,11.7436345136452,4.51771222195565
2018-10-30 00:00:00+01:00,11.6201548569532,19.1062347198491
2018-10-31 00:00:00+01:00,13.0187011580505,15.3730918674907
2018-11-01 00:00:00+01:00,14.1692436223287,16.5138753480119
2018-11-02 00:00:00+01:00,15.8354574487441,13.8968699392831
2018-11-03 00:00:00+01:00,17.7713979313826,12.5325397304714
2018-11-04 00:00:00+01:00,19.6107692673769,5.4103201143338
2018-11-05 00:00:00+01:00,20.6073995377363,3.7966287508934
2018-11-06 00:00:00+01:00,20.0474894375824,2.34458845833596
2018-11-07 00:00:00+01:00,19.5902233630456,1.43726631549594
2018-11-08 00:00:00+01:00,18.713557281619,0.959460297118428
2018-11-09 00:00:00+01:00,18.389042046084,0.733653486910086
2018-11-10 00:00:00+01:00,24.7111045328967,0.305472490618694
2018-11-11 00:00:00+01:00,48.325886667525,0.0
2018-11-12 00:00:00+01:00,72.4101059739364,0.0
2018-11-13 00:00:00+01:00,58.1985756790392,0.0490607679718677
2018-11-14 00:00:00+01:00,44.7612886831967,0.136966978411983
2018-11-15 00:00:00+01:00,40.5476247703475,0.0
2018-11-16 00:00:00+01:00,37.5765693828699,0.0
2018-11-17 00:00:00+01:00,34.7720433771742,0.0
2018-11-18 00:00:00+01:00,32.1490686474357,0.12320131307199
2018-11-19 00:00:00+01:00,29.6961678312429,0.279859129510319
2018-11-20 00:00:00+01:00,27.4023793685682,0.429057049927775
2018-11-21 00:00:00+01:00,25.2574115931254,0.473816426053012
2018-11-22 00:00:00+01:00,23.2518010694791,0.473816426053012
2018-11-23 00:00:00+01:00,21.376978539904,0.523549066192164
2018-11-24 00:00:00+01:00,19.6246389486165,0.523549066192164
2018-11-25 00:00:00+01:00,17.9869573624794,0.523549066192164
2018-11-26 00:00:00+01:00,16.4567452045377,0.523549066192164
2018-11-27 00:00:00+01:00,15.0273806046679,0.635447506505256
2018-11-28 00:00:00+01:00,14.1800992212267,1.620831953626
2018-11-29 00:00:00+01:00,14.0228808287267,5.35959620481434
2018-11-30 00:00:00+01:00,15.9587964032326,5.10421709541638
2018-12-01 00:00:00+01:00,17.980063876818,4.70988706563003
2018-12-02 00:00:00+01:00,18.3346627771518,11.558403370287
2018-12-03 00:00:00+01:00,19.158589846939,24.5132495873157
2018-12-04 00:00:00+01:00,18.7476943446187,26.1221819486745
2018-12-05 00:00:00+01:00,17.1875159355506,26.1221819486745
2018-12-06 00:00:00+01:00,15.7303725361837,27.9602551167265
2018-12-07 00:00:00+01:00,14.6106214103062,36.654424842871
2018-12-08 00:00:00+01:00,14.3803117518276,49.3355699059892
2018-12-09 00:00:00+01:00,14.2267113099314,50.5523241584847
2018-12-10 00:00:00+01:00,14.0714759168962,50.9303259903913
2018-12-11 00:00:00+01:00,13.9176040418954,50.9303259903913
2018-12-12 00:00:00+01:00,13.7653796525375,51.152879555014
2018-12-13 00:00:00+01:00,13.6151475648455,52.2892703821936
2018-12-14 00:00:00+01:00,13.4665167434249,52.4421982506215
2018-12-15 00:00:00+01:00,13.3197403019571,54.2769935855734
2018-12-16 00:00:00+01:00,13.1764363110098,60.9575565297202
2018-12-17 00:00:00+01:00,13.0353887546182,65.5521743062123
2018-12-18 00:00:00+01:00,12.8942020081473,66.300537511579
2018-12-19 00:00:00+01:00,12.7557433389837,74.6237469537764
2018-12-20 00:00:00+01:00,12.6189668599901,76.5756400505105
2018-12-21 00:00:00+01:00,12.4818537158338,78.0935028333029
2018-12-22 00:00:00+01:00,12.3458580514366,78.6989977269971
2018-12-23 00:00:00+01:00,12.2109364556954,78.7238640470667
2018-12-24 00:00:00+01:00,12.0773284208622,78.7238640470667
2018-12-25 00:00:00+01:00,11.9451935282108,78.7848995599647
2018-12-26 00:00:00+01:00,11.8146899306242,79.4246489888169
2018-12-27 00:00:00+01:00,11.6856486182183,79.6512715876328
2018-12-28 00:00:00+01:00,11.557853332777,79.6885710677371
2018-12-29 00:00:00+01:00,11.4313948041159,79.6885710677371
2018-12-30 00:00:00+01:00,11.3066165760607,80.7377037172181
2018-12-31 00:00:00+01:00,11.1834208219816,81.5682388075419
2019-01-01 00:00:00+01:00,11.0615773418465,82.6136563303393
2019-01-02 00:00:00+01:00,10.9409123856453,82.9326233995954
2019-01-03 00:00:00+01:00,10.8213512045708,83.1763133362772
2019-01-04 00:00:00+01:00,11.4048920252122,79.4355808514457
2019-01-05 00:00:00+01:00,12.0692245066585,79.4355808514457
2019-01-06 00:00:00+01:00,11.0374393387675,79.4604471715152
2019-01-07 00:00:00+01:00,10.869558143631,89.3940899244005
2019-01-08 00:00:00+01:00,10.7532978881282,89.4494740009191
2019-01-09 00:00:00+01:00,10.6356717994826,89.5315328571487
2019-01-10 00:00:00+01:00,10.519330499681,89.5812654972879
2019-01-11 00:00:00+01:00,10.4044406698291,90.2713058792186
2019-01-12 00:00:00+01:00,10.2909009172535,90.6924509182151
2019-01-13 00:00:00+01:00,10.1785410984813,91.1463742882125
2019-01-14 00:00:00+01:00,10.0677042480035,92.5747183187544
2019-01-15 00:00:00+01:00,9.95830171801971,93.8679930198276
2019-01-16 00:00:00+01:00,9.85222743241602,102.578551911472
2019-01-17 00:00:00+01:00,9.74684674130693,102.891641486894
2019-01-18 00:00:00+01:00,9.64042236817823,103.383994624271
2019-01-19 00:00:00+01:00,9.53512224649748,103.574221972804
2019-01-20 00:00:00+01:00,9.43097625178465,104.047925370129
2019-01-21 00:00:00+01:00,9.32802070328544,104.435839963215
2019-01-22 00:00:00+01:00,9.22605539122515,104.435839963214
2019-01-23 00:00:00+01:00,9.12513460381289,104.547738403528
2019-01-24 00:00:00+01:00,9.02580702387306,106.230284042417
2019-01-25 00:00:00+01:00,8.92807473866136,108.213147010511
2019-01-26 00:00:00+01:00,8.83169511484721,110.890119394728
2019-01-27 00:00:00+01:00,8.73672404659184,114.142181944918
2019-01-28 00:00:00+01:00,8.64347572119184,119.206434084543
2019-01-29 00:00:00+01:00,8.55026061404749,119.231300404612
2019-01-30 00:00:00+01:00,8.45670848219637,119.231300404612
2019-01-31 00:00:00+01:00,8.36459527461703,120.675242399561
2019-02-01 00:00:00+01:00,8.27464929395081,124.763152390272
2019-02-02 00:00:00+01:00,8.18592894227276,127.253740402695
2019-02-03 00:00:00+01:00,8.09715460571487,127.701334163948
2019-02-04 00:00:00+01:00,8.00927344572134,129.753935856964
2019-02-05 00:00:00+01:00,7.9226275987268,131.272024697211
2019-02-06 00:00:00+01:00,7.83673843433664,132.624978566451
2019-02-07 00:00:00+01:00,7.752736750931,137.372524211371
2019-02-08 00:00:00+01:00,7.67064804696346,142.409649456374
2019-02-09 00:00:00+01:00,7.59085224282716,151.954360357626
2019-02-10 00:00:00+01:00,7.51067175432822,153.062565145277
2019-02-11 00:00:00+01:00,7.42879063607155,153.081214885329
2019-02-12 00:00:00+01:00,7.34801922811778,154.830108387314
2019-02-13 00:00:00+01:00,7.26808404012563,154.830108387314
2019-02-14 00:00:00+01:00,7.18855510017838,154.830108387314
2019-02-15 00:00:00+01:00,7.1098963830098,154.830108387314
2019-02-16 00:00:00+01:00,7.03217525275101,155.093239265141
2019-02-17 00:00:00+01:00,6.95536542946661,155.323478783239
2019-02-18 00:00:00+01:00,6.89811889434478,154.706241621936
2019-02-19 00:00:00+01:00,6.97226598339,153.544932485696
2019-02-20 00:00:00+01:00,6.97748519658693,157.040684972568
2019-02-21 00:00:00+01:00,6.90284120974841,159.67199375084
2019-02-22 00:00:00+01:00,6.82832639615903,160.742488829835
2019-02-23 00:00:00+01:00,6.75389609817424,160.742488829835
2019-02-24 00:00:00+01:00,6.67999351336147,160.742488829835
2019-02-25 00:00:00+01:00,6.60689958653849,160.742488829835
2019-02-26 00:00:00+01:00,6.69940069271247,158.941957764417
2019-02-27 00:00:00+01:00,6.71043317685835,158.941957764417
2019-02-28 00:00:00+01:00,6.68548954645429,158.79385601161
2019-03-01 00:00:00+01:00,6.66056378868612,158.79385601161
2019-03-02 00:00:00+01:00,6.58819266689984,160.539935523585
2019-03-03 00:00:00+01:00,6.51856348144451,167.359184716483
2019-03-04 00:00:00+01:00,6.44966273766254,169.413707897868
2019-03-05 00:00:00+01:00,6.37969427641419,169.601448614393
2019-03-06 00:00:00+01:00,6.31161670986786,175.3514460443
2019-03-07 00:00:00+01:00,6.2484181994933,190.151314606074
2019-03-08 00:00:00+01:00,6.18434036773609,191.279793422322
2019-03-09 00:00:00+01:00,6.1169722337289,191.279793422322
2019-03-10 00:00:00+01:00,6.05015562441989,191.678897859439
2019-03-11 00:00:00+01:00,5.98406768053081,191.703764179508
2019-03-12 00:00:00+01:00,5.92185978203763,202.875636643131
2019-03-13 00:00:00+01:00,5.86323275943196,213.755216817208
2019-03-14 00:00:00+01:00,5.8019899686366,213.755216817208
2019-03-15 00:00:00+01:00,5.73850334558122,213.755216817208
2019-03-16 00:00:00+01:00,5.67605802266079,214.941453313255
2019-03-17 00:00:00+01:00,5.61658074978036,222.859567795773
2019-03-18 00:00:00+01:00,5.55732837085174,223.149389434568
2019-03-19 00:00:00+01:00,5.49664775519992,223.32475795182
2019-03-20 00:00:00+01:00,5.43654922270357,223.32475795182
2019-03-21 00:00:00+01:00,5.39583000787378,222.907912861341
2019-03-22 00:00:00+01:00,5.37482854237373,222.907912861341
2019-03-23 00:00:00+01:00,5.83681195008284,219.943185010051
2019-03-24 00:00:00+01:00,6.01708290505906,219.523820969296
2019-03-25 00:00:00+01:00,5.64792762967192,219.603211728925
2019-03-26 00:00:00+01:00,5.58709909421723,219.71329098463
2019-03-27 00:00:00+01:00,5.53737192527024,219.566153234766
2019-03-28 00:00:00+01:00,5.9336098348722,217.017460006852
2019-03-29 00:00:00+01:00,10.6738756564862,204.578714827587
2019-03-30 00:00:00+01:00,14.6936298458232,204.141992101406
2019-03-31 00:00:00+01:00,13.1407512495602,204.141992101406
2019-04-01 00:00:00+01:00,11.5050049398698,204.141992101406
2019-04-02 00:00:00+01:00,9.98105003645075,204.141992101406
2019-04-03 00:00:00+01:00,8.56214867793027,204.37461411558
2019-04-04 00:00:00+01:00,8.26796096196437,202.138524480226
2019-04-05 00:00:00+01:00,8.36043350913832,211.291562165768
2019-04-06 00:00:00+01:00,7.50994019635133,212.460279209038
2019-04-07 00:00:00+01:00,7.16478360221736,211.593913599422
2019-04-08 00:00:00+01:00,7.1529473470901,211.593913599422
2019-04-09 00:00:00+01:00,7.07467825762002,211.593913599422
2019-04-10 00:00:00+01:00,6.99726560537354,211.593913599422
2019-04-11 00:00:00+01:00,6.92070001903021,211.593913599421
2019-04-12 00:00:00+01:00,6.84497222981261,211.593913599421
2019-04-13 00:00:00+01:00,6.77007307036426,211.593913599421
2019-04-14 00:00:00+01:00,6.69599347363986,211.593913599421
2019-04-15 00:00:00+01:00,6.62272447180769,211.593913599421
2019-04-16 00:00:00+01:00,6.57791801006351,211.192357520185
2019-04-17 00:00:00+01:00,7.17153368214141,208.09351703029
2019-04-18 00:00:00+01:00,8.80609849928274,204.134053256914
2019-04-19 00:00:00+01:00,11.6338237196193,197.667975507218
2019-04-20 00:00:00+01:00,16.7164429363317,187.785493547243
2019-04-21 00:00:00+01:00,21.8145478827186,180.473942421281
2019-04-22 00:00:00+01:00,27.7762624591542,168.050535181141
2019-04-23 00:00:00+01:00,34.6639846269823,156.859773284935
2019-04-24 00:00:00+01:00,46.491662095207,145.83252379997
2019-04-25 00:00:00+01:00,69.0872337916678,131.610804202949
2019-04-26 00:00:00+01:00,87.0874723471069,119.772621615149
2019-04-27 00:00:00+01:00,98.3171872936198,107.758075668013
2019-04-28 00:00:00+01:00,104.626664269544,97.4483886762753
2019-04-29 00:00:00+01:00,115.580645456763,81.9538225174905
2019-04-30 00:00:00+01:00,129.78534683152,66.8207281143459
2019-05-01 00:00:00+01:00,131.042469971892,59.176572139345
2019-05-02 00:00:00+01:00,111.350457935849,59.9086862426611
2019-05-03 00:00:00+01:00,84.547315411732,60.1697206779653
2019-05-04 00:00:00+01:00,65.0539237971491,59.5203068563653
2019-05-05 00:00:00+01:00,57.306562507617,58.6258763862841
2019-05-06 00:00:00+01:00,59.0251580932568,69.1668403917352
2019-05-07 00:00:00+01:00,52.5033563627759,70.1511707205676
2019-05-08 00:00:00+01:00,41.0343803073011,70.9886181931713
2019-05-09 00:00:00+01:00,66.7992243811462,69.0984388808395
2019-05-10 00:00:00+01:00,108.105500604596,63.6850884120067
2019-05-11 00:00:00+01:00,115.086047207264,57.683954353315
2019-05-12 00:00:00+01:00,99.9841233969833,55.8469995617106
2019-05-13 00:00:00+01:00,78.2366799064901,55.6594711490366
2019-05-14 00:00:00+01:00,64.6378006442436,51.7880403015022
2019-05-15 00:00:00+01:00,65.1501784304761,43.7223538003488
2019-05-16 00:00:00+01:00,73.0112799392703,33.9554149666104
2019-05-17 00:00:00+01:00,81.4988340128676,23.8515046070305
2019-05-18 00:00:00+01:00,95.5548381645892,17.2999782901474
2019-05-19 00:00:00+01:00,99.0042673366517,13.024721171789
2019-05-20 00:00:00+01:00,92.9004824645247,8.49324286336289
2019-05-21 00:00:00+01:00,96.4335950722424,3.90092017015729
2019-05-22 00:00:00+01:00,115.22753125607,1.79298327741864
2019-05-23 00:00:00+01:00,114.117685573855,0.856455445666659
2019-05-24 00:00:00+01:00,94.7685455874269,0.491863405826282
2019-05-25 00:00:00+01:00,90.6046311734883,0.216564893168176
2019-05-26 00:00:00+01:00,84.5323026275316,0.120590749111326
2019-05-27 00:00:00+01:00,81.6940995202407,0.0856927493075536
2019-05-28 00:00:00+01:00,88.3485251915279,0.0475136702519687
2019-05-29 00:00:00+01:00,81.4748576509511,0.0188897238462861
2019-05-30 00:00:00+01:00,75.3131769638859,0.00786609958677309
2019-05-31 00:00:00+01:00,69.1220669873813,8.38396636831641e-08
2019-06-01 00:00:00+01:00,67.5065345130771,8.38396636831641e-08
2019-06-02 00:00:00+01:00,73.0106668826072,8.38396636831641e-08
2019-06-03 00:00:00+01:00,65.2493865076964,8.38396636831641e-08
2019-06-04 00:00:00+01:00,50.0515386600388,8.38396636831641e-08
2019-06-05 00:00:00+01:00,41.868909551748,8.38396636831641e-08
2019-06-06 00:00:00+01:00,44.6837764206201,8.38396636831641e-08
2019-06-07 00:00:00+01:00,60.9601270902138,8.38396636831641e-08
2019-06-08 00:00:00+01:00,69.8819951496056,8.38396636831641e-08
2019-06-09 00:00:00+01:00,68.3499995328403,8.38396636831641e-08
2019-06-10 00:00:00+01:00,60.5264270141032,8.38396636831641e-08
2019-06-11 00:00:00+01:00,49.6825983689844,8.38396636831641e-08
2019-06-12 00:00:00+01:00,47.4298058893806,8.38396636831641e-08
2019-06-13 00:00:00+01:00,50.5157494577732,8.38396636831641e-08
2019-06-14 00:00:00+01:00,45.3759109858702,8.38396636831641e-08
2019-06-15 00:00:00+01:00,41.1419249921524,8.38396636831641e-08
2019-06-16 00:00:00+01:00,38.2428232599991,8.38396636831641e-08
2019-06-17 00:00:00+01:00,35.472767156623,8.38396636831641e-08
2019-06-18 00:00:00+01:00,35.3343932902572,8.38396636831641e-08
2019-06-19 00:00:00+01:00,39.5854081745609,8.38396636831641e-08
2019-06-20 00:00:00+01:00,42.5710235990493,8.38396636831641e-08
2019-06-21 00:00:00+01:00,41.2855905850797,8.38396636831641e-08
2019-06-22 00:00:00+01:00,38.7649125289289,8.38396636831641e-08
2019-06-23 00:00:00+01:00,36.2699802013428,8.38396636831641e-08
2019-06-24 00:00:00+01:00,33.9202843821887,8.38396636831641e-08
2019-06-25 00:00:00+01:00,32.7153330574925,8.38396636831641e-08
2019-06-26 00:00:00+01:00,31.4892718926428,8.38396636831641e-08
2019-06-27 00:00:00+01:00,29.2429285504828,8.38396636831641e-08
2019-06-28 00:00:00+01:00,27.0467742314233,8.38396636831641e-08
2019-06-29 00:00:00+01:00,25.0738890742412,8.38396636831641e-08
2019-06-30 00:00:00+01:00,23.4423049894214,8.38396636831641e-08
2019-07-01 00:00:00+01:00,22.2961905269127,8.38396636831641e-08
2019-07-02 00:00:00+01:00,20.9993035849178,8.38396636831641e-08
2019-07-03 00:00:00+01:00,19.4464685771466,8.38396636831641e-08
2019-07-04 00:00:00+01:00,18.765399798471,8.38396636831641e-08
2019-07-05 00:00:00+01:00,18.01546533776,8.38396636831641e-08
2019-07-06 00:00:00+01:00,17.2273204757622,8.38396636831641e-08
2019-07-07 00:00:00+01:00,16.4743563331789,8.38396636831641e-08
2019-07-08 00:00:00+01:00,15.6171878238865,8.38396636831641e-08
2019-07-09 00:00:00+01:00,15.4605256894853,8.38396636831641e-08
2019-07-10 00:00:00+01:00,15.2933476421236,8.38396636831641e-08
2019-07-11 00:00:00+01:00,15.1292262360901,8.38396636831641e-08
2019-07-12 00:00:00+01:00,15.0021231520026,8.38396636831641e-08
2019-07-13 00:00:00+01:00,14.890703244553,8.38396636831641e-08
2019-07-14 00:00:00+01:00,14.8421074167557,8.38396636831641e-08
2019-07-15 00:00:00+01:00,14.7956918760879,8.38396636831641e-08
2019-07-16 00:00:00+01:00,14.6555998299898,8.38396636831641e-08
2019-07-17 00:00:00+01:00,14.5432573774897,8.38396636831641e-08
2019-07-18 00:00:00+01:00,14.4281023059278,8.38396636831641e-08
2019-07-19 00:00:00+01:00,14.3379580671879,8.38396636831641e-08
2019-07-20 00:00:00+01:00,14.314535044636,8.38396636831641e-08
2019-07-21 00:00:00+01:00,15.6751501109075,8.38396636831641e-08
2019-07-22 00:00:00+01:00,16.6327085846709,8.38396636831641e-08
2019-07-23 00:00:00+01:00,15.3900066034785,8.38396636831641e-08
2019-07-24 00:00:00+01:00,14.5124751575289,8.38396636831641e-08
2019-07-25 00:00:00+01:00,14.3541099101802,8.38396636831641e-08
2019-07-26 00:00:00+01:00,14.1998679425674,8.38396636831641e-08
2019-07-27 00:00:00+01:00,14.0468416989278,8.38396636831641e-08
2019-07-28 00:00:00+01:00,13.8944013443854,8.38396636831641e-08
2019-07-29 00:00:00+01:00,14.1878182313309,8.38396636831641e-08
2019-07-30 00:00:00+01:00,14.1624395546817,8.38396636831641e-08
2019-07-31 00:00:00+01:00,13.8204517640249,8.38396636831641e-08
2019-08-01 00:00:00+01:00,13.6692254061131,8.38396636831641e-08
2019-08-02 00:00:00+01:00,13.5196537995595,8.38396636831641e-08
2019-08-03 00:00:00+01:00,13.3717188377185,8.38396636831641e-08
2019-08-04 00:00:00+01:00,13.2254100011235,8.38396636831641e-08
2019-08-05 00:00:00+01:00,13.08069549872,8.38396636831641e-08
2019-08-06 00:00:00+01:00,13.0144056275102,8.38396636831641e-08
2019-08-07 00:00:00+01:00,13.0280716759904,8.38396636831641e-08
2019-08-08 00:00:00+01:00,13.0032519485337,8.38396636831641e-08
2019-08-09 00:00:00+01:00,12.9035472722678,8.38396636831641e-08
2019-08-10 00:00:00+01:00,14.609798450826,8.38396636831641e-08
2019-08-11 00:00:00+01:00,18.5241903848905,8.38396636831641e-08
2019-08-12 00:00:00+01:00,22.6151433044504,8.38396636831641e-08
2019-08-13 00:00:00+01:00,24.632575139825,8.38396636831641e-08
2019-08-14 00:00:00+01:00,23.4944644389003,8.38396636831641e-08
2019-08-15 00:00:00+01:00,21.7893417995955,8.38396636831641e-08
2019-08-16 00:00:00+01:00,20.5474319382725,8.38396636831641e-08
2019-08-17 00:00:00+01:00,21.2248293615042,8.38396636831641e-08
2019-08-18 00:00:00+01:00,21.6089366596352,8.38396636831641e-08
2019-08-19 00:00:00+01:00,21.4382307712399,8.38396636831641e-08
2019-08-20 00:00:00+01:00,20.9239070700709,8.38396636831641e-08
2019-08-21 00:00:00+01:00,19.2708370926872,8.38396636831641e-08
2019-08-22 00:00:00+01:00,19.1747610151198,8.38396636831641e-08
2019-08-23 00:00:00+01:00,19.0554737614769,8.38396636831641e-08
2019-08-24 00:00:00+01:00,17.5923916313009,8.38396636831641e-08
2019-08-25 00:00:00+01:00,16.1011557420236,8.38396636831641e-08
2019-08-26 00:00:00+01:00,14.7242615096072,8.38396636831641e-08
2019-08-27 00:00:00+01:00,14.2147441893382,8.38396636831641e-08
2019-08-28 00:00:00+01:00,14.4222664460167,8.38396636831641e-08
2019-08-29 00:00:00+01:00,17.4458590661449,8.38396636831641e-08
2019-08-30 00:00:00+01:00,19.470237980675,8.38396636831641e-08
2019-08-31 00:00:00+01:00,18.2692828852087,8.38396636831641e-08
2019-09-01 00:00:00+01:00,18.4254464205587,8.38396636831641e-08
2019-09-02 00:00:00+01:00,18.3389396857318,8.38396636831641e-08
2019-09-03 00:00:00+01:00,20.7772105157143,8.38396636831641e-08
2019-09-04 00:00:00+01:00,32.3039727210209,8.38396636831641e-08
2019-09-05 00:00:00+01:00,39.3788030378825,8.38396636831641e-08
2019-09-06 00:00:00+01:00,42.9968516640967,8.38396636831641e-08
2019-09-07 00:00:00+01:00,69.8828546007761,8.38396636831641e-08
2019-09-08 00:00:00+01:00,75.6814497173692,8.38396636831641e-08
2019-09-09 00:00:00+01:00,64.6893552492266,8.38396636831641e-08
2019-09-10 00:00:00+01:00,64.9347904914795,8.38396636831641e-08
2019-09-11 00:00:00+01:00,59.4323814216107,8.38396636831641e-08
2019-09-12 00:00:00+01:00,48.6879655781363,8.38396636831641e-08
2019-09-13 00:00:00+01:00,43.8836502634432,8.38396636831641e-08
2019-09-14 00:00:00+01:00,42.0091958637505,8.38396636831641e-08
2019-09-15 00:00:00+01:00,40.1858083948881,8.38396636831641e-08
2019-09-16 00:00:00+01:00,37.4265611879032,8.38396636831641e-08
2019-09-17 00:00:00+01:00,34.7860667023438,8.38396636831641e-08
2019-09-18 00:00:00+01:00,32.3117466473936,8.38396636831641e-08
2019-09-19 00:00:00+01:00,30.2371961763746,8.38396636831641e-08
2019-09-20 00:00:00+01:00,28.4022401452894,8.38396636831641e-08
2019-09-21 00:00:00+01:00,26.428036065252,8.38396636831641e-08
2019-09-22 00:00:00+01:00,24.7039816589465,8.38396636831641e-08
2019-09-23 00:00:00+01:00,23.098611391068,8.38396636831641e-08
2019-09-24 00:00:00+01:00,21.3765191072057,8.38396636831641e-08
2019-09-25 00:00:00+01:00,19.7386955774331,8.38396636831641e-08
2019-09-26 00:00:00+01:00,18.2070716902269,8.38396636831641e-08
2019-09-27 00:00:00+01:00,22.1411019779139,8.38396636831641e-08
2019-09-28 00:00:00+01:00,27.4498063152284,8.38396636831641e-08
2019-09-29 00:00:00+01:00,28.6713413215247,8.38396636831641e-08
2019-09-30 00:00:00+01:00,28.6584763119462,2.20755814116132
2019-10-01 00:00:00+01:00,29.0793543430516,8.06246005402993
2019-10-02 00:00:00+01:00,29.6461163417123,5.51477145310343
2019-10-03 00:00:00+01:00,29.1927123620045,8.20942300133714
2019-10-04 00:00:00+01:00,27.6361628277838,8.30535239628819
2019-10-05 00:00:00+01:00,25.6406072124214,8.30535239628819
2019-10-06 00:00:00+01:00,23.7701081282063,8.30535239628819
2019-10-07 00:00:00+01:00,22.0201350890481,8.3053523962882
2019-10-08 00:00:00+01:00,20.5462180732488,12.4823057520096
2019-10-09 00:00:00+01:00,19.8075330568826,11.2504273675581
2019-10-10 00:00:00+01:00,20.5844779931008,7.24641378312315
2019-10-11 00:00:00+01:00,22.380710199794,3.4842064165314
2019-10-12 00:00:00+01:00,23.3782265414488,1.86473712039617
2019-10-13 00:00:00+01:00,22.3637622536574,2.04836456623373
2019-10-14 00:00:00+01:00,20.8171364478029,2.24498544558221
2019-10-15 00:00:00+01:00,21.8071434385759,4.92857974525668
2019-10-16 00:00:00+01:00,24.9800554354623,7.99863343846337
2019-10-17 00:00:00+01:00,26.2650157347357,8.54002812088899
2019-10-18 00:00:00+01:00,28.85586132361,6.65253092735338
2019-10-19 00:00:00+01:00,39.478280723496,9.06477668097469
2019-10-20 00:00:00+01:00,45.2506594872294,10.7927540367161
2019-10-21 00:00:00+01:00,42.3412985362038,12.2115029979989
2019-10-22 00:00:00+01:00,40.9893583949268,9.51082854198385
2019-10-23 00:00:00+01:00,39.9260558303362,7.57066927807037
2019-10-24 00:00:00+01:00,40.9247325590783,4.76149733146332
2019-10-25 00:00:00+01:00,42.2735116842909,3.52330130803412
2019-10-26 00:00:00+01:00,40.9191060791116,3.52330130803412
2019-10-27 00:00:00+01:00,38.1400846096763,3.52330130803411
2019-10-28 00:00:00+01:00,35.5400163454504,3.56368390914052
2019-10-29 00:00:00+01:00,33.1056008881655,3.56368390914052
2019-10-30 00:00:00+01:00,30.8249230381627,3.56368390914052
2019-10-31 00:00:00+01:00,28.6900360011697,3.62471942203857
2019-11-01 00:00:00+01:00,26.6916273954799,3.62471942203857
2019-11-02 00:00:00+01:00,24.8210021018718,3.62471942203858
2019-11-03 00:00:00+01:00,23.0701884216355,3.62471942203858
2019-11-04 00:00:00+01:00,21.4316234504005,3.62471942203858
2019-11-05 00:00:00+01:00,19.8982204868766,3.62471942203857
2019-11-06 00:00:00+01:00,18.5253193543688,3.62471942203857
2019-11-07 00:00:00+01:00,18.0556059590911,3.62471942203857
2019-11-08 00:00:00+01:00,17.858754874539,6.07936429908849
2019-11-09 00:00:00+01:00,17.6654567076645,11.0716171392386
2019-11-10 00:00:00+01:00,17.4739447804068,12.6123117250041
2019-11-11 00:00:00+01:00,17.2857809846193,21.6035209472524
2019-11-12 00:00:00+01:00,17.1011916873116,28.9521429567575
2019-11-12 14:09:00+01:00,,29.414126198345684
