,q,s
2018-09-01 00:00:00+01:00,9.97411344383356,0.0213353795697808
2018-09-02 00:00:00+01:00,9.18716093973299,3.46068935922298e-07
2018-09-03 00:00:00+01:00,8.2315352564117,3.46068935922298e-07
2018-09-04 00:00:00+01:00,7.32114450094026,3.46068935922298e-07
2018-09-05 00:00:00+01:00,6.5469215502997,3.46068935922298e-07
2018-09-06 00:00:00+01:00,5.89101764613308,3.46068935922298e-07
2018-09-07 00:00:00+01:00,5.42950270655654,3.46068935922298e-07
2018-09-08 00:00:00+01:00,5.18331998834282,3.46068935922298e-07
2018-09-09 00:00:00+01:00,4.95027769742765,3.46068935922298e-07
2018-09-10 00:00:00+01:00,4.73148008303514,3.46068935922298e-07
2018-09-11 00:00:00+01:00,4.58305515479636,3.46068935922298e-07
2018-09-12 00:00:00+01:00,4.6657524907888,3.46068935922298e-07
2018-09-13 00:00:00+01:00,4.79924844252853,3.46068935922298e-07
2018-09-14 00:00:00+01:00,4.83648567389436,3.46068935922298e-07
2018-09-15 00:00:00+01:00,5.193079798877,3.46068935922298e-07
2018-09-16 00:00:00+01:00,5.4606887424683,3.46068935922298e-07
2018-09-17 00:00:00+01:00,5.31011481398815,3.46068935922298e-07
2018-09-18 00:00:00+01:00,5.02159457183587,0.000447014178101727
2018-09-19 00:00:00+01:00,5.0523771663202,3.46068935922298e-07
2018-09-20 00:00:00+01:00,5.40734054564635,3.46068935922298e-07
2018-09-21 00:00:00+01:00,5.51411454704833,3.46068935922298e-07
2018-09-22 00:00:00+01:00,6.14594131222948,3.46068935922298e-07
2018-09-23 00:00:00+01:00,6.60780966836499,3.46068935922298e-07
2018-09-24 00:00:00+01:00,6.51793642912975,3.55044400992645
2018-09-25 00:00:00+01:00,6.39844412250917,11.2745757675751
2018-09-26 00:00:00+01:00,6.38029498841701,31.6387423246604
2018-09-27 00:00:00+01:00,6.21696914481881,33.2867111401773
2018-09-28 00:00:00+01:00,6.85505909227658,21.8227527208622
2018-09-29 00:00:00+01:00,6.46875944322211,22.6219804252586
2018-09-30 00:00:00+01:00,6.14735798715894,22.9646704363559
2018-10-01 00:00:00+01:00,5.87431118787836,22.5644484502993
2018-10-02 00:00:00+01:00,5.59023943497728,22.7562992016315
2018-10-03 00:00:00+01:00,5.33972985483921,26.0951626130695
2018-10-04 00:00:00+01:00,5.10318344937652,26.6950536547405
2018-10-05 00:00:00+01:00,4.88183769476899,48.5101984776703
2018-10-06 00:00:00+01:00,4.83143194629204,58.7862893700716
2018-10-07 00:00:00+01:00,4.50296600049701,59.7079868542493
2018-10-08 00:00:00+01:00,4.30217305708843,63.1602201036061
2018-10-09 00:00:00+01:00,4.19110379348306,64.7821297453244
2018-10-10 00:00:00+01:00,4.11486884172838,68.1363764422281
2018-10-11 00:00:00+01:00,3.9204100712982,68.1612444813366
2018-10-12 00:00:00+01:00,3.81822460208648,71.2033154186275
2018-10-13 00:00:00+01:00,4.1743453614962,45.7150870389077
2018-10-14 00:00:00+01:00,5.71757107394638,16.2240993270888
2018-10-15 00:00:00+01:00,7.25190276354608,5.85196851762224
2018-10-16 00:00:00+01:00,7.31703774311726,6.3722577840386
2018-10-17 00:00:00+01:00,6.86349328981932,6.47476250724266
2018-10-18 00:00:00+01:00,6.63185452468803,6.76559256168397
2018-10-19 00:00:00+01:00,6.38027420581735,8.18392800867217
2018-10-20 00:00:00+01:00,5.96405579527149,17.1115494205187
2018-10-21 00:00:00+01:00,5.80555918640565,15.8418469038324
2018-10-22 00:00:00+01:00,5.63408268096432,17.6876409862554
2018-10-23 00:00:00+01:00,5.29046702312065,17.6550408935004
2018-10-24 00:00:00+01:00,5.00796364324729,19.8929137309787
2018-10-25 00:00:00+01:00,4.74073767028484,23.8227803985948
2018-10-26 00:00:00+01:00,4.52519932033249,24.9835832429474
2018-10-27 00:00:00+01:00,4.40831814726088,31.1925889164477
2018-10-28 00:00:00+01:00,4.22729123671291,31.9187288732297
2018-10-29 00:00:00+01:00,4.09035879602813,32.5371200057217
2018-10-30 00:00:00+01:00,4.01442362049656,47.9495194305294
2018-10-31 00:00:00+01:00,3.9104478781957,71.0973770511959
2018-11-01 00:00:00+01:00,3.8237040207597,74.2299748919708
2018-11-02 00:00:00+01:00,3.80612529119154,80.9908595508126
2018-11-03 00:00:00+01:00,3.74586648775892,90.4787011811312
2018-11-04 00:00:00+01:00,3.70572571831139,99.8801982375233
2018-11-05 00:00:00+01:00,3.74195960617401,98.1459344172165
2018-11-06 00:00:00+01:00,3.83948818808279,97.2057279436098
2018-11-07 00:00:00+01:00,3.78055498372929,97.8735964159059
2018-11-08 00:00:00+01:00,3.67245201108075,98.9935755428985
2018-11-09 00:00:00+01:00,3.60713566260066,100.422793905635
2018-11-10 00:00:00+01:00,3.5188327418452,100.705628211956
2018-11-11 00:00:00+01:00,3.45308510454433,100.363125449958
2018-11-12 00:00:00+01:00,3.52252458200634,100.665590991006
2018-11-13 00:00:00+01:00,3.62465720037089,101.185146680665
2018-11-14 00:00:00+01:00,3.58266227031765,111.542937329689
2018-11-15 00:00:00+01:00,3.46115583547271,112.507350114646
2018-11-16 00:00:00+01:00,3.65803821370201,106.700723303669
2018-11-17 00:00:00+01:00,4.33258061149814,80.4478177630388
2018-11-18 00:00:00+01:00,4.62430922831944,81.0979281830051
2018-11-19 00:00:00+01:00,4.41941518428089,83.6790314460839
2018-11-20 00:00:00+01:00,4.25294917093914,86.7323646360087
2018-11-21 00:00:00+01:00,4.33863849439579,89.6957341855331
2018-11-22 00:00:00+01:00,4.25875225185797,93.27503615951
2018-11-23 00:00:00+01:00,4.2204865632997,131.064297470115
2018-11-24 00:00:00+01:00,4.11623311943413,149.473150696227
2018-11-25 00:00:00+01:00,3.9779420416904,170.54262722089
2018-11-26 00:00:00+01:00,3.75457796377509,178.41396714941
2018-11-27 00:00:00+01:00,3.65241506421328,183.688983527602
2018-11-28 00:00:00+01:00,3.48681155152157,186.067522564119
2018-11-29 00:00:00+01:00,3.38492087732144,188.394096381824
2018-11-30 00:00:00+01:00,3.28946888436598,193.52216804315
2018-12-01 00:00:00+01:00,3.22676791649818,194.817508870048
2018-12-02 00:00:00+01:00,3.1923177952988,195.16016867323
2018-12-03 00:00:00+01:00,3.16074602164819,198.60341107159
2018-12-04 00:00:00+01:00,3.11347732891696,205.64872921637
2018-12-05 00:00:00+01:00,3.12995516942304,244.804349086644
2018-12-06 00:00:00+01:00,3.0400063730128,252.595764741642
2018-12-07 00:00:00+01:00,2.99474278016639,255.33149146336
2018-12-08 00:00:00+01:00,2.95259797436077,258.701401463228
2018-12-09 00:00:00+01:00,2.94790927806508,285.731253130549
2018-12-10 00:00:00+01:00,2.86905773641472,288.819654112521
2018-12-11 00:00:00+01:00,2.82557035397351,292.349478413493
2018-12-12 00:00:00+01:00,2.76979169598029,293.036898182402
2018-12-13 00:00:00+01:00,2.71386721561064,293.153905149277
2018-12-14 00:00:00+01:00,2.68213599786128,292.846292270427
2018-12-15 00:00:00+01:00,2.6477093487145,293.593808471597
2018-12-16 00:00:00+01:00,2.61935816254361,295.0634315618
2018-12-17 00:00:00+01:00,2.5570136850457,296.453653668547
2018-12-18 00:00:00+01:00,2.51579592061517,297.875039452058
2018-12-19 00:00:00+01:00,2.47232757240865,298.019756098892
2018-12-20 00:00:00+01:00,2.42688026235307,298.161312168646
2018-12-21 00:00:00+01:00,2.3854541229505,298.837281423537
2018-12-22 00:00:00+01:00,2.3460355453572,300.376185622951
2018-12-23 00:00:00+01:00,2.31178237706144,307.056964099763
2018-12-24 00:00:00+01:00,2.2797197652122,311.343223232949
2018-12-25 00:00:00+01:00,2.25087099748864,324.604742899459
2018-12-26 00:00:00+01:00,2.23030830698165,328.830740210486
2018-12-27 00:00:00+01:00,2.19405093451663,331.316530094997
2018-12-28 00:00:00+01:00,2.21493508175433,339.241327641856
2018-12-29 00:00:00+01:00,2.17444502456028,350.908708821695
2018-12-30 00:00:00+01:00,2.13947600607912,359.012282244294
2018-12-31 00:00:00+01:00,2.13491073456604,365.231344488049
2019-01-01 00:00:00+01:00,2.13456309731643,386.22270046498
2019-01-02 00:00:00+01:00,2.08672533884522,391.73177256674
2019-01-03 00:00:00+01:00,2.18072647487331,421.095041562349
2019-01-04 00:00:00+01:00,2.06858101808057,421.341543680332
2019-01-05 00:00:00+01:00,2.04259728328904,422.562280468135
2019-01-06 00:00:00+01:00,2.03896648314846,430.212949748763
2019-01-07 00:00:00+01:00,2.0195792425625,437.891731670386
2019-01-08 00:00:00+01:00,1.99994018410704,442.546707986374
2019-01-09 00:00:00+01:00,1.97881192665407,448.437941638368
2019-01-10 00:00:00+01:00,2.1727490776438,493.75770232707
2019-01-11 00:00:00+01:00,2.08737322819386,520.805766014261
2019-01-12 00:00:00+01:00,2.07371338980579,534.276775804967
2019-01-13 00:00:00+01:00,2.0041906358458,539.022815835557
2019-01-14 00:00:00+01:00,1.97024494431491,543.344065017627
2019-01-15 00:00:00+01:00,1.95208664695737,548.57967375155
2019-01-16 00:00:00+01:00,1.98538266089435,568.175246528179
2019-01-17 00:00:00+01:00,1.92354209856177,579.695035556049
2019-01-18 00:00:00+01:00,1.90369056160641,586.393095071836
2019-01-19 00:00:00+01:00,1.87933770292895,589.213216106002
2019-01-20 00:00:00+01:00,1.85917170727677,593.181632582792
2019-01-21 00:00:00+01:00,1.83946932730959,601.747465597613
2019-01-22 00:00:00+01:00,1.82094347308438,603.727756042792
2019-01-23 00:00:00+01:00,1.80626165959211,604.728491788654
2019-01-24 00:00:00+01:00,1.7812906416074,606.513954673857
2019-01-25 00:00:00+01:00,1.75680852384044,608.493789624817
2019-01-26 00:00:00+01:00,1.73869768800244,609.509310856203
2019-01-27 00:00:00+01:00,1.71602758045627,611.856883651622
2019-01-28 00:00:00+01:00,1.69764938861901,612.884942874858
2019-01-29 00:00:00+01:00,1.69589936712505,620.860807419825
2019-01-30 00:00:00+01:00,1.66530321909958,627.534872008163
2019-01-31 00:00:00+01:00,1.64538325148225,628.147704412807
2019-02-01 00:00:00+01:00,1.62664456217223,630.374466727437
2019-02-02 00:00:00+01:00,1.60839205803326,631.413488939603
2019-02-03 00:00:00+01:00,1.59009419110136,632.280357841235
2019-02-04 00:00:00+01:00,1.57419897785547,634.379785348073
2019-02-05 00:00:00+01:00,1.56090858031832,643.072357338855
2019-02-06 00:00:00+01:00,1.55500762190462,649.400430995638
2019-02-07 00:00:00+01:00,1.53058113310041,650.163952829724
2019-02-08 00:00:00+01:00,1.5135752229267,650.294391854334
2019-02-09 00:00:00+01:00,1.49625921407133,653.083237226469
2019-02-10 00:00:00+01:00,1.49510690298362,663.158002393299
2019-02-11 00:00:00+01:00,1.51048550123354,677.356113599731
2019-02-12 00:00:00+01:00,1.47240553241109,681.964662463997
2019-02-13 00:00:00+01:00,1.45603006205242,684.22644220802
2019-02-14 00:00:00+01:00,1.49609933300764,720.95427596336
2019-02-15 00:00:00+01:00,1.50268106250432,745.87663891106
2019-02-16 00:00:00+01:00,1.55240937004058,769.300702734923
2019-02-17 00:00:00+01:00,1.48005168950005,773.417158483413
2019-02-18 00:00:00+01:00,1.46504432682419,797.596353188477
2019-02-19 00:00:00+01:00,1.46176417766424,816.728875111999
2019-02-20 00:00:00+01:00,1.52983154937365,826.908836154639
2019-02-21 00:00:00+01:00,1.44594198340885,827.598334544485
2019-02-22 00:00:00+01:00,1.44632736959225,843.514318549842
2019-02-23 00:00:00+01:00,1.45404872130969,849.104822216769
2019-02-24 00:00:00+01:00,1.50802847381019,851.402212112946
2019-02-25 00:00:00+01:00,1.53393838219478,862.384920190012
2019-02-26 00:00:00+01:00,1.53612184338547,871.662401443931
2019-02-27 00:00:00+01:00,1.53854593429532,891.370460197783
2019-02-28 00:00:00+01:00,1.65187489610388,900.248281541765
2019-03-01 00:00:00+01:00,1.49778450167785,903.405733667118
2019-03-02 00:00:00+01:00,1.47351932137513,904.219156620608
2019-03-03 00:00:00+01:00,1.47823684701313,909.259165967702
2019-03-04 00:00:00+01:00,1.6317998466756,928.39965191256
2019-03-05 00:00:00+01:00,1.47632212555587,936.963181081678
2019-03-06 00:00:00+01:00,1.46895266206001,949.925416227806
2019-03-07 00:00:00+01:00,1.4398867184484,952.348777433773
2019-03-08 00:00:00+01:00,1.42042987847379,954.27301770801
2019-03-09 00:00:00+01:00,1.40566503167769,960.496036771323
2019-03-10 00:00:00+01:00,1.38785137800388,960.791521052048
2019-03-11 00:00:00+01:00,1.37114127114772,963.361402987184
2019-03-12 00:00:00+01:00,1.35469842933591,966.761457007727
2019-03-13 00:00:00+01:00,1.33885378417604,967.603700140295
2019-03-14 00:00:00+01:00,1.32477433500687,977.653428934553
2019-03-15 00:00:00+01:00,1.31347642718719,987.40975808305
2019-03-16 00:00:00+01:00,1.30072030246293,989.934304089732
2019-03-17 00:00:00+01:00,1.28538068317812,991.076658247598
2019-03-18 00:00:00+01:00,1.27192306013026,995.309211707082
2019-03-19 00:00:00+01:00,1.2609159630104,996.604686591096
2019-03-20 00:00:00+01:00,1.27733492892671,1009.0346530011
2019-03-21 00:00:00+01:00,1.24166900774996,1016.50267526149
2019-03-22 00:00:00+01:00,1.23047952834419,1020.36332357867
2019-03-23 00:00:00+01:00,1.21833289861655,1021.53188889146
2019-03-24 00:00:00+01:00,1.21744128539244,1027.55228781151
2019-03-25 00:00:00+01:00,1.20048915897779,1034.22650170964
2019-03-26 00:00:00+01:00,1.18876753928186,1037.73421065997
2019-03-27 00:00:00+01:00,1.19215651307698,1046.13858484625
2019-03-28 00:00:00+01:00,1.1987112245704,1053.42105949503
2019-03-29 00:00:00+01:00,1.20300983993419,1059.86072681961
2019-03-30 00:00:00+01:00,1.20804587952337,1073.63911250205
2019-03-31 00:00:00+01:00,1.20645943246069,1090.46237359738
2019-04-01 00:00:00+01:00,1.20942463056472,1096.2531232853
2019-04-02 00:00:00+01:00,1.1798194983942,1101.02488251327
2019-04-03 00:00:00+01:00,1.16480444299648,1109.33672023935
2019-04-04 00:00:00+01:00,1.14677717903441,1109.65090654386
2019-04-05 00:00:00+01:00,1.13104177283668,1109.66324394897
2019-04-06 00:00:00+01:00,1.125678273938,1111.68486872123
2019-04-07 00:00:00+01:00,1.14532070038823,1115.7692956844
2019-04-08 00:00:00+01:00,1.10309857732659,1116.08496003952
2019-04-09 00:00:00+01:00,1.08862815396237,1116.4916772142
2019-04-10 00:00:00+01:00,1.07254702218234,1116.4916772142
2019-04-11 00:00:00+01:00,1.07206030789282,1119.47176348704
2019-04-12 00:00:00+01:00,1.06230097181803,1121.0350407947
2019-04-13 00:00:00+01:00,1.04733470284444,1121.39899549673
2019-04-14 00:00:00+01:00,1.04077617299039,1120.29633379784
2019-04-15 00:00:00+01:00,1.06790723697868,1117.58988684873
2019-04-16 00:00:00+01:00,1.07258982827004,1117.54748793822
2019-04-17 00:00:00+01:00,1.05773390663725,1116.64675220834
2019-04-18 00:00:00+01:00,1.05507590807392,1116.57201512729
2019-04-19 00:00:00+01:00,1.06006407659423,1115.70067203776
2019-04-20 00:00:00+01:00,1.46812904057488,1091.48542852655
2019-04-21 00:00:00+01:00,2.6827665213868,1051.33895118527
2019-04-22 00:00:00+01:00,3.96260155717352,1031.80482231609
2019-04-23 00:00:00+01:00,6.04641275781186,968.725972957972
2019-04-24 00:00:00+01:00,10.421165779517,901.576607221618
2019-04-25 00:00:00+01:00,15.0108868402017,850.847148875803
2019-04-26 00:00:00+01:00,18.9251230626448,788.012610327792
2019-04-27 00:00:00+01:00,19.7559802049511,782.889051549225
2019-04-28 00:00:00+01:00,18.8821689973988,760.360005054464
2019-04-29 00:00:00+01:00,18.2208701139857,750.095405321438
2019-04-30 00:00:00+01:00,17.3003663287382,747.538341964551
2019-05-01 00:00:00+01:00,15.8511986142213,749.256209033133
2019-05-02 00:00:00+01:00,13.8418651834413,752.008221966037
2019-05-03 00:00:00+01:00,12.1714742385109,760.667744028748
2019-05-04 00:00:00+01:00,10.6486390770837,763.255462168337
2019-05-05 00:00:00+01:00,9.31291330310481,765.628018346768
2019-05-06 00:00:00+01:00,8.33091034632197,765.984020869559
2019-05-07 00:00:00+01:00,8.18529905992949,755.664155479709
2019-05-08 00:00:00+01:00,8.77310925984102,780.45131016222
2019-05-09 00:00:00+01:00,9.06589003791881,766.355625391517
2019-05-10 00:00:00+01:00,12.0108232889921,711.610934693053
2019-05-11 00:00:00+01:00,16.4753595894895,662.673877913241
2019-05-12 00:00:00+01:00,21.6098235838302,649.024369817441
2019-05-13 00:00:00+01:00,23.5091586485721,639.025784657228
2019-05-14 00:00:00+01:00,22.1470764955852,623.836206464666
2019-05-15 00:00:00+01:00,21.1964555912836,606.413194974374
2019-05-16 00:00:00+01:00,20.7005279576556,585.203870288734
2019-05-17 00:00:00+01:00,22.1982904814434,537.427751571892
2019-05-18 00:00:00+01:00,25.5689693709398,481.6992159311
2019-05-19 00:00:00+01:00,28.3830101830615,438.341080201765
2019-05-20 00:00:00+01:00,31.8673417414426,384.908826916813
2019-05-21 00:00:00+01:00,33.7354923856722,361.572286882002
2019-05-22 00:00:00+01:00,30.5529889208102,357.261218360922
2019-05-23 00:00:00+01:00,26.3861664498787,352.49710395437
2019-05-24 00:00:00+01:00,23.246176568211,344.572426582122
2019-05-25 00:00:00+01:00,21.3851404558621,335.720599240352
2019-05-26 00:00:00+01:00,20.4247262951902,327.87993039734
2019-05-27 00:00:00+01:00,20.5625421394581,313.587667867265
2019-05-28 00:00:00+01:00,21.2490075056248,293.500604947
2019-05-29 00:00:00+01:00,26.0875448930861,274.872099399504
2019-05-30 00:00:00+01:00,33.4964134971019,263.496585487661
2019-05-31 00:00:00+01:00,36.7500534562805,262.090739426018
2019-06-01 00:00:00+01:00,35.6052705269996,258.275043374949
2019-06-02 00:00:00+01:00,32.0600617183606,253.29192268135
2019-06-03 00:00:00+01:00,29.0493365556661,244.86309168687
2019-06-04 00:00:00+01:00,28.1679660642868,227.278862404568
2019-06-05 00:00:00+01:00,28.811910050875,203.401305991393
2019-06-06 00:00:00+01:00,28.9920477693253,179.334341638108
2019-06-07 00:00:00+01:00,29.8036194858022,159.196348547684
2019-06-08 00:00:00+01:00,30.0144261598248,141.604561599399
2019-06-09 00:00:00+01:00,33.8792872156828,131.403557603134
2019-06-10 00:00:00+01:00,34.6003614738199,134.441196880391
2019-06-11 00:00:00+01:00,29.9903057594974,134.017169016576
2019-06-12 00:00:00+01:00,25.9865345111942,126.718645472188
2019-06-13 00:00:00+01:00,23.5891856312276,118.728338127375
2019-06-14 00:00:00+01:00,21.6762363537517,109.274077374945
2019-06-15 00:00:00+01:00,20.1188773189691,101.516263251024
2019-06-16 00:00:00+01:00,18.61599625044,94.4862069501626
2019-06-17 00:00:00+01:00,17.1725485320408,88.1652105828804
2019-06-18 00:00:00+01:00,17.0032389927804,83.4412654396378
2019-06-19 00:00:00+01:00,16.5465902495134,80.9856072194242
2019-06-20 00:00:00+01:00,15.1102025126399,75.3428747323733
2019-06-21 00:00:00+01:00,15.3337999418947,69.6433248970479
2019-06-22 00:00:00+01:00,19.5220709660907,68.3373924314051
2019-06-23 00:00:00+01:00,21.6325369073751,65.4645922965223
2019-06-24 00:00:00+01:00,20.2364202374586,62.0112132420412
2019-06-25 00:00:00+01:00,19.0383513441026,59.004865172372
2019-06-26 00:00:00+01:00,17.3754239413967,55.6058518870923
2019-06-27 00:00:00+01:00,16.0822145474996,53.4256195686841
2019-06-28 00:00:00+01:00,14.9194945864356,52.5609535782087
2019-06-29 00:00:00+01:00,14.152511918658,51.6424365010079
2019-06-30 00:00:00+01:00,13.1450324724418,50.2176892586231
2019-07-01 00:00:00+01:00,12.7393410087213,47.7978436433912
2019-07-02 00:00:00+01:00,12.6798711499797,45.9482919670717
2019-07-03 00:00:00+01:00,12.8396595324572,44.3242381713362
2019-07-04 00:00:00+01:00,12.754385504006,43.1832050800215
2019-07-05 00:00:00+01:00,12.1731443290939,40.1636491621102
2019-07-06 00:00:00+01:00,12.4058025391004,38.5372589429593
2019-07-07 00:00:00+01:00,12.2516369514845,34.7024436769887
2019-07-08 00:00:00+01:00,11.2909481944015,30.8008291188047
2019-07-09 00:00:00+01:00,10.4027098403713,26.9922884473734
2019-07-10 00:00:00+01:00,9.52105134330542,24.5866514409714
2019-07-11 00:00:00+01:00,8.72104106962873,22.5890574070329
2019-07-12 00:00:00+01:00,8.17327418070003,20.5794662119112
2019-07-13 00:00:00+01:00,7.66646701337735,18.9391434182299
2019-07-14 00:00:00+01:00,7.27239624519411,17.3401534944016
2019-07-15 00:00:00+01:00,6.9601558497915,16.6716475999624
2019-07-16 00:00:00+01:00,6.69413770474851,15.880352507213
2019-07-17 00:00:00+01:00,6.49753371561571,15.2393755502093
2019-07-18 00:00:00+01:00,6.2670349051384,14.0960532368634
2019-07-19 00:00:00+01:00,6.00071361212467,12.4925823511091
2019-07-20 00:00:00+01:00,5.73473825451135,10.5756717974036
2019-07-21 00:00:00+01:00,5.4941567404181,8.88155759713927
2019-07-22 00:00:00+01:00,5.24209067382736,7.40515819750318
2019-07-23 00:00:00+01:00,5.00115730863304,6.17381347381657
2019-07-24 00:00:00+01:00,4.79171969202951,5.23698399672197
2019-07-25 00:00:00+01:00,4.59528288498675,4.3778861464376
2019-07-26 00:00:00+01:00,4.38843989255313,3.61011614257155
2019-07-27 00:00:00+01:00,4.19618612793241,3.04683016242216
2019-07-28 00:00:00+01:00,4.01620509983573,2.62450153026838
2019-07-29 00:00:00+01:00,3.87437929360389,2.4097272706788
2019-07-30 00:00:00+01:00,3.72886641092361,2.34068062399259
2019-07-31 00:00:00+01:00,3.59807093505736,2.19365957011281
2019-08-01 00:00:00+01:00,3.48529014752317,1.99539541802594
2019-08-02 00:00:00+01:00,3.35340190149034,1.80486210321721
2019-08-03 00:00:00+01:00,3.22561222368799,1.67193420181098
2019-08-04 00:00:00+01:00,3.1302480424371,1.48397363103276
2019-08-05 00:00:00+01:00,3.07324410753069,1.37914926981219
2019-08-06 00:00:00+01:00,3.0087545916104,1.34526495277996
2019-08-07 00:00:00+01:00,2.94870831677753,1.13245292643135
2019-08-08 00:00:00+01:00,2.89080780763524,1.02954585984976
2019-08-09 00:00:00+01:00,2.87285194777958,0.740855492275883
2019-08-10 00:00:00+01:00,2.84595904221081,0.531595996471635
2019-08-11 00:00:00+01:00,2.84379293842954,0.315829191954603
2019-08-12 00:00:00+01:00,2.86475224522468,0.0790501439563416
2019-08-13 00:00:00+01:00,2.80889120243211,0.0168794535574079
2019-08-14 00:00:00+01:00,2.76474784048666,0.00752584499833948
2019-08-15 00:00:00+01:00,2.73143237609515,0.00186369281632589
2019-08-16 00:00:00+01:00,2.8729100117763,2.48046775435926e-07
2019-08-17 00:00:00+01:00,2.97581728790228,2.48046775435926e-07
2019-08-18 00:00:00+01:00,2.86508606585024,2.48046775435926e-07
2019-08-19 00:00:00+01:00,3.37725374564404,2.48046775435926e-07
2019-08-20 00:00:00+01:00,3.85798166351202,2.48046775435926e-07
2019-08-21 00:00:00+01:00,4.11148463326273,2.48046775435926e-07
2019-08-22 00:00:00+01:00,4.0611410713767,2.48046775435926e-07
2019-08-23 00:00:00+01:00,4.24374178361317,2.48046775435926e-07
2019-08-24 00:00:00+01:00,4.2504114064531,2.48046775435926e-07
2019-08-25 00:00:00+01:00,4.53848368989011,0.625438197429998
2019-08-26 00:00:00+01:00,4.89535850391269,2.48046775435926e-07
2019-08-27 00:00:00+01:00,4.89522877917876,2.48046775435926e-07
2019-08-28 00:00:00+01:00,4.64077179764406,2.48046775435926e-07
2019-08-29 00:00:00+01:00,4.38166215714904,2.48046775435926e-07
2019-08-30 00:00:00+01:00,4.43322659503724,2.48046775435926e-07
2019-08-31 00:00:00+01:00,4.4056600783574,2.48046775435926e-07
2019-09-01 00:00:00+01:00,4.22478180660912,2.48046775435926e-07
2019-09-02 00:00:00+01:00,5.56907404216813,2.48046775435926e-07
2019-09-03 00:00:00+01:00,6.7721440243883,2.48046775435926e-07
2019-09-04 00:00:00+01:00,6.47156511237419,0.00380316853574192
2019-09-05 00:00:00+01:00,7.07901820494663,2.48046775435926e-07
2019-09-06 00:00:00+01:00,8.21644910867277,2.48046775435926e-07
2019-09-07 00:00:00+01:00,8.09764816155431,2.48046775435926e-07
2019-09-08 00:00:00+01:00,7.75001415880825,0.134571663146137
2019-09-09 00:00:00+01:00,7.39399460445306,2.48046775435926e-07
2019-09-10 00:00:00+01:00,7.03161739363702,0.00155246049125155
2019-09-11 00:00:00+01:00,6.72458214369053,2.48046775435926e-07
2019-09-12 00:00:00+01:00,7.21019128190428,2.48046775435926e-07
2019-09-13 00:00:00+01:00,7.60176706734088,2.48046775435926e-07
2019-09-14 00:00:00+01:00,7.28977614377747,0.0406994988071357
2019-09-15 00:00:00+01:00,6.98346105769158,0.309432079536644
2019-09-16 00:00:00+01:00,6.7395990670379,2.50526561748218
2019-09-17 00:00:00+01:00,6.63492686666616,0.807152515624521
2019-09-18 00:00:00+01:00,6.51877105462198,6.08766389651344
2019-09-19 00:00:00+01:00,6.4598076854364,10.9266456225962
2019-09-20 00:00:00+01:00,6.25584951346758,12.2906347801226
2019-09-21 00:00:00+01:00,6.11718307610811,17.5492064580193
2019-09-22 00:00:00+01:00,5.94510059488012,18.733927846069
2019-09-23 00:00:00+01:00,5.66203853522933,20.5009082081075
2019-09-24 00:00:00+01:00,5.40989392279754,25.6331707841183
2019-09-25 00:00:00+01:00,5.51952449568481,15.9844048685756
2019-09-26 00:00:00+01:00,5.76642001304987,3.70557727982596
2019-09-27 00:00:00+01:00,5.72215181531377,1.01700549471455
2019-09-28 00:00:00+01:00,5.75449032831733,4.72825990731868
2019-09-29 00:00:00+01:00,5.88041535899056,15.1150640821604
2019-09-30 00:00:00+01:00,5.80157881475466,25.9676230144551
2019-10-01 00:00:00+01:00,5.68923798908362,18.4177875552943
2019-10-02 00:00:00+01:00,5.55420253646423,19.9911915504055
2019-10-03 00:00:00+01:00,5.30271111575199,21.6923267523111
2019-10-04 00:00:00+01:00,5.05460085642092,23.431551103918
2019-10-05 00:00:00+01:00,4.88384666019857,26.7843556091232
2019-10-06 00:00:00+01:00,5.00155546364344,22.3980505666679
2019-10-07 00:00:00+01:00,5.07984105183921,20.3803277566264
2019-10-08 00:00:00+01:00,4.85307361677711,21.8526836796157
2019-10-09 00:00:00+01:00,4.66689782973407,26.6691665167937
2019-10-10 00:00:00+01:00,4.50663331867057,27.5899059671937
2019-10-11 00:00:00+01:00,4.35141494112832,28.0203159596504
2019-10-12 00:00:00+01:00,4.21295827658073,29.3742142725532
2019-10-13 00:00:00+01:00,4.0752746884874,29.7392501853359
2019-10-14 00:00:00+01:00,3.95612472523477,43.3577654661441
2019-10-15 00:00:00+01:00,3.84873941210208,45.1955936222994
2019-10-16 00:00:00+01:00,3.72006531507625,45.8955457468724
2019-10-17 00:00:00+01:00,3.60418964603608,49.7200983676581
2019-10-18 00:00:00+01:00,3.49457664050183,52.0400523667298
2019-10-19 00:00:00+01:00,3.38667357183725,54.1997862777069
2019-10-20 00:00:00+01:00,3.28057114503879,56.349439388422
2019-10-21 00:00:00+01:00,3.18797832061925,58.3638670502544
2019-10-22 00:00:00+01:00,3.12037229292362,99.7297978824669
2019-10-23 00:00:00+01:00,3.09608878914178,116.66296789248
2019-10-24 00:00:00+01:00,3.05349361159798,171.788734074385
2019-10-25 00:00:00+01:00,3.01533814505266,193.2458798597
2019-10-26 00:00:00+01:00,2.96077003318729,194.80560102291
2019-10-27 00:00:00+01:00,2.90977060076577,197.794400874823
2019-10-28 00:00:00+01:00,2.96557449586694,208.684558314605
2019-10-29 00:00:00+01:00,2.89846977165541,213.606100006381
2019-10-30 00:00:00+01:00,2.79688378467303,215.61074094134
2019-10-31 00:00:00+01:00,2.75407100145158,222.661333529589
2019-11-01 00:00:00+01:00,2.71345504054616,225.482607448078
2019-11-02 00:00:00+01:00,2.67494994327189,232.471092648694
2019-11-03 00:00:00+01:00,2.6649474697166,236.652353544839
2019-11-04 00:00:00+01:00,2.64485721063688,242.237541804345
2019-11-05 00:00:00+01:00,2.57345282334341,246.259855710654
2019-11-06 00:00:00+01:00,2.53323333286582,247.597685175681
2019-11-07 00:00:00+01:00,2.49452798457647,248.028539971653
2019-11-08 00:00:00+01:00,2.45194522546542,248.875948045153
2019-11-09 00:00:00+01:00,2.41293386588856,250.05170553093
2019-11-10 00:00:00+01:00,2.37487290207721,250.762748711574
2019-11-11 00:00:00+01:00,2.34563305417257,254.524351926596
2019-11-12 00:00:00+01:00,2.32613771765318,261.523637642533
2019-11-12 14:09:00+01:00,,277.25020632325464
