,q,s
2018-09-01 00:00:00+01:00,6.52155066781969,1.77167747973759e-07
2018-09-02 00:00:00+01:00,5.3896416516878,1.77167747973759e-07
2018-09-03 00:00:00+01:00,4.76704262093131,1.77167747973759e-07
2018-09-04 00:00:00+01:00,4.63926470305024,1.77167747973759e-07
2018-09-05 00:00:00+01:00,4.52636491864905,1.77167747973759e-07
2018-09-06 00:00:00+01:00,4.46605118186015,1.77167747973759e-07
2018-09-07 00:00:00+01:00,4.39474586928019,1.77167747973759e-07
2018-09-08 00:00:00+01:00,8.76873995119826,1.77167747973759e-07
2018-09-09 00:00:00+01:00,21.1948567883515,1.77167747973759e-07
2018-09-10 00:00:00+01:00,26.4121645443836,1.77167747973759e-07
2018-09-11 00:00:00+01:00,25.4889663975862,1.77167747973759e-07
2018-09-12 00:00:00+01:00,23.884007265298,1.77167747973759e-07
2018-09-13 00:00:00+01:00,20.3260403097706,1.77167747973759e-07
2018-09-14 00:00:00+01:00,17.8123834971749,1.77167747973759e-07
2018-09-15 00:00:00+01:00,15.5962764342656,1.77167747973759e-07
2018-09-16 00:00:00+01:00,13.544602788783,1.77167747973759e-07
2018-09-17 00:00:00+01:00,12.0142611371853,1.77167747973759e-07
2018-09-18 00:00:00+01:00,10.4332059112091,1.77167747973759e-07
2018-09-19 00:00:00+01:00,8.89191795911968,1.77167747973759e-07
2018-09-20 00:00:00+01:00,7.78996849873296,1.77167747973759e-07
2018-09-21 00:00:00+01:00,13.619738129794,1.77167747973759e-07
2018-09-22 00:00:00+01:00,18.5351427772669,1.77167747973759e-07
2018-09-23 00:00:00+01:00,15.8125077968833,1.77167747973759e-07
2018-09-24 00:00:00+01:00,13.4502637562663,1.77167747973759e-07
2018-09-25 00:00:00+01:00,11.5619093357205,0.0197267914375287
2018-09-26 00:00:00+01:00,10.0470988475587,1.77167747973759e-07
2018-09-27 00:00:00+01:00,10.2881657029609,0.247471405216083
2018-09-28 00:00:00+01:00,10.2621931852814,0.322273940778371
2018-09-29 00:00:00+01:00,8.78287353937652,0.272059829700563
2018-09-30 00:00:00+01:00,7.4672066202898,0.262020898998772
2018-10-01 00:00:00+01:00,6.48169694879274,0.287491303944801
2018-10-02 00:00:00+01:00,5.69336767287448,1.05549441247375
2018-10-03 00:00:00+01:00,5.31079297814186,0.748194150516234
2018-10-04 00:00:00+01:00,5.24520782389131,2.31401763404293
2018-10-05 00:00:00+01:00,5.81982579118244,0.459606940769325
2018-10-06 00:00:00+01:00,5.29163167064093,0.459606940769325
2018-10-07 00:00:00+01:00,5.12667886321767,1.30309340752137
2018-10-08 00:00:00+01:00,5.17500840157691,0.515598643898701
2018-10-09 00:00:00+01:00,5.00610892232973,0.0
2018-10-10 00:00:00+01:00,4.902416775774,0.0
2018-10-11 00:00:00+01:00,4.78360556453138,0.0
2018-10-12 00:00:00+01:00,4.67097898532207,0.0
2018-10-13 00:00:00+01:00,4.60779721260091,0.0
2018-10-14 00:00:00+01:00,4.59293180825671,0.0
2018-10-15 00:00:00+01:00,4.54085814182562,0.0
2018-10-16 00:00:00+01:00,4.43627761698652,0.0
2018-10-17 00:00:00+01:00,4.32915070059653,0.0
2018-10-18 00:00:00+01:00,5.2877226345951,0.0
2018-10-19 00:00:00+01:00,5.1478166577784,0.0
2018-10-20 00:00:00+01:00,5.01161240355604,0.0
2018-10-21 00:00:00+01:00,4.88030649864678,0.0
2018-10-22 00:00:00+01:00,4.75398502300222,0.029331069130116
2018-10-23 00:00:00+01:00,4.63116631357096,0.149015126029776
2018-10-24 00:00:00+01:00,4.51002597617886,0.149015126029776
2018-10-25 00:00:00+01:00,4.39328084349435,0.427115135606467
2018-10-26 00:00:00+01:00,4.27966503698507,0.49117975437326
2018-10-27 00:00:00+01:00,4.16715285638388,0.6123830871753
2018-10-28 00:00:00+01:00,4.0575022288882,0.652784198109314
2018-10-29 00:00:00+01:00,3.96392084563708,4.04297958488386
2018-10-30 00:00:00+01:00,3.90863086797499,13.2894121946649
2018-10-31 00:00:00+01:00,3.86800050818779,18.5060153838395
2018-11-01 00:00:00+01:00,3.83370902431083,28.1090621286615
2018-11-02 00:00:00+01:00,3.81001225669671,31.89362841084
2018-11-03 00:00:00+01:00,3.77152535288214,32.3438122183904
2018-11-04 00:00:00+01:00,3.72121412057696,28.3160472837443
2018-11-05 00:00:00+01:00,3.7463369124726,25.9023659414955
2018-11-06 00:00:00+01:00,3.81025201899139,23.31848195615
2018-11-07 00:00:00+01:00,3.83191027605486,22.6231659816413
2018-11-08 00:00:00+01:00,3.87945248830411,21.1414565398178
2018-11-09 00:00:00+01:00,3.87644542429608,23.05060723984
2018-11-10 00:00:00+01:00,6.7102738362828,23.0663163660241
2018-11-11 00:00:00+01:00,20.5383927355672,16.193162014132
2018-11-12 00:00:00+01:00,30.6913599147062,11.919367702052
2018-11-13 00:00:00+01:00,27.9458945645587,11.919367702052
2018-11-14 00:00:00+01:00,23.8045461726959,12.1621241608244
2018-11-15 00:00:00+01:00,20.5239894878933,11.5507332130527
2018-11-16 00:00:00+01:00,17.7685468163535,11.3604055235759
2018-11-17 00:00:00+01:00,15.1298106544123,11.3604055235759
2018-11-18 00:00:00+01:00,12.7899571209861,11.3604055235759
2018-11-19 00:00:00+01:00,10.7848167130585,11.5220099673119
2018-11-20 00:00:00+01:00,9.06457888934984,11.5566394909697
2018-11-21 00:00:00+01:00,7.58607273020922,11.5566394909697
2018-11-22 00:00:00+01:00,6.31805537332966,11.5566394909697
2018-11-23 00:00:00+01:00,5.23179544803484,11.5566394909697
2018-11-24 00:00:00+01:00,4.62154472488916,11.5566394909697
2018-11-25 00:00:00+01:00,4.49699134695192,11.5566394909697
2018-11-26 00:00:00+01:00,4.37800704868044,11.5566394909697
2018-11-27 00:00:00+01:00,4.26217091373481,11.5566394909697
2018-11-28 00:00:00+01:00,4.165288395811,15.5096520854743
2018-11-29 00:00:00+01:00,4.08644941686199,19.7096186567704
2018-11-30 00:00:00+01:00,4.26489545172133,19.5669401578799
2018-12-01 00:00:00+01:00,4.33450491853673,19.4242600319054
2018-12-02 00:00:00+01:00,4.27623682139228,30.4292005348249
2018-12-03 00:00:00+01:00,4.74147205491155,44.4909511423085
2018-12-04 00:00:00+01:00,4.54042923944497,44.5255806659662
2018-12-05 00:00:00+01:00,4.19286560223037,44.5255806659662
2018-12-06 00:00:00+01:00,4.1040058432625,50.0183827871508
2018-12-07 00:00:00+01:00,4.06342593296164,61.9295397527354
2018-12-08 00:00:00+01:00,4.03276296863263,70.1885062485189
2018-12-09 00:00:00+01:00,3.95660851539215,70.2577652958344
2018-12-10 00:00:00+01:00,3.85233823324758,70.2981664067684
2018-12-11 00:00:00+01:00,3.75055865057379,70.2981664067683
2018-12-12 00:00:00+01:00,3.65229828016767,70.5405730723724
2018-12-13 00:00:00+01:00,3.55736376341761,70.7425786270425
2018-12-14 00:00:00+01:00,3.46414346438681,70.7829797379764
2018-12-15 00:00:00+01:00,3.39050825120637,75.2297253894799
2018-12-16 00:00:00+01:00,3.34100328418095,81.1774335259864
2018-12-17 00:00:00+01:00,3.27929418686763,82.3943639583623
2018-12-18 00:00:00+01:00,3.20091040624814,83.3701120012232
2018-12-19 00:00:00+01:00,3.16539068497489,94.7140793444746
2018-12-20 00:00:00+01:00,3.14055760616711,99.0291278681281
2018-12-21 00:00:00+01:00,3.08251776762979,101.328143466516
2018-12-22 00:00:00+01:00,3.01045139989957,101.593636481225
2018-12-23 00:00:00+01:00,2.93242150372319,101.755240924961
2018-12-24 00:00:00+01:00,2.85575065089566,101.836043146829
2018-12-25 00:00:00+01:00,2.78062668304384,101.870672670487
2018-12-26 00:00:00+01:00,2.70992494927516,101.793575885294
2018-12-27 00:00:00+01:00,2.66123280227748,102.746015298452
2018-12-28 00:00:00+01:00,2.60292683668256,102.746015298452
2018-12-29 00:00:00+01:00,2.53405691917101,102.746015298452
2018-12-30 00:00:00+01:00,2.47954614843114,105.865120979825
2018-12-31 00:00:00+01:00,2.42817834526955,106.563308143671
2019-01-01 00:00:00+01:00,2.36718679969426,106.73645576196
2019-01-02 00:00:00+01:00,2.3051888196833,106.73645576196
2019-01-03 00:00:00+01:00,2.24419664670987,106.73645576196
2019-01-04 00:00:00+01:00,2.25210636904698,105.831216256238
2019-01-05 00:00:00+01:00,2.31328041342055,105.343468259245
2019-01-06 00:00:00+01:00,2.28982526529474,105.343468259244
2019-01-07 00:00:00+01:00,2.26098686268743,113.241972895136
2019-01-08 00:00:00+01:00,2.23293843570395,113.945232059923
2019-01-09 00:00:00+01:00,2.17671369217829,114.014491107238
2019-01-10 00:00:00+01:00,2.11937462721967,114.014491107238
2019-01-11 00:00:00+01:00,2.06329884602764,114.014491107238
2019-01-12 00:00:00+01:00,2.00870675403143,114.014491107238
2019-01-13 00:00:00+01:00,1.95620864817635,114.176095550974
2019-01-14 00:00:00+01:00,1.91202920460947,115.914392700642
2019-01-15 00:00:00+01:00,1.88710494300676,120.714779245256
2019-01-16 00:00:00+01:00,1.88346276155566,127.853882912855
2019-01-17 00:00:00+01:00,1.86028043549349,127.975086245657
2019-01-18 00:00:00+01:00,1.81380217946332,128.546823179178
2019-01-19 00:00:00+01:00,1.76823158907961,128.627625401046
2019-01-20 00:00:00+01:00,1.73367579456944,131.596494916651
2019-01-21 00:00:00+01:00,1.69982252692701,131.87930269319
2019-01-22 00:00:00+01:00,1.66157743275925,133.295790128058
2019-01-23 00:00:00+01:00,1.62531110565671,133.919121553897
2019-01-24 00:00:00+01:00,1.58566409193767,134.185838844695
2019-01-25 00:00:00+01:00,1.57405756786666,141.493018129643
2019-01-26 00:00:00+01:00,1.58159939359506,147.068196541953
2019-01-27 00:00:00+01:00,1.59568488488267,155.90029914393
2019-01-28 00:00:00+01:00,1.5954082270314,158.282215723196
2019-01-29 00:00:00+01:00,1.56452368003555,158.92863349814
2019-01-30 00:00:00+01:00,1.53812450856719,162.070125942282
2019-01-31 00:00:00+01:00,1.54332042517198,170.623443389156
2019-02-01 00:00:00+01:00,1.56664523014332,178.78674145342
2019-02-02 00:00:00+01:00,1.56975990248269,182.431061576936
2019-02-03 00:00:00+01:00,1.54248712941803,182.656153480711
2019-02-04 00:00:00+01:00,1.52058341081122,187.155193210869
2019-02-05 00:00:00+01:00,1.50132666173684,188.271558107371
2019-02-06 00:00:00+01:00,1.47618838169068,190.882239418678
2019-02-07 00:00:00+01:00,1.48316550376086,199.954999720418
2019-02-08 00:00:00+01:00,1.50827249118257,207.692074809158
2019-02-09 00:00:00+01:00,1.51137868450165,211.338668588267
2019-02-10 00:00:00+01:00,1.49207151407059,213.159167132475
2019-02-11 00:00:00+01:00,1.45975742592613,213.281594741366
2019-02-12 00:00:00+01:00,1.42425704717859,213.946901347397
2019-02-13 00:00:00+01:00,1.38977698873608,214.137363727514
2019-02-14 00:00:00+01:00,1.35465950690855,214.10798131108
2019-02-15 00:00:00+01:00,1.34797130069126,213.754894551776
2019-02-16 00:00:00+01:00,1.35338161055991,213.648122606708
2019-02-17 00:00:00+01:00,1.32584719555221,213.648122606708
2019-02-18 00:00:00+01:00,1.33979995418696,213.06558560622
2019-02-19 00:00:00+01:00,1.38563175977307,212.647260818107
2019-02-20 00:00:00+01:00,1.41387407464404,220.716114726941
2019-02-21 00:00:00+01:00,1.41267427765701,222.367488274296
2019-02-22 00:00:00+01:00,1.38260172412693,222.679153987216
2019-02-23 00:00:00+01:00,1.3534224407292,222.518201189872
2019-02-24 00:00:00+01:00,1.38354393300556,221.966388431548
2019-02-25 00:00:00+01:00,1.43570271055578,221.440532171939
2019-02-26 00:00:00+01:00,1.49527599544066,220.740996026098
2019-02-27 00:00:00+01:00,1.71283014522326,219.398786553914
2019-02-28 00:00:00+01:00,1.75318266121699,219.130796009918
2019-03-01 00:00:00+01:00,1.68484593883488,219.130796009918
2019-03-02 00:00:00+01:00,1.65178903722112,221.997351023808
2019-03-03 00:00:00+01:00,1.6486627580555,229.479077099718
2019-03-04 00:00:00+01:00,1.65285981265125,234.554051281416
2019-03-05 00:00:00+01:00,1.64884507053898,239.808119565263
2019-03-06 00:00:00+01:00,1.65775025504311,248.086849375053
2019-03-07 00:00:00+01:00,1.66658352695927,253.648385853801
2019-03-08 00:00:00+01:00,1.6434738352462,253.798447122984
2019-03-09 00:00:00+01:00,1.60149084137298,254.035082201312
2019-03-10 00:00:00+01:00,1.55998481670155,254.035082201312
2019-03-11 00:00:00+01:00,1.51870973200404,254.035082201312
2019-03-12 00:00:00+01:00,1.54472352760864,270.504393942491
2019-03-13 00:00:00+01:00,1.58351719892543,275.307578832451
2019-03-14 00:00:00+01:00,1.55922286046607,275.307578832451
2019-03-15 00:00:00+01:00,1.52222729081167,276.367277235694
2019-03-16 00:00:00+01:00,1.50754577812377,281.768783339963
2019-03-17 00:00:00+01:00,1.52352494888517,290.742901968254
2019-03-18 00:00:00+01:00,1.51610414316101,290.742901968254
2019-03-19 00:00:00+01:00,1.47599008163345,290.742901968254
2019-03-20 00:00:00+01:00,1.4369373838252,290.742901968254
2019-03-21 00:00:00+01:00,1.39891796749024,290.742901968254
2019-03-22 00:00:00+01:00,1.36232206341224,290.846790539227
2019-03-23 00:00:00+01:00,1.32730916951542,291.008893438228
2019-03-24 00:00:00+01:00,1.29278446449007,291.008893438228
2019-03-25 00:00:00+01:00,1.25857913909448,291.008893438228
2019-03-26 00:00:00+01:00,1.22527884026563,291.008893438228
2019-03-27 00:00:00+01:00,1.20522022669823,290.760200417031
2019-03-28 00:00:00+01:00,1.3086515444261,289.665809842895
2019-03-29 00:00:00+01:00,1.8462023666408,287.796765716507
2019-03-30 00:00:00+01:00,2.02753769175348,287.450320392037
2019-03-31 00:00:00+01:00,1.6493266879902,287.450320392037
2019-04-01 00:00:00+01:00,1.59154172996717,287.450320392037
2019-04-02 00:00:00+01:00,1.54943169209967,287.450320392037
2019-04-03 00:00:00+01:00,1.51168851639617,288.259566886806
2019-04-04 00:00:00+01:00,1.52209351610037,287.606949519264
2019-04-05 00:00:00+01:00,1.5649800343736,287.409579211301
2019-04-06 00:00:00+01:00,1.59526853449019,286.817159050669
2019-04-07 00:00:00+01:00,1.61284225246752,286.669235236875
2019-04-08 00:00:00+01:00,1.58179000878236,286.669235236875
2019-04-09 00:00:00+01:00,1.53993798824525,286.669235236875
2019-04-10 00:00:00+01:00,1.49919331546816,286.669235236875
2019-04-11 00:00:00+01:00,1.45952669152965,286.669235236875
2019-04-12 00:00:00+01:00,1.42090959271805,286.669235236875
2019-04-13 00:00:00+01:00,1.38331425002046,286.669235236875
2019-04-14 00:00:00+01:00,1.34671362915442,286.669235236875
2019-04-15 00:00:00+01:00,1.31230597400487,286.616017524098
2019-04-16 00:00:00+01:00,1.32313631250953,286.174973315873
2019-04-17 00:00:00+01:00,1.4804912590778,284.973739291029
2019-04-18 00:00:00+01:00,2.13902562474706,283.08304546746
2019-04-19 00:00:00+01:00,3.62511199229618,279.690140472435
2019-04-20 00:00:00+01:00,6.26749222452767,274.105685062775
2019-04-21 00:00:00+01:00,13.0071101157067,261.425110472477
2019-04-22 00:00:00+01:00,24.9700579006844,242.270026699892
2019-04-23 00:00:00+01:00,37.2007063825402,225.637036644394
2019-04-24 00:00:00+01:00,55.3688024394755,208.518701764543
2019-04-25 00:00:00+01:00,70.0000209154485,193.490771024629
2019-04-26 00:00:00+01:00,79.4952923618666,179.091552609744
2019-04-27 00:00:00+01:00,88.2713604498596,163.063781888699
2019-04-28 00:00:00+01:00,98.1648273966885,142.549435010406
2019-04-29 00:00:00+01:00,111.30012354682,118.128993923044
2019-04-30 00:00:00+01:00,121.100334826634,95.8617834294959
2019-05-01 00:00:00+01:00,117.273409550815,81.8859862151218
2019-05-02 00:00:00+01:00,91.3910341199002,81.7098867403573
2019-05-03 00:00:00+01:00,60.5190379494301,81.9053601139792
2019-05-04 00:00:00+01:00,41.0666301502258,81.935236562597
2019-05-05 00:00:00+01:00,34.0303614996383,82.3148949468255
2019-05-06 00:00:00+01:00,29.0913851876141,82.8639756241275
2019-05-07 00:00:00+01:00,24.7371094042168,82.8639756241275
2019-05-08 00:00:00+01:00,21.0996023817643,84.2366858401015
2019-05-09 00:00:00+01:00,18.8922849243789,100.18906183378
2019-05-10 00:00:00+01:00,27.5612981230238,103.048840478529
2019-05-11 00:00:00+01:00,38.174943723334,102.847895854854
2019-05-12 00:00:00+01:00,34.502906274624,102.418764605081
2019-05-13 00:00:00+01:00,30.5775375891254,100.351163382637
2019-05-14 00:00:00+01:00,31.9317717207284,89.5614192057706
2019-05-15 00:00:00+01:00,38.1928424705094,75.6670683014232
2019-05-16 00:00:00+01:00,51.9963589998984,59.209113897863
2019-05-17 00:00:00+01:00,69.4577265565793,41.0728252948313
2019-05-18 00:00:00+01:00,89.5614894373593,32.9584943737599
2019-05-19 00:00:00+01:00,91.6009219146079,27.0371534902484
2019-05-20 00:00:00+01:00,80.7785396555316,21.9602016901155
2019-05-21 00:00:00+01:00,83.3225995683071,16.0539403634019
2019-05-22 00:00:00+01:00,83.9464473948222,11.2921024906865
2019-05-23 00:00:00+01:00,74.709280618474,8.87205869187398
2019-05-24 00:00:00+01:00,61.4146869086649,8.02954070566686
2019-05-25 00:00:00+01:00,48.3072516071405,6.75996369283506
2019-05-26 00:00:00+01:00,39.6269410377821,6.60993569648064
2019-05-27 00:00:00+01:00,35.5958964093659,6.68323187573378
2019-05-28 00:00:00+01:00,31.4376324486316,6.67348193239881
2019-05-29 00:00:00+01:00,27.1258274059341,6.66358977254032
2019-05-30 00:00:00+01:00,24.2099252243595,6.65786454869468
2019-05-31 00:00:00+01:00,23.262025332718,6.57618116728408
2019-06-01 00:00:00+01:00,23.5651024938346,6.21042346162202
2019-06-02 00:00:00+01:00,26.9382952960351,5.46058245271495
2019-06-03 00:00:00+01:00,27.7300057667693,4.99100807404745
2019-06-04 00:00:00+01:00,24.2330391545401,4.43334237568116
2019-06-05 00:00:00+01:00,22.074629015998,3.97338979323146
2019-06-06 00:00:00+01:00,23.2371171055124,3.16911521725078
2019-06-07 00:00:00+01:00,27.4849243457973,2.4334763154689
2019-06-08 00:00:00+01:00,28.8198798878418,1.98057449929888
2019-06-09 00:00:00+01:00,28.7483489048963,1.74352694757374
2019-06-10 00:00:00+01:00,27.4696521366967,1.44720942902805
2019-06-11 00:00:00+01:00,24.4979168923747,1.17026227506355
2019-06-12 00:00:00+01:00,25.9255328055886,0.993272869048144
2019-06-13 00:00:00+01:00,27.2982636128692,0.912618725428293
2019-06-14 00:00:00+01:00,24.5905399905032,0.700025097811976
2019-06-15 00:00:00+01:00,21.2407484938689,0.417083407666963
2019-06-16 00:00:00+01:00,18.3946768827273,0.206554162942014
2019-06-17 00:00:00+01:00,15.9164585021822,0.0778319348601534
2019-06-18 00:00:00+01:00,13.8352999912336,0.0205052000873679
2019-06-19 00:00:00+01:00,13.6811226548998,0.0
2019-06-20 00:00:00+01:00,13.8367098073063,0.0
2019-06-21 00:00:00+01:00,12.3695654233776,0.0
2019-06-22 00:00:00+01:00,10.5841224510126,0.0
2019-06-23 00:00:00+01:00,8.96403181460179,0.0
2019-06-24 00:00:00+01:00,8.09967192176782,0.0
2019-06-25 00:00:00+01:00,8.01211913364628,0.0
2019-06-26 00:00:00+01:00,7.51182273665712,0.0
2019-06-27 00:00:00+01:00,6.43964990702279,0.0
2019-06-28 00:00:00+01:00,5.68237449683469,0.0
2019-06-29 00:00:00+01:00,5.51620194438604,0.0
2019-06-30 00:00:00+01:00,5.44707005133866,0.0
2019-07-01 00:00:00+01:00,5.37719223964422,0.0
2019-07-02 00:00:00+01:00,5.23491901829622,0.0
2019-07-03 00:00:00+01:00,5.09938153671806,0.0
2019-07-04 00:00:00+01:00,4.97233279890516,0.0
2019-07-05 00:00:00+01:00,4.84715373817264,0.0
2019-07-06 00:00:00+01:00,4.79521087364176,0.0
2019-07-07 00:00:00+01:00,4.74267008803703,0.0
2019-07-08 00:00:00+01:00,4.61718546313537,0.0
2019-07-09 00:00:00+01:00,4.49502099139521,0.0
2019-07-10 00:00:00+01:00,4.37608882606221,0.0
2019-07-11 00:00:00+01:00,4.26030344468815,0.0
2019-07-12 00:00:00+01:00,4.38308904914687,0.0
2019-07-13 00:00:00+01:00,4.3183021867307,0.0
2019-07-14 00:00:00+01:00,4.62525706789113,0.0
2019-07-15 00:00:00+01:00,5.26269913133767,0.0
2019-07-16 00:00:00+01:00,4.86428035692026,0.0
2019-07-17 00:00:00+01:00,4.32160861318369,0.0
2019-07-18 00:00:00+01:00,4.2203066543642,0.0
2019-07-19 00:00:00+01:00,4.79403850186323,0.0
2019-07-20 00:00:00+01:00,9.12168884301448,0.0
2019-07-21 00:00:00+01:00,17.1008598776918,0.0
2019-07-22 00:00:00+01:00,20.1753406927827,0.0
2019-07-23 00:00:00+01:00,17.9036881553972,0.0
2019-07-24 00:00:00+01:00,15.0994621180575,0.0
2019-07-25 00:00:00+01:00,12.6865815298306,0.0
2019-07-26 00:00:00+01:00,10.5926998742108,0.0
2019-07-27 00:00:00+01:00,8.78837147748193,0.0
2019-07-28 00:00:00+01:00,7.23990468154465,0.0
2019-07-29 00:00:00+01:00,6.01398132752012,0.0
2019-07-30 00:00:00+01:00,7.05613101541556,0.0
2019-07-31 00:00:00+01:00,8.31756880048525,0.0
2019-08-01 00:00:00+01:00,7.00210717243653,0.0
2019-08-02 00:00:00+01:00,5.77824762423199,0.0
2019-08-03 00:00:00+01:00,4.94370910084899,0.0
2019-08-04 00:00:00+01:00,4.78218178556812,0.0
2019-08-05 00:00:00+01:00,6.99523452833947,0.0
2019-08-06 00:00:00+01:00,8.86397622389092,0.0
2019-08-07 00:00:00+01:00,8.66112950925448,0.0
2019-08-08 00:00:00+01:00,9.31801295128538,0.0
2019-08-09 00:00:00+01:00,9.78413690596397,0.0
2019-08-10 00:00:00+01:00,13.9893726003634,0.0
2019-08-11 00:00:00+01:00,16.7949258853008,0.0
2019-08-12 00:00:00+01:00,22.666642785138,0.0
2019-08-13 00:00:00+01:00,30.6249168571967,0.0
2019-08-14 00:00:00+01:00,29.4763604160332,0.0
2019-08-15 00:00:00+01:00,27.5589376565035,0.0
2019-08-16 00:00:00+01:00,26.412549759841,0.0
2019-08-17 00:00:00+01:00,30.6764819571376,0.0
2019-08-18 00:00:00+01:00,33.4495024162892,0.0
2019-08-19 00:00:00+01:00,29.3932355021961,0.0
2019-08-20 00:00:00+01:00,25.8730433315423,0.0
2019-08-21 00:00:00+01:00,22.4722313497341,0.0
2019-08-22 00:00:00+01:00,21.9005137658207,0.0
2019-08-23 00:00:00+01:00,21.2304422574579,0.0
2019-08-24 00:00:00+01:00,18.6246316767288,0.0
2019-08-25 00:00:00+01:00,16.4349766250396,0.0
2019-08-26 00:00:00+01:00,14.227074780907,0.0
2019-08-27 00:00:00+01:00,12.2761181512931,0.0
2019-08-28 00:00:00+01:00,13.3928387473671,0.0
2019-08-29 00:00:00+01:00,16.651828779209,0.0
2019-08-30 00:00:00+01:00,16.5314814532377,0.0
2019-08-31 00:00:00+01:00,15.8292176732883,0.0
2019-09-01 00:00:00+01:00,15.5237816822343,0.0
2019-09-02 00:00:00+01:00,15.0865983455115,0.0
2019-09-03 00:00:00+01:00,14.2600527338678,0.0
2019-09-04 00:00:00+01:00,19.7879366530591,0.0
2019-09-05 00:00:00+01:00,24.2745286522854,0.0
2019-09-06 00:00:00+01:00,21.392123743563,0.0646382697387838
2019-09-07 00:00:00+01:00,18.8016255839576,0.0
2019-09-08 00:00:00+01:00,16.2294047927498,0.0
2019-09-09 00:00:00+01:00,15.0224025429923,0.0
2019-09-10 00:00:00+01:00,15.8171310090489,0.0
2019-09-11 00:00:00+01:00,16.5189947683941,0.0
2019-09-12 00:00:00+01:00,15.517376567532,0.0
2019-09-13 00:00:00+01:00,13.6773608747546,0.0
2019-09-14 00:00:00+01:00,12.784547550581,0.165980268030123
2019-09-15 00:00:00+01:00,12.3039617274682,0.0
2019-09-16 00:00:00+01:00,10.8948093331308,0.0
2019-09-17 00:00:00+01:00,9.31658995269191,0.0
2019-09-18 00:00:00+01:00,7.94317815440144,0.0
2019-09-19 00:00:00+01:00,6.76170349746527,0.0
2019-09-20 00:00:00+01:00,5.94775253487951,0.0
2019-09-21 00:00:00+01:00,5.80456229550988,0.0
2019-09-22 00:00:00+01:00,5.6907128309698,0.0
2019-09-23 00:00:00+01:00,5.5401442795501,0.0
2019-09-24 00:00:00+01:00,5.41238034007359,0.0
2019-09-25 00:00:00+01:00,5.32526520138875,0.0537308829236335
2019-09-26 00:00:00+01:00,5.27233675649477,0.122518422687077
2019-09-27 00:00:00+01:00,11.0616071883641,0.147766256910323
2019-09-28 00:00:00+01:00,17.7121599940974,0.0
2019-09-29 00:00:00+01:00,20.2788883761632,0.0
2019-09-30 00:00:00+01:00,21.2794881731465,0.0848449983693058
2019-10-01 00:00:00+01:00,20.7572895441812,0.336826596538971
2019-10-02 00:00:00+01:00,19.5087458770645,0.338433289103931
2019-10-03 00:00:00+01:00,17.5442162231889,3.98527012354026
2019-10-04 00:00:00+01:00,15.9235752507098,7.32427931238798
2019-10-05 00:00:00+01:00,13.7563679170671,7.32427931238798
2019-10-06 00:00:00+01:00,11.7388160142524,7.32427931238798
2019-10-07 00:00:00+01:00,10.0388205785492,8.93105423078964
2019-10-08 00:00:00+01:00,8.9093307357804,14.6694609567906
2019-10-09 00:00:00+01:00,8.12239251849529,17.4187729827904
2019-10-10 00:00:00+01:00,7.36611548151794,17.19322700501
2019-10-11 00:00:00+01:00,6.48726239147077,17.339774449142
2019-10-12 00:00:00+01:00,5.7830219252102,17.13025471936
2019-10-13 00:00:00+01:00,5.81748824034474,17.1686530234321
2019-10-14 00:00:00+01:00,6.39907124467906,15.5186010653835
2019-10-15 00:00:00+01:00,8.17979750730489,15.3732322821642
2019-10-16 00:00:00+01:00,11.0485700824285,16.9893538240484
2019-10-17 00:00:00+01:00,13.5253200946627,16.9712277601078
2019-10-18 00:00:00+01:00,15.0073880495835,16.5658600747716
2019-10-19 00:00:00+01:00,15.3930548479863,17.9265702785079
2019-10-20 00:00:00+01:00,14.4717840024111,18.0665711916138
2019-10-21 00:00:00+01:00,12.4247311390097,18.0665711916138
2019-10-22 00:00:00+01:00,11.3756051816763,16.0169489247901
2019-10-23 00:00:00+01:00,13.290719214799,10.4973164245193
2019-10-24 00:00:00+01:00,22.000427916603,8.42991804577904
2019-10-25 00:00:00+01:00,29.4919997571814,6.37607147004032
2019-10-26 00:00:00+01:00,28.0319380736601,6.37607147004031
2019-10-27 00:00:00+01:00,24.0759473074793,6.37607147004032
2019-10-28 00:00:00+01:00,20.670971262715,6.37607147004031
2019-10-29 00:00:00+01:00,17.7404505470232,6.37607147004031
2019-10-30 00:00:00+01:00,15.2184581314486,6.37607147004031
2019-10-31 00:00:00+01:00,13.0482228883298,6.37607147004031
2019-11-01 00:00:00+01:00,11.1808581544736,6.37607147004031
2019-11-02 00:00:00+01:00,9.57426684936312,6.37607147004031
2019-11-03 00:00:00+01:00,8.19219863159665,6.37607147004031
2019-11-04 00:00:00+01:00,7.00343798120785,6.37607147004031
2019-11-05 00:00:00+01:00,6.09650120316029,6.37607147004031
2019-11-06 00:00:00+01:00,5.86162313543577,8.12433772500308
2019-11-07 00:00:00+01:00,5.71293981866702,8.12433772500308
2019-11-08 00:00:00+01:00,5.60596334384963,19.1160633478167
2019-11-09 00:00:00+01:00,5.52002635687871,24.6156864357823
2019-11-10 00:00:00+01:00,5.42598947153948,32.5421745251348
2019-11-11 00:00:00+01:00,5.35834641878044,44.2034042719978
2019-11-12 00:00:00+01:00,5.3181967451389,58.8541413313937
2019-11-12 14:09:00+01:00,,61.08309918806533
