,q,s
2018-09-01 00:00:00+01:00,9.7116679091397,0.0
2018-09-02 00:00:00+01:00,8.88695506844432,0.0
2018-09-03 00:00:00+01:00,9.08605777215323,0.0
2018-09-04 00:00:00+01:00,10.9707558685426,0.0
2018-09-05 00:00:00+01:00,11.9772204098421,0.0
2018-09-06 00:00:00+01:00,11.1759913296421,0.0
2018-09-07 00:00:00+01:00,9.93948836693547,0.0
2018-09-08 00:00:00+01:00,8.82629808526454,0.0
2018-09-09 00:00:00+01:00,9.27948765185105,0.0
2018-09-10 00:00:00+01:00,10.0491307846889,0.0
2018-09-11 00:00:00+01:00,10.1653733409216,0.0
2018-09-12 00:00:00+01:00,16.2034967968537,0.0
2018-09-13 00:00:00+01:00,21.2124593804545,0.167649895180081
2018-09-14 00:00:00+01:00,20.3245788555182,0.0476173638787178
2018-09-15 00:00:00+01:00,19.1487029486525,0.122461976112361
2018-09-16 00:00:00+01:00,17.5884135431144,0.239082660498924
2018-09-17 00:00:00+01:00,16.2036391925774,0.0
2018-09-18 00:00:00+01:00,14.8576995597339,0.0
2018-09-19 00:00:00+01:00,14.8741983824189,0.0
2018-09-20 00:00:00+01:00,14.8581936393758,0.0
2018-09-21 00:00:00+01:00,18.0745453744749,0.0
2018-09-22 00:00:00+01:00,30.258078285596,8.6549753116638
2018-09-23 00:00:00+01:00,39.183364934767,41.0575860749512
2018-09-24 00:00:00+01:00,38.2112403308054,51.5373769833198
2018-09-25 00:00:00+01:00,37.3315689055835,57.8325571993339
2018-09-26 00:00:00+01:00,47.3921391903467,63.6650632491718
2018-09-27 00:00:00+01:00,58.0175221472307,63.1636947239961
2018-09-28 00:00:00+01:00,51.5518445867075,32.5436084001113
2018-09-29 00:00:00+01:00,47.083321799056,32.7372107078913
2018-09-30 00:00:00+01:00,44.5257657307623,33.8617328662219
2018-10-01 00:00:00+01:00,40.8461940878704,34.6346278668904
2018-10-02 00:00:00+01:00,36.8855712943601,39.7108219400612
2018-10-03 00:00:00+01:00,33.7807592699385,49.8958601644664
2018-10-04 00:00:00+01:00,32.2699633209114,66.7506293571636
2018-10-05 00:00:00+01:00,31.1554443970992,68.2515904788312
2018-10-06 00:00:00+01:00,29.1603360442027,70.1279913699391
2018-10-07 00:00:00+01:00,26.3953515811521,70.6516310227067
2018-10-08 00:00:00+01:00,24.8232840188375,70.3278905911557
2018-10-09 00:00:00+01:00,30.6082190272751,70.2611719175328
2018-10-10 00:00:00+01:00,42.1250712335907,57.9179815438042
2018-10-11 00:00:00+01:00,54.8808144110581,41.0047511785853
2018-10-12 00:00:00+01:00,68.9922376362522,30.2949833597876
2018-10-13 00:00:00+01:00,82.8065914492007,16.1292034850106
2018-10-14 00:00:00+01:00,140.52332407529,5.15335735916945
2018-10-15 00:00:00+01:00,146.736067806448,5.2951638363143
2018-10-16 00:00:00+01:00,100.954406839771,5.25345258903134
2018-10-17 00:00:00+01:00,81.7445077907162,4.25770806048066
2018-10-18 00:00:00+01:00,66.2363438315746,4.34314254198604
2018-10-19 00:00:00+01:00,53.640998929792,4.57918918711588
2018-10-20 00:00:00+01:00,48.6603073986071,6.68995090756225
2018-10-21 00:00:00+01:00,63.3370956027639,4.51627781801031
2018-10-22 00:00:00+01:00,71.1103049595712,25.7668900976681
2018-10-23 00:00:00+01:00,60.2756584719448,45.0186899385155
2018-10-24 00:00:00+01:00,51.639545404558,63.1164772252896
2018-10-25 00:00:00+01:00,46.5451204198714,68.2798442390145
2018-10-26 00:00:00+01:00,41.9328880359226,68.4074734124483
2018-10-27 00:00:00+01:00,37.5885517093234,68.7772653363076
2018-10-28 00:00:00+01:00,33.688971571896,68.7772653363076
2018-10-29 00:00:00+01:00,30.192784449668,69.0488714321075
2018-10-30 00:00:00+01:00,27.0608694278873,69.0808783679396
2018-10-31 00:00:00+01:00,24.4909701984726,68.3975814628315
2018-11-01 00:00:00+01:00,23.1597792764872,67.5185226760559
2018-11-02 00:00:00+01:00,24.3540084421628,71.3091878727572
2018-11-03 00:00:00+01:00,25.1010085630188,76.5952645917436
2018-11-04 00:00:00+01:00,27.0941090688283,67.5928475825133
2018-11-05 00:00:00+01:00,32.1653973155327,61.8689150214689
2018-11-06 00:00:00+01:00,32.1795580884464,60.64263682735
2018-11-07 00:00:00+01:00,33.0935834675652,53.8170902521292
2018-11-08 00:00:00+01:00,36.012074372179,48.0742027751959
2018-11-09 00:00:00+01:00,35.1443290126511,47.8082008718529
2018-11-10 00:00:00+01:00,32.0184333106073,47.3826507040743
2018-11-11 00:00:00+01:00,30.4864793774313,45.4110576466413
2018-11-12 00:00:00+01:00,32.7841283981452,42.4979312984992
2018-11-13 00:00:00+01:00,33.2796103224365,42.2304440203098
2018-11-14 00:00:00+01:00,29.9781316141935,42.1787179624413
2018-11-15 00:00:00+01:00,30.553373347008,35.4667283320343
2018-11-16 00:00:00+01:00,34.3705881600938,28.5631267885112
2018-11-17 00:00:00+01:00,34.3307965108171,28.0270686922694
2018-11-18 00:00:00+01:00,31.0781907103465,28.0328643011582
2018-11-19 00:00:00+01:00,27.8413817744161,28.0368589954813
2018-11-20 00:00:00+01:00,24.9456769398118,28.1261932301909
2018-11-21 00:00:00+01:00,22.4329664620378,28.3471571459292
2018-11-22 00:00:00+01:00,20.1538893982005,28.3785583570149
2018-11-23 00:00:00+01:00,18.0604394167928,28.4724118750324
2018-11-24 00:00:00+01:00,16.1860823551536,28.5311020403092
2018-11-25 00:00:00+01:00,14.5065550774641,28.6125717072088
2018-11-26 00:00:00+01:00,13.0304455492711,29.2393469964885
2018-11-27 00:00:00+01:00,11.7073537078545,29.3676004919744
2018-11-28 00:00:00+01:00,10.4942195933467,29.3841654791358
2018-11-29 00:00:00+01:00,9.42983570412576,29.4191566886474
2018-11-30 00:00:00+01:00,8.91391464213082,29.3121726310546
2018-12-01 00:00:00+01:00,8.24545195166875,29.6442773406929
2018-12-02 00:00:00+01:00,7.66185082537269,30.0417663457778
2018-12-03 00:00:00+01:00,7.94913979811953,46.8858271119563
2018-12-04 00:00:00+01:00,8.87931328258556,67.1822440954761
2018-12-05 00:00:00+01:00,9.04579808733765,71.1557536104157
2018-12-06 00:00:00+01:00,8.29514399914429,71.7148243872749
2018-12-07 00:00:00+01:00,7.58452707735766,73.0396013488203
2018-12-08 00:00:00+01:00,7.42462740910019,81.2893518610167
2018-12-09 00:00:00+01:00,9.34606799852571,127.809704979802
2018-12-10 00:00:00+01:00,11.7472262439565,154.032418835009
2018-12-11 00:00:00+01:00,11.7212070974589,154.980776893049
2018-12-12 00:00:00+01:00,10.5244250550231,155.010606838961
2018-12-13 00:00:00+01:00,9.41760573714757,155.150183360026
2018-12-14 00:00:00+01:00,8.42661485633613,155.188342455306
2018-12-15 00:00:00+01:00,7.59174609777613,155.192517433786
2018-12-16 00:00:00+01:00,7.22414452195938,155.488637214129
2018-12-17 00:00:00+01:00,6.94686602626289,155.551308793954
2018-12-18 00:00:00+01:00,6.67540187023436,155.555695450252
2018-12-19 00:00:00+01:00,6.41486305500963,155.627518883352
2018-12-20 00:00:00+01:00,6.17078470246815,155.970698306102
2018-12-21 00:00:00+01:00,5.94295472254021,156.423253178791
2018-12-22 00:00:00+01:00,5.79529943564622,160.57539097267
2018-12-23 00:00:00+01:00,5.65042091446162,161.208114302534
2018-12-24 00:00:00+01:00,6.62174008054216,190.042201265233
2018-12-25 00:00:00+01:00,7.21416750509982,192.737452885373
2018-12-26 00:00:00+01:00,6.5327459502134,194.419050229966
2018-12-27 00:00:00+01:00,5.96111150052242,197.270455732143
2018-12-28 00:00:00+01:00,5.73064491415787,199.102345225851
2018-12-29 00:00:00+01:00,5.95948857954854,212.84015982883
2018-12-30 00:00:00+01:00,6.0590085403144,217.632900208258
2018-12-31 00:00:00+01:00,7.4990879777227,246.884337343856
2019-01-01 00:00:00+01:00,11.2132437393894,292.413311841118
2019-01-02 00:00:00+01:00,12.771276627882,308.565826327528
2019-01-03 00:00:00+01:00,12.4513773394725,316.588057439338
2019-01-04 00:00:00+01:00,11.7689037680591,322.657831676832
2019-01-05 00:00:00+01:00,11.1318523840887,323.228407929209
2019-01-06 00:00:00+01:00,10.2843463584831,324.320684377926
2019-01-07 00:00:00+01:00,9.73823071593541,333.237050613404
2019-01-08 00:00:00+01:00,9.80150118598209,348.600861154455
2019-01-09 00:00:00+01:00,9.68859838293229,354.804153365827
2019-01-10 00:00:00+01:00,9.37356372768029,364.811347333969
2019-01-11 00:00:00+01:00,9.29542215614349,375.432809987672
2019-01-12 00:00:00+01:00,8.81584341077465,377.306429620733
2019-01-13 00:00:00+01:00,10.8904706894429,436.636235005637
2019-01-14 00:00:00+01:00,15.201585562628,493.684809196539
2019-01-15 00:00:00+01:00,16.3753677552354,499.282587006397
2019-01-16 00:00:00+01:00,15.0803190078578,503.827774388493
2019-01-17 00:00:00+01:00,16.2827794783074,556.199308673912
2019-01-18 00:00:00+01:00,17.8977842556308,576.791178361483
2019-01-19 00:00:00+01:00,17.2971913840062,584.836309717998
2019-01-20 00:00:00+01:00,15.878257434513,586.457843843797
2019-01-21 00:00:00+01:00,14.2642246043397,586.917484928996
2019-01-22 00:00:00+01:00,12.745509698588,586.917484928996
2019-01-23 00:00:00+01:00,11.3694211517811,586.974071391382
2019-01-24 00:00:00+01:00,10.1439858624078,587.085765146439
2019-01-25 00:00:00+01:00,9.06872672513421,587.55779100728
2019-01-26 00:00:00+01:00,8.11539552893741,587.870502022945
2019-01-27 00:00:00+01:00,7.30573973599812,588.796757400677
2019-01-28 00:00:00+01:00,6.91550790271171,589.077208885964
2019-01-29 00:00:00+01:00,6.64968276222599,589.118994439163
2019-01-30 00:00:00+01:00,6.39006430042473,589.152124413486
2019-01-31 00:00:00+01:00,6.1412018494342,589.223397826135
2019-02-01 00:00:00+01:00,5.90822595779459,589.586449959966
2019-02-02 00:00:00+01:00,5.69426322314742,590.211017349939
2019-02-03 00:00:00+01:00,5.48921679020887,590.625903766523
2019-02-04 00:00:00+01:00,5.28107176692988,590.636773904429
2019-02-05 00:00:00+01:00,5.07705760650774,590.799103857735
2019-02-06 00:00:00+01:00,4.89550475453659,591.594829638698
2019-02-07 00:00:00+01:00,4.72107379159848,591.815412676611
2019-02-08 00:00:00+01:00,4.54895466966474,592.316353295408
2019-02-09 00:00:00+01:00,4.38814152652578,592.805517892124
2019-02-10 00:00:00+01:00,4.47956189625185,603.220020965981
2019-02-11 00:00:00+01:00,5.39649930455969,625.832644768801
2019-02-12 00:00:00+01:00,6.23175631600773,637.731185064801
2019-02-13 00:00:00+01:00,6.08319689434439,641.147382523934
2019-02-14 00:00:00+01:00,5.48912199449568,641.528715265618
2019-02-15 00:00:00+01:00,5.45916030174727,642.949210970808
2019-02-16 00:00:00+01:00,5.76804356687741,649.301692432404
2019-02-17 00:00:00+01:00,5.41735923799078,649.342721198412
2019-02-18 00:00:00+01:00,5.26368185152545,649.288108211007
2019-02-19 00:00:00+01:00,5.86843990018769,658.246044281423
2019-02-20 00:00:00+01:00,6.09923811598999,662.145078356616
2019-02-21 00:00:00+01:00,5.57115117697033,662.626945107437
2019-02-22 00:00:00+01:00,5.58917178676567,661.595499409766
2019-02-23 00:00:00+01:00,8.22729546269554,656.367831400417
2019-02-24 00:00:00+01:00,12.0925532246881,655.137590787036
2019-02-25 00:00:00+01:00,12.4687282513255,655.720116481583
2019-02-26 00:00:00+01:00,11.7505240258644,654.684336622433
2019-02-27 00:00:00+01:00,13.5814362193549,665.325694005361
2019-02-28 00:00:00+01:00,14.6657454664215,671.182264740981
2019-03-01 00:00:00+01:00,13.351754244432,672.596830920691
2019-03-02 00:00:00+01:00,11.9232397681556,672.862773001899
2019-03-03 00:00:00+01:00,10.6153189002424,673.497779927799
2019-03-04 00:00:00+01:00,9.43246049936787,673.497779927799
2019-03-05 00:00:00+01:00,8.34878754118203,673.501269312016
2019-03-06 00:00:00+01:00,7.38307132947623,673.523507444054
2019-03-07 00:00:00+01:00,6.69057561668755,676.883348718226
2019-03-08 00:00:00+01:00,6.64571907773215,688.645757176911
2019-03-09 00:00:00+01:00,6.56766721620273,691.553891847384
2019-03-10 00:00:00+01:00,6.4982366847925,700.884360361723
2019-03-11 00:00:00+01:00,6.41002059535159,702.590155408864
2019-03-12 00:00:00+01:00,6.20057219729871,703.380487715031
2019-03-13 00:00:00+01:00,6.04396237775046,707.28758901772
2019-03-14 00:00:00+01:00,5.87386478041441,707.318235713559
2019-03-15 00:00:00+01:00,5.64426594595809,707.338785619972
2019-03-16 00:00:00+01:00,5.42437380201666,707.405652325966
2019-03-17 00:00:00+01:00,5.29709538191805,711.909325838998
2019-03-18 00:00:00+01:00,5.45685659156195,723.032673593845
2019-03-19 00:00:00+01:00,5.39935036080317,724.467254937568
2019-03-20 00:00:00+01:00,5.23875921602364,727.115184139654
2019-03-21 00:00:00+01:00,5.13869293843238,730.338522586226
2019-03-22 00:00:00+01:00,5.05823200934551,733.875629043296
2019-03-23 00:00:00+01:00,5.968966472822,760.061726109192
2019-03-24 00:00:00+01:00,6.38269557511174,760.873645935013
2019-03-25 00:00:00+01:00,6.06729426261909,770.421325403764
2019-03-26 00:00:00+01:00,5.83125077255617,773.015252783044
2019-03-27 00:00:00+01:00,5.37423556247893,773.021008460978
2019-03-28 00:00:00+01:00,5.16588837738661,772.994013569353
2019-03-29 00:00:00+01:00,7.13768789654308,784.135855347685
2019-03-30 00:00:00+01:00,10.8229932344032,813.60032710857
2019-03-31 00:00:00+01:00,11.375696082704,824.091603088472
2019-04-01 00:00:00+01:00,10.5024181393475,824.091603088472
2019-04-02 00:00:00+01:00,9.25800144138912,824.091603088473
2019-04-03 00:00:00+01:00,8.14911363042958,824.091603088473
2019-04-04 00:00:00+01:00,7.16140555289398,824.091603088472
2019-04-05 00:00:00+01:00,6.58343668111348,823.113371384738
2019-04-06 00:00:00+01:00,6.46617284979327,823.138360318335
2019-04-07 00:00:00+01:00,5.87501920336882,824.487230012306
2019-04-08 00:00:00+01:00,5.65749105497287,824.487230012306
2019-04-09 00:00:00+01:00,5.43632702752458,824.532600430684
2019-04-10 00:00:00+01:00,5.2237636178857,824.532600430683
2019-04-11 00:00:00+01:00,5.01876943547074,824.532600430684
2019-04-12 00:00:00+01:00,4.82181976232112,824.532600430683
2019-04-13 00:00:00+01:00,4.63290952679755,824.549165417845
2019-04-14 00:00:00+01:00,4.45138398593503,824.549165417845
2019-04-15 00:00:00+01:00,4.27670000565549,824.549165417844
2019-04-16 00:00:00+01:00,4.12925151000686,824.30901346559
2019-04-17 00:00:00+01:00,4.17350754730677,823.640616192933
2019-04-18 00:00:00+01:00,4.67804925178283,822.129504904617
2019-04-19 00:00:00+01:00,6.94980587159601,817.683583452983
2019-04-20 00:00:00+01:00,11.3828160367594,811.890257166757
2019-04-21 00:00:00+01:00,16.7386179302575,805.214191934978
2019-04-22 00:00:00+01:00,25.8947979734305,791.036823448365
2019-04-23 00:00:00+01:00,38.7724294944342,774.856683910899
2019-04-24 00:00:00+01:00,52.2262650226404,761.763796004168
2019-04-25 00:00:00+01:00,67.8367816664592,748.499402089816
2019-04-26 00:00:00+01:00,84.2720644353016,732.003932988375
2019-04-27 00:00:00+01:00,102.42680679829,713.728337032763
2019-04-28 00:00:00+01:00,134.769226311034,691.804157529638
2019-04-29 00:00:00+01:00,159.426543634573,673.927651630316
2019-04-30 00:00:00+01:00,165.165292880831,658.862959423561
2019-05-01 00:00:00+01:00,162.686770614849,682.444068189726
2019-05-02 00:00:00+01:00,130.118437337697,715.754609947725
2019-05-03 00:00:00+01:00,98.882362659807,733.159114116372
2019-05-04 00:00:00+01:00,82.2657020696497,758.047487655835
2019-05-05 00:00:00+01:00,67.6170363385418,762.137155046244
2019-05-06 00:00:00+01:00,54.0768653462047,764.997588061487
2019-05-07 00:00:00+01:00,45.8020796063303,765.107911310132
2019-05-08 00:00:00+01:00,40.9306987505307,765.107911310132
2019-05-09 00:00:00+01:00,36.5659579735683,765.107911310133
2019-05-10 00:00:00+01:00,36.8597614785606,784.003540962935
2019-05-11 00:00:00+01:00,39.6684334306054,788.053588005763
2019-05-12 00:00:00+01:00,35.6792804504923,789.084716226089
2019-05-13 00:00:00+01:00,31.9466005789195,789.562646565162
2019-05-14 00:00:00+01:00,29.5892418647392,788.207655458515
2019-05-15 00:00:00+01:00,31.8012638259419,780.84229083493
2019-05-16 00:00:00+01:00,36.7007434089794,772.146254645489
2019-05-17 00:00:00+01:00,46.9903633387682,755.354412770441
2019-05-18 00:00:00+01:00,75.6064981143567,733.000492181425
2019-05-19 00:00:00+01:00,103.398338912706,715.098245790946
2019-05-20 00:00:00+01:00,137.875715018805,694.225551360595
2019-05-21 00:00:00+01:00,178.318542884125,669.487190912117
2019-05-22 00:00:00+01:00,224.51545525424,639.818674424219
2019-05-23 00:00:00+01:00,245.123564196297,616.055588030813
2019-05-24 00:00:00+01:00,218.8305879639,607.026488489456
2019-05-25 00:00:00+01:00,162.790564579588,606.733221649063
2019-05-26 00:00:00+01:00,110.281825296447,606.710772489031
2019-05-27 00:00:00+01:00,86.6919918305223,607.831331416111
2019-05-28 00:00:00+01:00,69.1418828609176,608.354888023583
2019-05-29 00:00:00+01:00,54.9004771793555,608.561606224318
2019-05-30 00:00:00+01:00,48.2039245004284,615.062647753677
2019-05-31 00:00:00+01:00,45.0200989525381,617.935488764105
2019-06-01 00:00:00+01:00,41.3089053730342,616.81583915704
2019-06-02 00:00:00+01:00,41.779248323139,609.430941760602
2019-06-03 00:00:00+01:00,61.5933906587327,585.346809613133
2019-06-04 00:00:00+01:00,92.3074979237369,566.473191137285
2019-06-05 00:00:00+01:00,108.96180973584,550.510023060545
2019-06-06 00:00:00+01:00,171.80290639573,515.895840939713
2019-06-07 00:00:00+01:00,260.415852010786,487.479900615766
2019-06-08 00:00:00+01:00,284.187232383841,462.988991280424
2019-06-09 00:00:00+01:00,266.045869140432,439.473836414877
2019-06-10 00:00:00+01:00,233.541968381625,424.467370483645
2019-06-11 00:00:00+01:00,199.81333600522,409.320594620084
2019-06-12 00:00:00+01:00,193.066454587022,394.444407498483
2019-06-13 00:00:00+01:00,184.182139480147,381.905410166485
2019-06-14 00:00:00+01:00,188.414994610081,358.125810076986
2019-06-15 00:00:00+01:00,211.354361697392,332.209499946723
2019-06-16 00:00:00+01:00,244.859841052327,306.140027787469
2019-06-17 00:00:00+01:00,238.951389459219,290.777487748499
2019-06-18 00:00:00+01:00,209.961291814271,273.038413612021
2019-06-19 00:00:00+01:00,192.82255745029,258.250806627573
2019-06-20 00:00:00+01:00,197.579711497837,242.003271325528
2019-06-21 00:00:00+01:00,183.598352070293,231.024087414481
2019-06-22 00:00:00+01:00,139.903270093539,225.71177971309
2019-06-23 00:00:00+01:00,110.757295619849,219.045051051387
2019-06-24 00:00:00+01:00,104.85248387519,209.403112405916
2019-06-25 00:00:00+01:00,107.852203346475,196.304802759988
2019-06-26 00:00:00+01:00,107.092988320941,188.107616431895
2019-06-27 00:00:00+01:00,95.7279117413437,184.868459006871
2019-06-28 00:00:00+01:00,91.5302032744722,175.592026632888
2019-06-29 00:00:00+01:00,98.4256592527658,162.506986031697
2019-06-30 00:00:00+01:00,131.590629933073,150.267234595111
2019-07-01 00:00:00+01:00,154.230290728011,142.958731020664
2019-07-02 00:00:00+01:00,120.017609220843,144.86981213207
2019-07-03 00:00:00+01:00,94.5602300227443,148.982056860221
2019-07-04 00:00:00+01:00,81.8490586199572,162.384289869613
2019-07-05 00:00:00+01:00,69.9715631027633,161.837241586787
2019-07-06 00:00:00+01:00,63.7010912586762,154.291273525464
2019-07-07 00:00:00+01:00,64.5284261561341,148.468512506454
2019-07-08 00:00:00+01:00,61.0810052576838,143.658218823381
2019-07-09 00:00:00+01:00,61.505804957558,136.260510816137
2019-07-10 00:00:00+01:00,67.8640157705499,125.216746486274
2019-07-11 00:00:00+01:00,75.953422759395,113.277104115718
2019-07-12 00:00:00+01:00,82.6418475487495,101.649362906365
2019-07-13 00:00:00+01:00,82.4457222154867,95.3963619123185
2019-07-14 00:00:00+01:00,74.5493073054646,92.3370334352908
2019-07-15 00:00:00+01:00,66.9938184137711,90.357283863359
2019-07-16 00:00:00+01:00,59.7260744463846,88.0581817021605
2019-07-17 00:00:00+01:00,56.2667632312981,81.0874266170862
2019-07-18 00:00:00+01:00,59.6459621144923,73.0318068243944
2019-07-19 00:00:00+01:00,63.4460130007714,66.5447924795658
2019-07-20 00:00:00+01:00,62.9195661333799,60.8619925000871
2019-07-21 00:00:00+01:00,64.5001902020759,55.6121184513789
2019-07-22 00:00:00+01:00,64.7247777747464,50.8617474428463
2019-07-23 00:00:00+01:00,60.8800448877884,45.2546210151992
2019-07-24 00:00:00+01:00,58.422427125731,38.8616399759249
2019-07-25 00:00:00+01:00,56.7714104205196,32.5404292575275
2019-07-26 00:00:00+01:00,53.9433161290798,27.5137929344597
2019-07-27 00:00:00+01:00,50.5976366247307,22.5849173501317
2019-07-28 00:00:00+01:00,48.4678862705659,18.3983198749567
2019-07-29 00:00:00+01:00,46.2185276250677,14.9040696856276
2019-07-30 00:00:00+01:00,44.8080643430526,12.832345995616
2019-07-31 00:00:00+01:00,42.393433227584,11.936208281866
2019-08-01 00:00:00+01:00,38.5799274819226,10.8504653704603
2019-08-02 00:00:00+01:00,35.2283131670701,9.71587550891358
2019-08-03 00:00:00+01:00,32.0909047109778,8.97587387750284
2019-08-04 00:00:00+01:00,29.2178910632101,8.05251203135404
2019-08-05 00:00:00+01:00,26.7004681123467,7.15088829627058
2019-08-06 00:00:00+01:00,26.0163271961713,6.27301449803257
2019-08-07 00:00:00+01:00,27.9335701452788,5.63973815394389
2019-08-08 00:00:00+01:00,34.4979071105152,5.14558409660953
2019-08-09 00:00:00+01:00,37.3952776907644,4.58696058461848
2019-08-10 00:00:00+01:00,34.0478442718998,3.83180941747214
2019-08-11 00:00:00+01:00,33.6465984182833,2.9988276287213
2019-08-12 00:00:00+01:00,34.1684265761893,2.45316519544835
2019-08-13 00:00:00+01:00,33.4561615290072,2.36504178491794
2019-08-14 00:00:00+01:00,31.4800248208779,2.26501287696926
2019-08-15 00:00:00+01:00,29.4328423747291,1.94446652279387
2019-08-16 00:00:00+01:00,27.7862270209281,1.50250117909569
2019-08-17 00:00:00+01:00,26.554128730974,1.11693632008351
2019-08-18 00:00:00+01:00,24.9938715983152,0.811278691797482
2019-08-19 00:00:00+01:00,22.5110847580094,0.588023925498773
2019-08-20 00:00:00+01:00,20.4142035295913,0.386659783378141
2019-08-21 00:00:00+01:00,18.4548012440446,0.30813225568491
2019-08-22 00:00:00+01:00,16.8247587434927,0.24486902826681
2019-08-23 00:00:00+01:00,15.7089056842107,0.142656007870289
2019-08-24 00:00:00+01:00,14.6129101112366,0.0504088093998257
2019-08-25 00:00:00+01:00,13.2445914629389,0.0
2019-08-26 00:00:00+01:00,11.7667164908909,0.0
2019-08-27 00:00:00+01:00,10.4155192221969,0.0
2019-08-28 00:00:00+01:00,9.46256241913553,0.0
2019-08-29 00:00:00+01:00,12.748210619092,0.0
2019-08-30 00:00:00+01:00,15.2959021049059,0.0
2019-08-31 00:00:00+01:00,14.3101518112352,0.0
2019-09-01 00:00:00+01:00,14.0292323420129,0.0
2019-09-02 00:00:00+01:00,13.3411466003787,0.0138573080264967
2019-09-03 00:00:00+01:00,12.1808086173765,0.0567724167990611
2019-09-04 00:00:00+01:00,15.3394497842048,1.24700908481425
2019-09-05 00:00:00+01:00,19.4896096408682,2.33233904019476
2019-09-06 00:00:00+01:00,21.2952680284572,3.67290291937501
2019-09-07 00:00:00+01:00,21.1704873589137,3.78944122239787
2019-09-08 00:00:00+01:00,19.2045423713091,3.17842895986391
2019-09-09 00:00:00+01:00,18.1600124011709,1.28261478855809
2019-09-10 00:00:00+01:00,17.2459937773474,0.039364844091721
2019-09-11 00:00:00+01:00,15.9225363588752,0.0
2019-09-12 00:00:00+01:00,18.6008115603812,0.0
2019-09-13 00:00:00+01:00,23.7686602716259,2.89400794083305
2019-09-14 00:00:00+01:00,27.4293293851804,7.39888342933818
2019-09-15 00:00:00+01:00,39.7900012073526,13.0156856715758
2019-09-16 00:00:00+01:00,47.3831059877795,13.5293402013185
2019-09-17 00:00:00+01:00,45.1034657214943,39.6321997786425
2019-09-18 00:00:00+01:00,45.3905135411527,70.3976206835411
2019-09-19 00:00:00+01:00,43.7716429190924,76.6571379123827
2019-09-20 00:00:00+01:00,41.4007995289233,71.4603116313901
2019-09-21 00:00:00+01:00,47.4470688721487,56.2744427774247
2019-09-22 00:00:00+01:00,67.0495730882684,36.456991950016
2019-09-23 00:00:00+01:00,88.970050462909,18.9701716204086
2019-09-24 00:00:00+01:00,89.9934416706514,13.2903961578474
2019-09-25 00:00:00+01:00,76.6539423864192,12.3509335101648
2019-09-26 00:00:00+01:00,61.8287229660282,12.0704494081587
2019-09-27 00:00:00+01:00,50.6964548810668,3.57777843309395
2019-09-28 00:00:00+01:00,46.158695994417,1.49308978430494
2019-09-29 00:00:00+01:00,47.2695119095466,0.588766470259556
2019-09-30 00:00:00+01:00,49.6642997367552,60.636167281345
2019-10-01 00:00:00+01:00,47.8930754684869,74.9898116145725
2019-10-02 00:00:00+01:00,43.6510565005404,76.0579589300976
2019-10-03 00:00:00+01:00,39.540309024795,76.5547892824767
2019-10-04 00:00:00+01:00,35.619285277278,76.5630897002888
2019-10-05 00:00:00+01:00,31.9090762784642,76.5630897002888
2019-10-06 00:00:00+01:00,28.5849847724894,76.5630897002888
2019-10-07 00:00:00+01:00,25.6075415758781,76.5706618714988
2019-10-08 00:00:00+01:00,23.0784463809612,76.2342821961416
2019-10-09 00:00:00+01:00,21.24117305569,75.4312287679299
2019-10-10 00:00:00+01:00,20.2621901977454,73.7555846767647
2019-10-11 00:00:00+01:00,20.1244097613984,74.5800050716792
2019-10-12 00:00:00+01:00,19.5551685188469,76.8068039331023
2019-10-13 00:00:00+01:00,17.8665634581869,76.8911832247198
2019-10-14 00:00:00+01:00,16.0090592667587,76.8911832247198
2019-10-15 00:00:00+01:00,14.4959697344717,76.6359976271222
2019-10-16 00:00:00+01:00,14.7850470110375,75.4137978724888
2019-10-17 00:00:00+01:00,16.0739225298053,73.9100998903788
2019-10-18 00:00:00+01:00,16.8297901073861,71.3762321967025
2019-10-19 00:00:00+01:00,16.281710968392,71.4403303780851
2019-10-20 00:00:00+01:00,14.6159326480816,71.4276339756146
2019-10-21 00:00:00+01:00,13.1295358332786,71.521717977749
2019-10-22 00:00:00+01:00,13.9934183073209,69.2348007687486
2019-10-23 00:00:00+01:00,16.6242971719452,65.5646765885609
2019-10-24 00:00:00+01:00,21.9620031223079,60.3196098033697
2019-10-25 00:00:00+01:00,27.1588027631658,62.8160611398769
2019-10-26 00:00:00+01:00,26.6671197803131,63.0095903653368
2019-10-27 00:00:00+01:00,24.1567060357305,68.1533072648331
2019-10-28 00:00:00+01:00,22.1711209948806,74.1392645912595
2019-10-29 00:00:00+01:00,20.2094876139488,75.7443357057198
2019-10-30 00:00:00+01:00,19.6517755493492,105.070684609232
2019-10-31 00:00:00+01:00,19.0952970763206,108.682340731727
2019-11-01 00:00:00+01:00,17.2735860437108,108.806775545705
2019-11-02 00:00:00+01:00,15.4859378912019,108.930045005283
2019-11-03 00:00:00+01:00,13.881326669393,108.991187897833
2019-11-04 00:00:00+01:00,12.4523236825696,109.275512067356
2019-11-05 00:00:00+01:00,11.1688812644015,109.296412614085
2019-11-06 00:00:00+01:00,10.007629800892,109.322361674267
2019-11-07 00:00:00+01:00,8.97751427519158,109.545917364194
2019-11-08 00:00:00+01:00,8.06844237145214,109.753369696788
2019-11-09 00:00:00+01:00,7.56431321011741,109.827334082014
2019-11-10 00:00:00+01:00,7.27358680333398,110.086409707734
2019-11-11 00:00:00+01:00,6.99256230119254,110.086409707734
2019-11-12 00:00:00+01:00,6.71816334029893,110.086810750615
2019-11-12 14:09:00+01:00,,110.16410917084175
