,q,s
2018-09-01 00:00:00+01:00,25.725889054774,48.2174027629573
2018-09-02 00:00:00+01:00,25.6179364989997,46.4696938275542
2018-09-03 00:00:00+01:00,30.638966804757,44.149192242501
2018-09-04 00:00:00+01:00,31.4975485236485,43.0297422483527
2018-09-05 00:00:00+01:00,27.4938974458913,42.1110847500111
2018-09-06 00:00:00+01:00,29.5342399505595,40.2154562197293
2018-09-07 00:00:00+01:00,32.2341868090413,38.3094141936417
2018-09-08 00:00:00+01:00,31.0086687963187,36.8114195812015
2018-09-09 00:00:00+01:00,29.4707358675166,35.4520084718535
2018-09-10 00:00:00+01:00,29.9029063946248,34.3560718623188
2018-09-11 00:00:00+01:00,31.1970242175071,33.34070965536
2018-09-12 00:00:00+01:00,32.5185643996387,32.7748636808676
2018-09-13 00:00:00+01:00,36.4252293492598,32.3811853176911
2018-09-14 00:00:00+01:00,33.7220096583044,32.6216791170939
2018-09-15 00:00:00+01:00,39.3556242928627,41.1322756031186
2018-09-16 00:00:00+01:00,41.2302265193674,41.1816396973922
2018-09-17 00:00:00+01:00,40.5188281060062,47.0970049092228
2018-09-18 00:00:00+01:00,41.8187133850617,46.2332250305962
2018-09-19 00:00:00+01:00,52.7101319916963,42.8082172148209
2018-09-20 00:00:00+01:00,89.7948609754725,41.5885218787849
2018-09-21 00:00:00+01:00,91.3837444144303,41.9390523689585
2018-09-22 00:00:00+01:00,91.8572614869464,46.2004165390372
2018-09-23 00:00:00+01:00,95.201432338471,80.0381423437147
2018-09-24 00:00:00+01:00,71.7662645122148,101.163604634894
2018-09-25 00:00:00+01:00,67.5219257386216,169.824299653469
2018-09-26 00:00:00+01:00,65.494872443829,196.694686111457
2018-09-27 00:00:00+01:00,45.3921587977369,14.528047336364
2018-09-28 00:00:00+01:00,33.4285591350588,18.0022245651469
2018-09-29 00:00:00+01:00,29.804975064148,77.5966359579169
2018-09-30 00:00:00+01:00,33.4248594494894,100.632469833826
2018-10-01 00:00:00+01:00,31.2318326944718,115.975421596551
2018-10-02 00:00:00+01:00,23.3756908445208,116.212938458306
2018-10-03 00:00:00+01:00,15.8864908827807,116.88849979478
2018-10-04 00:00:00+01:00,13.3044921480934,130.147731508551
2018-10-05 00:00:00+01:00,16.3918196117304,171.52978248557
2018-10-06 00:00:00+01:00,18.1436924105168,181.378364466338
2018-10-07 00:00:00+01:00,14.777169404104,183.568255218138
2018-10-08 00:00:00+01:00,16.0587102284242,219.8866853393
2018-10-09 00:00:00+01:00,22.9518904072362,245.252984060718
2018-10-10 00:00:00+01:00,23.2496389171134,248.104299646958
2018-10-11 00:00:00+01:00,19.1778898606735,243.485134602989
2018-10-12 00:00:00+01:00,19.7685750912334,232.425673572866
2018-10-13 00:00:00+01:00,27.4882656731927,218.978249953223
2018-10-14 00:00:00+01:00,54.5966546633029,200.636101088572
2018-10-15 00:00:00+01:00,59.573106766663,198.938314457511
2018-10-16 00:00:00+01:00,40.8138078299142,198.006690071459
2018-10-17 00:00:00+01:00,34.7769671144193,200.355213226108
2018-10-18 00:00:00+01:00,44.3536421334499,222.520541088473
2018-10-19 00:00:00+01:00,42.8353785333422,223.710822100101
2018-10-20 00:00:00+01:00,37.3336536627714,233.732315791103
2018-10-21 00:00:00+01:00,41.3891396889274,242.000056249801
2018-10-22 00:00:00+01:00,37.7569229426732,267.213829559302
2018-10-23 00:00:00+01:00,27.5076835184236,292.218826700618
2018-10-24 00:00:00+01:00,21.9581390978603,320.615598815211
2018-10-25 00:00:00+01:00,16.936312358574,320.677147150273
2018-10-26 00:00:00+01:00,12.5769268978683,320.748279052906
2018-10-27 00:00:00+01:00,9.57093865293666,321.044817300281
2018-10-28 00:00:00+01:00,7.30442843213369,321.528738895142
2018-10-29 00:00:00+01:00,5.59158378887766,321.673664154349
2018-10-30 00:00:00+01:00,4.32274208615831,325.924664876957
2018-10-31 00:00:00+01:00,4.85675957417004,335.445535929949
2018-11-01 00:00:00+01:00,5.63267770280516,334.069844136065
2018-11-02 00:00:00+01:00,7.35851886012958,338.243514212468
2018-11-03 00:00:00+01:00,7.97297827851144,339.177312618887
2018-11-04 00:00:00+01:00,7.66020158964711,338.262538450724
2018-11-05 00:00:00+01:00,8.5324627521532,335.129694961205
2018-11-06 00:00:00+01:00,8.49801868935837,332.59242440935
2018-11-07 00:00:00+01:00,7.35423631374907,331.892489284059
2018-11-08 00:00:00+01:00,6.42292643652951,330.045164461734
2018-11-09 00:00:00+01:00,7.04306276220454,330.780070596041
2018-11-10 00:00:00+01:00,7.45160061953448,329.292474016133
2018-11-11 00:00:00+01:00,8.76935699872983,331.422075589202
2018-11-12 00:00:00+01:00,14.7947393283036,338.003823194215
2018-11-13 00:00:00+01:00,17.7714878266776,340.628178633173
2018-11-14 00:00:00+01:00,19.4666025738302,354.021270936877
2018-11-15 00:00:00+01:00,30.5549279951117,363.592330203953
2018-11-16 00:00:00+01:00,43.2459024706002,367.85322687609
2018-11-17 00:00:00+01:00,39.3805685147635,367.279078496278
2018-11-18 00:00:00+01:00,25.1785491008463,367.462073164931
2018-11-19 00:00:00+01:00,16.0733547624803,368.5611040898
2018-11-20 00:00:00+01:00,12.0525230127449,368.795764011667
2018-11-21 00:00:00+01:00,9.12796024250071,368.88703490841
2018-11-22 00:00:00+01:00,6.91755383668465,370.361403547475
2018-11-23 00:00:00+01:00,5.63234423640114,377.411281125315
2018-11-24 00:00:00+01:00,4.69792646458015,380.968997415306
2018-11-25 00:00:00+01:00,4.00326053490935,388.203338608767
2018-11-26 00:00:00+01:00,3.38389753426975,392.390102936615
2018-11-27 00:00:00+01:00,3.12077735887552,395.436210318245
2018-11-28 00:00:00+01:00,2.98997686893816,395.938242896731
2018-11-29 00:00:00+01:00,2.9039211597093,401.716039309722
2018-11-30 00:00:00+01:00,3.33490850450558,400.62120204286
2018-12-01 00:00:00+01:00,4.55163110147317,398.719891975801
2018-12-02 00:00:00+01:00,4.98941186898198,400.116401128115
2018-12-03 00:00:00+01:00,4.69323331074338,406.149507548646
2018-12-04 00:00:00+01:00,4.68338753184166,419.381053769434
2018-12-05 00:00:00+01:00,4.00154398766007,424.56207317115
2018-12-06 00:00:00+01:00,3.09518430000117,430.711042204059
2018-12-07 00:00:00+01:00,2.83901914087842,430.973787331241
2018-12-08 00:00:00+01:00,2.71844609817375,432.292956792668
2018-12-09 00:00:00+01:00,2.60337698610176,432.930196626962
2018-12-10 00:00:00+01:00,2.49285947871445,433.823263876715
2018-12-11 00:00:00+01:00,2.38688086363401,434.285652068053
2018-12-12 00:00:00+01:00,2.28459886456603,434.362626618633
2018-12-13 00:00:00+01:00,2.18628465471161,434.397263277995
2018-12-14 00:00:00+01:00,2.09223086140762,434.492217199501
2018-12-15 00:00:00+01:00,2.00240674805975,434.690796385506
2018-12-16 00:00:00+01:00,1.91693354004637,435.224537043605
2018-12-17 00:00:00+01:00,1.83517552543699,435.483521582379
2018-12-18 00:00:00+01:00,1.75637067481227,435.483521582379
2018-12-19 00:00:00+01:00,1.68069940814275,435.484782128614
2018-12-20 00:00:00+01:00,1.61546027440594,435.297235003625
2018-12-21 00:00:00+01:00,1.55789343714604,435.380877714239
2018-12-22 00:00:00+01:00,1.4913257018402,435.799077693849
2018-12-23 00:00:00+01:00,1.45970130048177,464.537028408954
2018-12-24 00:00:00+01:00,1.45073519871463,486.604334956952
2018-12-25 00:00:00+01:00,2.76185719479395,522.77595253724
2018-12-26 00:00:00+01:00,4.25024721893814,536.361569575441
2018-12-27 00:00:00+01:00,5.14283195171961,542.066850326066
2018-12-28 00:00:00+01:00,7.9679008915441,567.361719340074
2018-12-29 00:00:00+01:00,9.51935983205269,580.123782131178
2018-12-30 00:00:00+01:00,8.09976366772393,582.908023602394
2018-12-31 00:00:00+01:00,8.00882140756395,630.034406162254
2019-01-01 00:00:00+01:00,8.1470392366176,641.948855915918
2019-01-02 00:00:00+01:00,6.41082855337996,649.015747817409
2019-01-03 00:00:00+01:00,5.01116209888722,705.6201355516
2019-01-04 00:00:00+01:00,4.4499844026826,708.098823894023
2019-01-05 00:00:00+01:00,4.23174271766224,708.334792217982
2019-01-06 00:00:00+01:00,6.18731869752369,719.297236963123
2019-01-07 00:00:00+01:00,7.5053154305823,726.854225510645
2019-01-08 00:00:00+01:00,6.0249175927863,742.528680623336
2019-01-09 00:00:00+01:00,4.53479559690231,755.817798743234
2019-01-10 00:00:00+01:00,8.66719683797421,818.416205878837
2019-01-11 00:00:00+01:00,12.3987555205878,844.716942004029
2019-01-12 00:00:00+01:00,10.3980899955117,853.598187058602
2019-01-13 00:00:00+01:00,7.79640770045488,863.127293621849
2019-01-14 00:00:00+01:00,5.79698471600846,865.269272207577
2019-01-15 00:00:00+01:00,4.28653951348132,872.077477175798
2019-01-16 00:00:00+01:00,3.14096226591126,872.9640036097
2019-01-17 00:00:00+01:00,2.52476944839187,898.213781058377
2019-01-18 00:00:00+01:00,2.4406797928839,910.978210759984
2019-01-19 00:00:00+01:00,2.36270046571078,923.657727298238
2019-01-20 00:00:00+01:00,2.28029695923143,929.468102940403
2019-01-21 00:00:00+01:00,2.18810469511842,929.602550810251
2019-01-22 00:00:00+01:00,2.09402206661605,929.651261339584
2019-01-23 00:00:00+01:00,2.00429431067997,930.046618263385
2019-01-24 00:00:00+01:00,1.91983738103832,931.381431954043
2019-01-25 00:00:00+01:00,1.8402669075139,932.977916424103
2019-01-26 00:00:00+01:00,1.76314930373044,933.466755022435
2019-01-27 00:00:00+01:00,1.68781486949024,933.586040907718
2019-01-28 00:00:00+01:00,1.61662355901836,934.841140332164
2019-01-29 00:00:00+01:00,1.54827350011674,934.864844467172
2019-01-30 00:00:00+01:00,1.48162141557394,934.892250472329
2019-01-31 00:00:00+01:00,1.41787363847015,934.945412489907
2019-02-01 00:00:00+01:00,1.35683900682208,934.945412489907
2019-02-02 00:00:00+01:00,1.29856729040183,935.112523539901
2019-02-03 00:00:00+01:00,1.24427484249833,936.438714284096
2019-02-04 00:00:00+01:00,1.19268520415791,937.038594760405
2019-02-05 00:00:00+01:00,1.14308287685384,938.086865004496
2019-02-06 00:00:00+01:00,1.09507357683911,938.2431145987
2019-02-07 00:00:00+01:00,1.04926495343981,939.326041619089
2019-02-08 00:00:00+01:00,1.00538778442721,939.531198739637
2019-02-09 00:00:00+01:00,0.967700227932647,944.368595090666
2019-02-10 00:00:00+01:00,0.942798394652634,954.967070633508
2019-02-11 00:00:00+01:00,0.930429920089859,970.569608096385
2019-02-12 00:00:00+01:00,0.918164383557439,981.251839442723
2019-02-13 00:00:00+01:00,0.930275950828631,1017.67661000892
2019-02-14 00:00:00+01:00,4.29840415143841,1063.47077796815
2019-02-15 00:00:00+01:00,11.153793725397,1081.7060193547
2019-02-16 00:00:00+01:00,13.8727743727031,1103.29615343212
2019-02-17 00:00:00+01:00,12.432598709795,1107.61756462687
2019-02-18 00:00:00+01:00,10.5379002093506,1135.72520158874
2019-02-19 00:00:00+01:00,10.8354155634049,1155.10670930764
2019-02-20 00:00:00+01:00,9.5391478098754,1155.37881398217
2019-02-21 00:00:00+01:00,6.85870072859186,1155.63022607126
2019-02-22 00:00:00+01:00,5.22677588840538,1212.0375480909
2019-02-23 00:00:00+01:00,7.47929723733052,1217.12470186347
2019-02-24 00:00:00+01:00,18.222630631684,1248.04606824417
2019-02-25 00:00:00+01:00,24.686516809123,1262.72013422603
2019-02-26 00:00:00+01:00,25.6859734713414,1291.57831530442
2019-02-27 00:00:00+01:00,31.3008692318538,1331.22785676806
2019-02-28 00:00:00+01:00,26.5181247032811,1332.8245500386
2019-03-01 00:00:00+01:00,16.4270656187245,1371.29683271672
2019-03-02 00:00:00+01:00,11.8770950554236,1374.26174546857
2019-03-03 00:00:00+01:00,8.75477035008196,1374.66037665814
2019-03-04 00:00:00+01:00,6.40073916915292,1375.6252594977
2019-03-05 00:00:00+01:00,4.67060105591717,1381.35289811189
2019-03-06 00:00:00+01:00,3.45860636427921,1395.60630339686
2019-03-07 00:00:00+01:00,2.53877759318128,1397.20691332624
2019-03-08 00:00:00+01:00,2.21907321423326,1398.30082887563
2019-03-09 00:00:00+01:00,2.12473679969821,1398.44388822708
2019-03-10 00:00:00+01:00,2.03375378148267,1398.81445534442
2019-03-11 00:00:00+01:00,1.94681160751585,1399.08662683099
2019-03-12 00:00:00+01:00,1.86326566182351,1399.13598694405
2019-03-13 00:00:00+01:00,1.783460107814,1399.51302770141
2019-03-14 00:00:00+01:00,1.70772480550495,1400.15684543369
2019-03-15 00:00:00+01:00,1.63697452973926,1402.09546450169
2019-03-16 00:00:00+01:00,1.56895336008126,1402.57543300841
2019-03-17 00:00:00+01:00,1.50198540227298,1402.70240807096
2019-03-18 00:00:00+01:00,1.43760918827611,1402.88744791574
2019-03-19 00:00:00+01:00,1.38684534742963,1412.69202901488
2019-03-20 00:00:00+01:00,1.84595938475642,1430.60839141486
2019-03-21 00:00:00+01:00,3.37606966350623,1456.76301185757
2019-03-22 00:00:00+01:00,5.03627182280739,1487.06436374675
2019-03-23 00:00:00+01:00,10.2162129852327,1557.6308267363
2019-03-24 00:00:00+01:00,13.0763569853747,1568.95707548692
2019-03-25 00:00:00+01:00,10.1721476518906,1585.63049386941
2019-03-26 00:00:00+01:00,7.54670457471426,1596.22153095271
2019-03-27 00:00:00+01:00,6.96186296396787,1623.62133707743
2019-03-28 00:00:00+01:00,29.3765034563108,1726.73874080112
2019-03-29 00:00:00+01:00,47.1036327572893,1759.64375112352
2019-03-30 00:00:00+01:00,32.4936936088891,1780.49139783479
2019-03-31 00:00:00+01:00,19.822505726646,1797.46362080566
2019-04-01 00:00:00+01:00,14.3149544231147,1823.0373206345
2019-04-02 00:00:00+01:00,12.306583709666,1820.84783979216
2019-04-03 00:00:00+01:00,9.92519128293896,1824.93066987994
2019-04-04 00:00:00+01:00,7.54706718132196,1825.69775642348
2019-04-05 00:00:00+01:00,5.5635082579441,1825.75418396849
2019-04-06 00:00:00+01:00,4.0324460876395,1827.72143189466
2019-04-07 00:00:00+01:00,2.99953961875649,1827.58864607758
2019-04-08 00:00:00+01:00,2.37529100068211,1827.90091896285
2019-04-09 00:00:00+01:00,2.24696917195769,1827.94789368599
2019-04-10 00:00:00+01:00,2.15020693360327,1827.94789368599
2019-04-11 00:00:00+01:00,2.05756594275684,1827.94789368599
2019-04-12 00:00:00+01:00,1.96891635992369,1827.94789368599
2019-04-13 00:00:00+01:00,1.91924993839336,1827.15179533801
2019-04-14 00:00:00+01:00,1.90891294483916,1826.45541839657
2019-04-15 00:00:00+01:00,1.86292331813011,1826.32173245835
2019-04-16 00:00:00+01:00,1.8143083054454,1825.79725967039
2019-04-17 00:00:00+01:00,2.25317128899602,1822.64029994919
2019-04-18 00:00:00+01:00,3.92520414952074,1822.78422260951
2019-04-19 00:00:00+01:00,6.99802393818112,1818.83603883961
2019-04-20 00:00:00+01:00,12.9230427150685,1816.53713149955
2019-04-21 00:00:00+01:00,17.9222158309164,1814.1838004135
2019-04-22 00:00:00+01:00,18.7319471822326,1807.9236900146
2019-04-23 00:00:00+01:00,21.4766591214957,1793.22195753346
2019-04-24 00:00:00+01:00,25.0296969287855,1778.17020716707
2019-04-25 00:00:00+01:00,27.8674086077562,1762.0438920532
2019-04-26 00:00:00+01:00,30.8735916646359,1744.04754121786
2019-04-27 00:00:00+01:00,33.7308936736553,1725.46791461276
2019-04-28 00:00:00+01:00,34.9135411412447,1708.57422715776
2019-04-29 00:00:00+01:00,33.9979358471794,1693.64124884351
2019-04-30 00:00:00+01:00,30.3305037735029,1699.20125063564
2019-05-01 00:00:00+01:00,22.4765659110948,1701.41548179954
2019-05-02 00:00:00+01:00,14.8603668106876,1701.67380876934
2019-05-03 00:00:00+01:00,10.976981162947,1703.90675400007
2019-05-04 00:00:00+01:00,8.39945282887219,1707.22523238478
2019-05-05 00:00:00+01:00,6.39629546213711,1710.97804926396
2019-05-06 00:00:00+01:00,5.13562747397554,1715.77496745254
2019-05-07 00:00:00+01:00,4.30424036619601,1715.07637632476
2019-05-08 00:00:00+01:00,4.99410647331459,1724.93453637617
2019-05-09 00:00:00+01:00,5.49732937478371,1723.34849282497
2019-05-10 00:00:00+01:00,7.0779097947046,1713.84696921348
2019-05-11 00:00:00+01:00,16.0942749971505,1708.1027763154
2019-05-12 00:00:00+01:00,20.5728639966605,1716.28083790145
2019-05-13 00:00:00+01:00,15.4989833042949,1723.58544106556
2019-05-14 00:00:00+01:00,12.7625444593058,1724.91325045906
2019-05-15 00:00:00+01:00,11.9803624200163,1719.37691106685
2019-05-16 00:00:00+01:00,14.0917183584726,1708.4561429238
2019-05-17 00:00:00+01:00,20.3847310097305,1690.2496936958
2019-05-18 00:00:00+01:00,31.489822345699,1662.98908441609
2019-05-19 00:00:00+01:00,42.7528089393571,1633.66879317855
2019-05-20 00:00:00+01:00,49.2503006120743,1606.77125549347
2019-05-21 00:00:00+01:00,53.0825605442154,1578.14372593892
2019-05-22 00:00:00+01:00,56.0098584323553,1550.16906364137
2019-05-23 00:00:00+01:00,47.8519905303031,1541.98531188894
2019-05-24 00:00:00+01:00,34.3379413025009,1537.13621596681
2019-05-25 00:00:00+01:00,26.1776423559461,1529.60672060842
2019-05-26 00:00:00+01:00,20.0323321746035,1526.65021238097
2019-05-27 00:00:00+01:00,14.9572880155261,1525.26221943899
2019-05-28 00:00:00+01:00,12.8560424215357,1521.23873548341
2019-05-29 00:00:00+01:00,14.0954847705557,1537.89269451962
2019-05-30 00:00:00+01:00,18.8669636130116,1543.41504257098
2019-05-31 00:00:00+01:00,22.5063826890667,1552.24703684131
2019-06-01 00:00:00+01:00,19.7968712642585,1552.14590518367
2019-06-02 00:00:00+01:00,17.8819459320649,1549.1882852925
2019-06-03 00:00:00+01:00,21.7873475161774,1540.1093881967
2019-06-04 00:00:00+01:00,28.9434901199386,1523.86270865481
2019-06-05 00:00:00+01:00,34.5118890153989,1504.9057282046
2019-06-06 00:00:00+01:00,44.0559340757122,1474.82238802111
2019-06-07 00:00:00+01:00,64.9495867235715,1438.02205081871
2019-06-08 00:00:00+01:00,68.6491588448988,1418.88892446301
2019-06-09 00:00:00+01:00,73.6033786899695,1393.0834647924
2019-06-10 00:00:00+01:00,69.6254795751421,1382.50715401978
2019-06-11 00:00:00+01:00,50.6923058601032,1373.67967567231
2019-06-12 00:00:00+01:00,41.839644044635,1357.62113607431
2019-06-13 00:00:00+01:00,38.3532660049193,1343.32806875973
2019-06-14 00:00:00+01:00,37.1325225946356,1325.82826817803
2019-06-15 00:00:00+01:00,41.2169903845595,1300.99761553646
2019-06-16 00:00:00+01:00,46.2564463466274,1276.88162573495
2019-06-17 00:00:00+01:00,45.904443879873,1259.94653571171
2019-06-18 00:00:00+01:00,44.1386481495919,1244.43700487699
2019-06-19 00:00:00+01:00,42.7130833104874,1230.39742632443
2019-06-20 00:00:00+01:00,43.3330184333364,1217.44246830107
2019-06-21 00:00:00+01:00,47.3151748302349,1203.44379393006
2019-06-22 00:00:00+01:00,47.7369415892796,1197.72731676293
2019-06-23 00:00:00+01:00,42.8998186315587,1192.54848682552
2019-06-24 00:00:00+01:00,36.961193714972,1185.75922003854
2019-06-25 00:00:00+01:00,33.2248194483617,1173.76617724839
2019-06-26 00:00:00+01:00,34.4259125330403,1164.86388775303
2019-06-27 00:00:00+01:00,34.3406054772933,1157.85033675729
2019-06-28 00:00:00+01:00,53.9530946508707,1151.76121535198
2019-06-29 00:00:00+01:00,60.3556545350969,1144.32176843733
2019-06-30 00:00:00+01:00,62.5261741526239,1136.44975927393
2019-07-01 00:00:00+01:00,63.152093512697,1129.4885618837
2019-07-02 00:00:00+01:00,47.0821358276377,1128.71942825899
2019-07-03 00:00:00+01:00,32.5864341724638,1126.34523921491
2019-07-04 00:00:00+01:00,24.7976321547214,1120.27176439157
2019-07-05 00:00:00+01:00,23.0760219081655,1110.26381778069
2019-07-06 00:00:00+01:00,27.1408639711551,1101.73365264592
2019-07-07 00:00:00+01:00,29.2927813170136,1091.19035646304
2019-07-08 00:00:00+01:00,30.9377186007654,1074.16138730244
2019-07-09 00:00:00+01:00,35.4769456406915,1054.92567084573
2019-07-10 00:00:00+01:00,38.5806290640444,1037.25155549762
2019-07-11 00:00:00+01:00,39.8142000959628,1019.96051143675
2019-07-12 00:00:00+01:00,40.4820032585689,1002.77403632197
2019-07-13 00:00:00+01:00,39.813634520316,988.205951050411
2019-07-14 00:00:00+01:00,37.2383053591576,977.522541154862
2019-07-15 00:00:00+01:00,32.0600289671321,971.796011328133
2019-07-16 00:00:00+01:00,29.4881944049767,961.550888743945
2019-07-17 00:00:00+01:00,30.24527921962,948.86738857002
2019-07-18 00:00:00+01:00,32.1101779747809,934.150184066924
2019-07-19 00:00:00+01:00,36.9709077993603,914.594004039096
2019-07-20 00:00:00+01:00,46.187227635923,895.124266270613
2019-07-21 00:00:00+01:00,53.8385033203118,875.37245530367
2019-07-22 00:00:00+01:00,54.6164094937944,858.037681320233
2019-07-23 00:00:00+01:00,56.7838981994978,838.687944536218
2019-07-24 00:00:00+01:00,56.2259019537916,821.406764779873
2019-07-25 00:00:00+01:00,56.6932217568039,797.975523312234
2019-07-26 00:00:00+01:00,60.5047914326894,774.446474768711
2019-07-27 00:00:00+01:00,66.4633670747287,746.086940602531
2019-07-28 00:00:00+01:00,71.9439871955365,719.109247727164
2019-07-29 00:00:00+01:00,66.8168134627478,703.349931195148
2019-07-30 00:00:00+01:00,52.5268436901156,695.531346049929
2019-07-31 00:00:00+01:00,44.9199333750879,681.615188631395
2019-08-01 00:00:00+01:00,43.9346339310067,667.15338123951
2019-08-02 00:00:00+01:00,42.371419165517,654.840572113723
2019-08-03 00:00:00+01:00,38.7385184118203,645.152177789346
2019-08-04 00:00:00+01:00,35.0853871707357,635.851829214495
2019-08-05 00:00:00+01:00,32.7591642043185,626.488841474225
2019-08-06 00:00:00+01:00,31.6550040259884,616.709231824239
2019-08-07 00:00:00+01:00,36.3942324345697,606.015870124922
2019-08-08 00:00:00+01:00,43.1563551437987,595.342681363359
2019-08-09 00:00:00+01:00,43.8129974052263,583.582962790829
2019-08-10 00:00:00+01:00,41.7307237156455,572.637199481591
2019-08-11 00:00:00+01:00,40.0445847684744,562.346591031003
2019-08-12 00:00:00+01:00,41.6386215886535,550.231034379791
2019-08-13 00:00:00+01:00,46.8337309944867,538.083536895431
2019-08-14 00:00:00+01:00,54.5126147490514,531.437071478451
2019-08-15 00:00:00+01:00,52.4523368237147,525.661118362537
2019-08-16 00:00:00+01:00,43.7345332626737,518.100063525161
2019-08-17 00:00:00+01:00,46.4158756491238,509.605090468847
2019-08-18 00:00:00+01:00,52.0373590920273,499.384351307415
2019-08-19 00:00:00+01:00,49.9675536944193,489.665919426188
2019-08-20 00:00:00+01:00,45.9037842001234,481.78361263645
2019-08-21 00:00:00+01:00,53.2353701070494,476.356993429701
2019-08-22 00:00:00+01:00,52.9110795321717,469.945465322994
2019-08-23 00:00:00+01:00,44.8557425994746,463.477572336185
2019-08-24 00:00:00+01:00,43.576114004002,455.981941126734
2019-08-25 00:00:00+01:00,61.1108456483063,448.656559004552
2019-08-26 00:00:00+01:00,66.8097787772952,441.544175946869
2019-08-27 00:00:00+01:00,57.1788027384832,429.145919236682
2019-08-28 00:00:00+01:00,55.0468714131776,415.691908835401
2019-08-29 00:00:00+01:00,70.065991914569,403.071861904526
2019-08-30 00:00:00+01:00,78.504986274413,395.042766671206
2019-08-31 00:00:00+01:00,70.1834606864174,386.004720300534
2019-09-01 00:00:00+01:00,62.2569088806121,377.189630890747
2019-09-02 00:00:00+01:00,49.5494955715582,374.137820246186
2019-09-03 00:00:00+01:00,47.2707224687472,374.187043680886
2019-09-04 00:00:00+01:00,47.7858618343258,371.737502584713
2019-09-05 00:00:00+01:00,55.9109642970637,369.744407372711
2019-09-06 00:00:00+01:00,52.3406685530622,369.382675918315
2019-09-07 00:00:00+01:00,34.6738367299409,369.240655978922
2019-09-08 00:00:00+01:00,24.5369202570045,366.129714709289
2019-09-09 00:00:00+01:00,22.0358817199323,360.673282353892
2019-09-10 00:00:00+01:00,25.3311240855529,353.291661458112
2019-09-11 00:00:00+01:00,36.0211249557908,345.888178613856
2019-09-12 00:00:00+01:00,49.8214190437729,342.132440802075
2019-09-13 00:00:00+01:00,48.4768108368826,343.539326385965
2019-09-14 00:00:00+01:00,36.2121708407246,345.47607297781
2019-09-15 00:00:00+01:00,25.3938226904406,344.641259419141
2019-09-16 00:00:00+01:00,17.7772955080807,343.469821482351
2019-09-17 00:00:00+01:00,15.2122772844042,342.510737733391
2019-09-18 00:00:00+01:00,14.0905218027324,343.796331735147
2019-09-19 00:00:00+01:00,12.267851331285,347.391929494337
2019-09-20 00:00:00+01:00,10.0193034131397,348.445883970592
2019-09-21 00:00:00+01:00,8.15288589647133,347.696278374099
2019-09-22 00:00:00+01:00,6.50283785343781,347.753603690284
2019-09-23 00:00:00+01:00,5.08430060500288,347.342069714937
2019-09-24 00:00:00+01:00,4.53597778106003,346.266288927952
2019-09-25 00:00:00+01:00,4.8837324844073,344.300032464561
2019-09-26 00:00:00+01:00,6.50279911131749,340.497329229813
2019-09-27 00:00:00+01:00,9.19571793126208,1.51380195516362
2019-09-28 00:00:00+01:00,12.8982256378201,0.347282609479076
2019-09-29 00:00:00+01:00,19.6596770431191,0.102111560357964
2019-09-30 00:00:00+01:00,18.9480012608015,0.304780839481765
2019-10-01 00:00:00+01:00,13.4114794967432,0.583155369173673
2019-10-02 00:00:00+01:00,10.194309460972,0.843867204867621
2019-10-03 00:00:00+01:00,7.72246100251148,0.897404463368837
2019-10-04 00:00:00+01:00,5.82268111004893,0.982162484629355
2019-10-05 00:00:00+01:00,4.6115931202913,6.37888093208023
2019-10-06 00:00:00+01:00,4.33996914766517,7.19780909101014
2019-10-07 00:00:00+01:00,3.98569629386726,8.29081498960556
2019-10-08 00:00:00+01:00,3.26926622659228,8.32447643257214
2019-10-09 00:00:00+01:00,3.00321429610407,8.44792817051728
2019-10-10 00:00:00+01:00,2.87497468215162,8.46500091960709
2019-10-11 00:00:00+01:00,2.7532459850144,8.69882396809299
2019-10-12 00:00:00+01:00,2.64513275522504,9.93822243084875
2019-10-13 00:00:00+01:00,2.566062000229,13.8169192534604
2019-10-14 00:00:00+01:00,2.48552312338666,14.5995148163797
2019-10-15 00:00:00+01:00,2.40401300530469,17.5481466232733
2019-10-16 00:00:00+01:00,2.31939317905135,17.7744330067203
2019-10-17 00:00:00+01:00,2.24152355939625,20.5520644892523
2019-10-18 00:00:00+01:00,2.96844042281819,28.7587028439116
2019-10-19 00:00:00+01:00,3.09553207247565,29.2567147504354
2019-10-20 00:00:00+01:00,2.33006443778141,29.3324519036116
2019-10-21 00:00:00+01:00,2.71622030341313,49.9799755267242
2019-10-22 00:00:00+01:00,15.3174239779268,109.729389079875
2019-10-23 00:00:00+01:00,25.5055127952162,114.518263514701
2019-10-24 00:00:00+01:00,23.9796480146482,121.014831194501
2019-10-25 00:00:00+01:00,25.7034824117552,124.445839171989
2019-10-26 00:00:00+01:00,22.4836591047955,137.818321289751
2019-10-27 00:00:00+01:00,16.0484494416964,139.762301737101
2019-10-28 00:00:00+01:00,11.788354269938,152.947755528214
2019-10-29 00:00:00+01:00,8.84941592290967,156.387502536101
2019-10-30 00:00:00+01:00,8.45194812262845,195.073371131719
2019-10-31 00:00:00+01:00,8.67607653104275,203.769317809761
2019-11-01 00:00:00+01:00,7.00971684307274,206.912310452234
2019-11-02 00:00:00+01:00,5.209321717666,209.703437171202
2019-11-03 00:00:00+01:00,3.90754073874389,220.328726346048
2019-11-04 00:00:00+01:00,3.05407205628338,242.877476321065
2019-11-05 00:00:00+01:00,2.62259761593433,243.347750098144
2019-11-06 00:00:00+01:00,2.50828641065582,243.463247168779
2019-11-07 00:00:00+01:00,2.4004921316185,243.603453329815
2019-11-08 00:00:00+01:00,2.29740429914569,243.776731755565
2019-11-09 00:00:00+01:00,2.19894909953631,244.090582510762
2019-11-10 00:00:00+01:00,2.10460955046423,244.164320409198
2019-11-11 00:00:00+01:00,2.01439117610115,244.506236678188
2019-11-12 00:00:00+01:00,1.92880886912832,245.273444392575
2019-11-12 14:09:00+01:00,,245.42992024319506
