,q,s
2018-09-01 00:00:00+01:00,1.02863118198982,0.0
2018-09-02 00:00:00+01:00,0.877186035834109,0.0
2018-09-03 00:00:00+01:00,0.744039869258137,0.0
2018-09-04 00:00:00+01:00,0.627731033208945,0.0
2018-09-05 00:00:00+01:00,0.84788562973997,0.0
2018-09-06 00:00:00+01:00,2.54300660885434,0.0
2018-09-07 00:00:00+01:00,9.53299276164901,0.0
2018-09-08 00:00:00+01:00,14.0116142224122,0.0
2018-09-09 00:00:00+01:00,13.4680953150833,0.0
2018-09-10 00:00:00+01:00,11.1753293244262,0.0
2018-09-11 00:00:00+01:00,9.1506891277567,0.0
2018-09-12 00:00:00+01:00,7.34298742567821,0.0
2018-09-13 00:00:00+01:00,5.18668627340416,0.0
2018-09-14 00:00:00+01:00,3.79944183892066,0.0
2018-09-15 00:00:00+01:00,3.26714344444989,0.0
2018-09-16 00:00:00+01:00,3.41932429648404,0.0
2018-09-17 00:00:00+01:00,3.49244349920102,0.0
2018-09-18 00:00:00+01:00,3.0780554284966,0.0
2018-09-19 00:00:00+01:00,2.92365105778526,0.0
2018-09-20 00:00:00+01:00,3.34506864047153,0.0
2018-09-21 00:00:00+01:00,8.35871999933204,0.0
2018-09-22 00:00:00+01:00,10.3936517685934,0.0
2018-09-23 00:00:00+01:00,7.29108089789499,0.0
2018-09-24 00:00:00+01:00,5.11384241065406,0.00187760821336354
2018-09-25 00:00:00+01:00,3.72186868175849,0.0
2018-09-26 00:00:00+01:00,3.20834301127434,0.0
2018-09-27 00:00:00+01:00,2.8550608724609,0.0
2018-09-28 00:00:00+01:00,2.53154204792898,3.88812482948374e-05
2018-09-29 00:00:00+01:00,2.22443828774903,0.0
2018-09-30 00:00:00+01:00,1.95614330576927,0.0
2018-10-01 00:00:00+01:00,1.71640136221697,0.0
2018-10-02 00:00:00+01:00,1.71327783572589,0.0
2018-10-03 00:00:00+01:00,1.68621969478338,0.0
2018-10-04 00:00:00+01:00,1.48002398574791,0.0
2018-10-05 00:00:00+01:00,1.29418231696289,0.0
2018-10-06 00:00:00+01:00,1.1298689114023,0.00143741920337048
2018-10-07 00:00:00+01:00,1.0501977041608,0.0
2018-10-08 00:00:00+01:00,0.97061612764635,0.0
2018-10-09 00:00:00+01:00,0.838539779150314,0.0
2018-10-10 00:00:00+01:00,0.718859886304712,0.0
2018-10-11 00:00:00+01:00,0.61701259159011,0.0
2018-10-12 00:00:00+01:00,0.572393503208696,0.0
2018-10-13 00:00:00+01:00,0.570532601607309,0.0
2018-10-14 00:00:00+01:00,0.537310277075229,0.0
2018-10-15 00:00:00+01:00,0.514768096629968,0.0
2018-10-16 00:00:00+01:00,0.506722128776853,0.0
2018-10-17 00:00:00+01:00,0.498160434095718,0.0
2018-10-18 00:00:00+01:00,0.481978486323565,9.0575700361167e-06
2018-10-19 00:00:00+01:00,0.466322180897634,0.0
2018-10-20 00:00:00+01:00,0.451174445680843,0.0
2018-10-21 00:00:00+01:00,0.436518760577893,0.0
2018-10-22 00:00:00+01:00,0.509884780369652,0.165678462180771
2018-10-23 00:00:00+01:00,0.548254389385288,0.0
2018-10-24 00:00:00+01:00,0.472671708611452,0.0
2018-10-25 00:00:00+01:00,0.43336196577803,0.0
2018-10-26 00:00:00+01:00,0.42117070678126,0.222253331032496
2018-10-27 00:00:00+01:00,0.40930552508995,0.231529236723782
2018-10-28 00:00:00+01:00,0.396064568522215,0.25285930977027
2018-10-29 00:00:00+01:00,0.38661509412041,3.22740711275036
2018-10-30 00:00:00+01:00,0.510528363876934,12.1360513595732
2018-10-31 00:00:00+01:00,0.697345744419781,10.6248863853545
2018-11-01 00:00:00+01:00,1.40647654104611,5.69767856876489
2018-11-02 00:00:00+01:00,2.09592008570975,4.42272692468173
2018-11-03 00:00:00+01:00,2.05628266524836,4.07515190716796
2018-11-04 00:00:00+01:00,2.02419238672459,1.04085733726083
2018-11-05 00:00:00+01:00,2.03746028431731,0.2613685811204
2018-11-06 00:00:00+01:00,1.91994309450732,0.0
2018-11-07 00:00:00+01:00,1.72439753308569,0.0
2018-11-08 00:00:00+01:00,1.74696674607479,0.0
2018-11-09 00:00:00+01:00,2.01544445674979,0.0
2018-11-10 00:00:00+01:00,3.57515103827829,0.0
2018-11-11 00:00:00+01:00,9.22524218944712,0.0
2018-11-12 00:00:00+01:00,10.971750996132,0.0
2018-11-13 00:00:00+01:00,9.09143704032526,0.0
2018-11-14 00:00:00+01:00,7.17448700439531,0.172177784130034
2018-11-15 00:00:00+01:00,5.19575477158427,0.0
2018-11-16 00:00:00+01:00,3.74091699153572,0.000661438076861912
2018-11-17 00:00:00+01:00,3.19034395196394,0.00346717901302715
2018-11-18 00:00:00+01:00,2.79418442830323,0.0182066753184722
2018-11-19 00:00:00+01:00,2.44668946295927,0.037025792375409
2018-11-20 00:00:00+01:00,2.14076689680634,0.0864474815866693
2018-11-21 00:00:00+01:00,1.87210878635566,0.106972363629102
2018-11-22 00:00:00+01:00,1.63647959829039,0.157417790200275
2018-11-23 00:00:00+01:00,1.42972040644436,0.157417790200275
2018-11-24 00:00:00+01:00,1.24823768404456,0.162591096476409
2018-11-25 00:00:00+01:00,1.0892087281132,0.185232217571538
2018-11-26 00:00:00+01:00,0.950741071205653,0.410553031464828
2018-11-27 00:00:00+01:00,0.829217479674019,0.421623450826892
2018-11-28 00:00:00+01:00,0.742084775336953,5.07518024975999
2018-11-29 00:00:00+01:00,1.50892297271738,6.41998978774736
2018-11-30 00:00:00+01:00,3.05040113352243,3.02000168803103
2018-12-01 00:00:00+01:00,3.65375859747563,2.3118688868679
2018-12-02 00:00:00+01:00,4.30021377800013,4.93150817431604
2018-12-03 00:00:00+01:00,5.19355606578792,6.93221566680037
2018-12-04 00:00:00+01:00,4.52328938632009,7.02217110568095
2018-12-05 00:00:00+01:00,3.49727996091357,7.10609760027962
2018-12-06 00:00:00+01:00,3.09934641665162,14.9036280138319
2018-12-07 00:00:00+01:00,2.79005294085923,24.8768110648552
2018-12-08 00:00:00+01:00,2.4928565128896,27.0086280561231
2018-12-09 00:00:00+01:00,2.19304614789773,27.080445645567
2018-12-10 00:00:00+01:00,1.92184528522016,27.1082685867581
2018-12-11 00:00:00+01:00,1.68413596314387,27.2421593589083
2018-12-12 00:00:00+01:00,1.4754917879448,27.2719220067587
2018-12-13 00:00:00+01:00,1.29189177749911,27.2738357611178
2018-12-14 00:00:00+01:00,1.13083131635249,27.3077967311351
2018-12-15 00:00:00+01:00,1.0041180177196,30.6696560848955
2018-12-16 00:00:00+01:00,0.923163886053288,38.0445745461157
2018-12-17 00:00:00+01:00,0.836486917563419,38.2720837398094
2018-12-18 00:00:00+01:00,0.74178853464676,40.4957775938346
2018-12-19 00:00:00+01:00,0.677884502178956,45.3640089020956
2018-12-20 00:00:00+01:00,0.637068225134733,48.4478136228825
2018-12-21 00:00:00+01:00,0.609264108499151,52.5431660161118
2018-12-22 00:00:00+01:00,0.553371390977366,52.632536676337
2018-12-23 00:00:00+01:00,0.521009644821258,52.6992146810772
2018-12-24 00:00:00+01:00,0.50428124436003,52.8101228353898
2018-12-25 00:00:00+01:00,0.567041391639238,51.238413653013
2018-12-26 00:00:00+01:00,0.726789892402463,50.1345086136142
2018-12-27 00:00:00+01:00,0.711430406370878,50.1888364853112
2018-12-28 00:00:00+01:00,0.619301332297077,50.2002633024104
2018-12-29 00:00:00+01:00,0.538769356879964,50.2655037413233
2018-12-30 00:00:00+01:00,0.501325590467276,53.8550888007448
2018-12-31 00:00:00+01:00,0.724725775354965,51.2727986843816
2019-01-01 00:00:00+01:00,1.42627267785137,44.7429048480769
2019-01-02 00:00:00+01:00,1.71526193332081,44.8179261211515
2019-01-03 00:00:00+01:00,1.50087393476234,44.8179261211514
2019-01-04 00:00:00+01:00,2.47756939006477,30.4448418003023
2019-01-05 00:00:00+01:00,3.48271012912815,27.1625492331671
2019-01-06 00:00:00+01:00,3.28566070098992,27.2133635164052
2019-01-07 00:00:00+01:00,2.89334178164587,30.1828575306528
2019-01-08 00:00:00+01:00,2.5472939245178,30.1870831670106
2019-01-09 00:00:00+01:00,2.2322275078014,30.1914836572866
2019-01-10 00:00:00+01:00,1.95571090419309,30.194143581457
2019-01-11 00:00:00+01:00,1.95724495023126,27.5831665564369
2019-01-12 00:00:00+01:00,1.89537828098747,30.520741858662
2019-01-13 00:00:00+01:00,1.67260107316212,30.7588128508033
2019-01-14 00:00:00+01:00,1.46631623225469,30.8920970686323
2019-01-15 00:00:00+01:00,1.29939669252556,34.3588668614621
2019-01-16 00:00:00+01:00,1.16255541595027,37.0988213019482
2019-01-17 00:00:00+01:00,1.02811635254461,37.1677182873997
2019-01-18 00:00:00+01:00,0.899663077235412,37.1707948667767
2019-01-19 00:00:00+01:00,0.78674910785034,37.1789210492617
2019-01-20 00:00:00+01:00,0.695323416462127,38.9344254930565
2019-01-21 00:00:00+01:00,0.615086039313072,39.1367109167685
2019-01-22 00:00:00+01:00,0.546904539060516,40.7437570828751
2019-01-23 00:00:00+01:00,0.52008805708699,40.7951596482827
2019-01-24 00:00:00+01:00,0.503847661398224,41.321435550224
2019-01-25 00:00:00+01:00,0.496305179334615,48.5764277816442
2019-01-26 00:00:00+01:00,0.493168287948091,53.3552751530097
2019-01-27 00:00:00+01:00,0.488671644833099,59.1061887720823
2019-01-28 00:00:00+01:00,0.479329913476666,59.5981603390322
2019-01-29 00:00:00+01:00,0.464817107216084,60.0773036229622
2019-01-30 00:00:00+01:00,0.452753768663385,62.3017494490699
2019-01-31 00:00:00+01:00,0.446011080410078,67.2578749216694
2019-02-01 00:00:00+01:00,0.441862483308792,71.8099688962762
2019-02-02 00:00:00+01:00,0.432990729681132,72.4720426631157
2019-02-03 00:00:00+01:00,0.42002170906113,72.8301753614262
2019-02-04 00:00:00+01:00,0.442216007285345,87.1991527025301
2019-02-05 00:00:00+01:00,0.434952084611836,87.5737592348841
2019-02-06 00:00:00+01:00,0.41432681036741,91.0280689023026
2019-02-07 00:00:00+01:00,0.410351089663932,96.196179273698
2019-02-08 00:00:00+01:00,0.409902828380096,102.783266311891
2019-02-09 00:00:00+01:00,0.493437102905859,104.035606990636
2019-02-10 00:00:00+01:00,0.800555286430096,102.647462889427
2019-02-11 00:00:00+01:00,0.82769135829116,102.715069312811
2019-02-12 00:00:00+01:00,0.714128118597571,102.715069312811
2019-02-13 00:00:00+01:00,1.16495253475131,95.8313011797331
2019-02-14 00:00:00+01:00,1.57107210942011,95.3145725179506
2019-02-15 00:00:00+01:00,1.40737654284505,95.3740200354513
2019-02-16 00:00:00+01:00,1.22558689232639,95.3892536184429
2019-02-17 00:00:00+01:00,1.22235142041896,93.6045820105817
2019-02-18 00:00:00+01:00,1.89804570282663,85.2831999698365
2019-02-19 00:00:00+01:00,2.86435487139035,78.4624278382026
2019-02-20 00:00:00+01:00,3.02499495353042,80.2354342112075
2019-02-21 00:00:00+01:00,2.8953332156758,78.058926594605
2019-02-22 00:00:00+01:00,2.835918506583,77.0676672688383
2019-02-23 00:00:00+01:00,2.79041747738867,74.3847411641729
2019-02-24 00:00:00+01:00,2.86704438142877,71.7141239029194
2019-02-25 00:00:00+01:00,3.22040807415452,65.6569585810095
2019-02-26 00:00:00+01:00,4.02049541660866,59.3787902078141
2019-02-27 00:00:00+01:00,4.1897501334392,57.7228267111516
2019-02-28 00:00:00+01:00,3.6334973052099,56.2516051657207
2019-03-01 00:00:00+01:00,3.28314570507947,56.2829752537012
2019-03-02 00:00:00+01:00,2.88578955748649,58.5569412648659
2019-03-03 00:00:00+01:00,2.91790659402188,56.2474439476447
2019-03-04 00:00:00+01:00,3.02038187618232,55.9542676133139
2019-03-05 00:00:00+01:00,2.83902384110147,58.1590923674768
2019-03-06 00:00:00+01:00,2.55734454593715,68.2237951364608
2019-03-07 00:00:00+01:00,2.56147562948548,78.2728549618463
2019-03-08 00:00:00+01:00,2.57578909650927,78.6115752091342
2019-03-09 00:00:00+01:00,2.33520919718972,82.7509322284902
2019-03-10 00:00:00+01:00,2.06199196586753,82.9987004552152
2019-03-11 00:00:00+01:00,1.8064331889692,83.0348575173097
2019-03-12 00:00:00+01:00,1.65303944067934,99.5502477735398
2019-03-13 00:00:00+01:00,1.5166641257068,99.8421012604847
2019-03-14 00:00:00+01:00,1.33845175196456,100.017713380135
2019-03-15 00:00:00+01:00,1.18367940189944,102.86079618894
2019-03-16 00:00:00+01:00,1.1661019968675,116.013887825885
2019-03-17 00:00:00+01:00,1.28806949987319,117.87416191203
2019-03-18 00:00:00+01:00,1.45993169961695,116.565790512627
2019-03-19 00:00:00+01:00,1.37425408844074,116.566999174877
2019-03-20 00:00:00+01:00,1.68734596915735,110.255080685159
2019-03-21 00:00:00+01:00,3.51822383811902,94.3751283659103
2019-03-22 00:00:00+01:00,4.85176809979951,93.217750283065
2019-03-23 00:00:00+01:00,4.74125324045936,88.738765580721
2019-03-24 00:00:00+01:00,4.98215765198119,85.0874745445428
2019-03-25 00:00:00+01:00,4.98142927053402,81.3708092129372
2019-03-26 00:00:00+01:00,4.6743782206873,78.8076767706737
2019-03-27 00:00:00+01:00,4.59998796965904,74.5894965339298
2019-03-28 00:00:00+01:00,5.37266299797848,67.814417190623
2019-03-29 00:00:00+01:00,6.82266596420761,58.6909840151833
2019-03-30 00:00:00+01:00,7.24467497275832,54.483689019078
2019-03-31 00:00:00+01:00,5.84176487973155,54.4833492708808
2019-04-01 00:00:00+01:00,4.1320132388543,54.4833492708808
2019-04-02 00:00:00+01:00,3.40514820759432,54.3214170369049
2019-04-03 00:00:00+01:00,3.05040560710092,55.0649573347253
2019-04-04 00:00:00+01:00,3.17602715289644,49.6281624867505
2019-04-05 00:00:00+01:00,3.46272018159344,45.9595605611663
2019-04-06 00:00:00+01:00,3.61145560092198,42.0892639148929
2019-04-07 00:00:00+01:00,3.44960812001664,41.9721952981897
2019-04-08 00:00:00+01:00,3.03896062112808,41.9250138543801
2019-04-09 00:00:00+01:00,2.66978189168529,41.9250138543801
2019-04-10 00:00:00+01:00,2.34235519331109,41.9250138543801
2019-04-11 00:00:00+01:00,2.05569973113695,41.9460654651856
2019-04-12 00:00:00+01:00,1.80460596138338,41.9418958128998
2019-04-13 00:00:00+01:00,1.5871446792469,41.8891319559026
2019-04-14 00:00:00+01:00,1.39654600956721,41.8774987267305
2019-04-15 00:00:00+01:00,1.27006179839348,41.323890186062
2019-04-16 00:00:00+01:00,1.20034576511123,40.818280649262
2019-04-17 00:00:00+01:00,1.27355251066615,38.6097445569638
2019-04-18 00:00:00+01:00,1.6222107935457,34.2211033079848
2019-04-19 00:00:00+01:00,2.19311384429097,28.3655996610717
2019-04-20 00:00:00+01:00,2.73371267567993,23.1476164043205
2019-04-21 00:00:00+01:00,3.07737211806072,18.868395211421
2019-04-22 00:00:00+01:00,3.26622159351584,15.1144042422764
2019-04-23 00:00:00+01:00,3.24122574696333,13.2548427784764
2019-04-24 00:00:00+01:00,3.1865685035914,10.5954838977531
2019-04-25 00:00:00+01:00,3.16059650617944,9.11721175266971
2019-04-26 00:00:00+01:00,3.11922675718921,7.02930838120273
2019-04-27 00:00:00+01:00,7.64982692000979,5.87632739102568
2019-04-28 00:00:00+01:00,10.7396408975646,4.30560417328443
2019-04-29 00:00:00+01:00,8.15728126375707,2.75286543505789
2019-04-30 00:00:00+01:00,6.14723059219764,1.54046378367159
2019-05-01 00:00:00+01:00,4.53409829354788,1.09689507760435
2019-05-02 00:00:00+01:00,3.55503172934138,1.04033584760398
2019-05-03 00:00:00+01:00,3.21207972946068,1.97610764100002
2019-05-04 00:00:00+01:00,2.95764119992076,1.25082200691316
2019-05-05 00:00:00+01:00,2.63104043816054,1.13691119340708
2019-05-06 00:00:00+01:00,2.35048694662204,1.26507624287281
2019-05-07 00:00:00+01:00,2.09444778540211,1.26507624287281
2019-05-08 00:00:00+01:00,1.95224268510739,1.34862462337659
2019-05-09 00:00:00+01:00,3.80102598021314,2.56235642807997
2019-05-10 00:00:00+01:00,6.2951640834304,2.12565970112747
2019-05-11 00:00:00+01:00,5.16574182973724,1.84815698574987
2019-05-12 00:00:00+01:00,3.79696488326851,1.84815698574987
2019-05-13 00:00:00+01:00,3.27780787575231,1.58759465377234
2019-05-14 00:00:00+01:00,2.92843707400305,1.04390796126865
2019-05-15 00:00:00+01:00,2.61612252235623,0.67009118320011
2019-05-16 00:00:00+01:00,2.32799970406507,0.335260278193562
2019-05-17 00:00:00+01:00,2.12365555536089,0.107303190244885
2019-05-18 00:00:00+01:00,2.05817194519024,0.0309872519361061
2019-05-19 00:00:00+01:00,1.92495923741691,0.0
2019-05-20 00:00:00+01:00,1.89544673795873,0.0
2019-05-21 00:00:00+01:00,2.5561730097063,0.0
2019-05-22 00:00:00+01:00,5.21346409308236,0.0
2019-05-23 00:00:00+01:00,7.46626901519607,0.0
2019-05-24 00:00:00+01:00,6.36417310551402,0.0
2019-05-25 00:00:00+01:00,4.75176641895562,0.0
2019-05-26 00:00:00+01:00,3.59373871607256,0.0
2019-05-27 00:00:00+01:00,3.14081154507515,0.0
2019-05-28 00:00:00+01:00,2.75289626064238,0.0
2019-05-29 00:00:00+01:00,2.53894868219018,0.0
2019-05-30 00:00:00+01:00,2.4057647716508,0.0
2019-05-31 00:00:00+01:00,2.32857950988803,0.0
2019-06-01 00:00:00+01:00,2.18425173787208,0.0
2019-06-02 00:00:00+01:00,2.57180487680416,0.0
2019-06-03 00:00:00+01:00,2.86874850676468,0.0
2019-06-04 00:00:00+01:00,2.66620012200348,0.0
2019-06-05 00:00:00+01:00,2.60621667369757,0.0
2019-06-06 00:00:00+01:00,2.65396822157054,0.0
2019-06-07 00:00:00+01:00,2.53051578677386,0.0
2019-06-08 00:00:00+01:00,2.9511564508165,0.0
2019-06-09 00:00:00+01:00,3.32104688260244,0.0
2019-06-10 00:00:00+01:00,2.94746592024832,0.0
2019-06-11 00:00:00+01:00,3.66123709165155,0.0
2019-06-12 00:00:00+01:00,6.26354124814366,0.0
2019-06-13 00:00:00+01:00,6.22678952438776,0.0
2019-06-14 00:00:00+01:00,4.99947876326555,0.0
2019-06-15 00:00:00+01:00,4.56572636364074,0.0
2019-06-16 00:00:00+01:00,4.04687462369564,0.0
2019-06-17 00:00:00+01:00,3.49402379395784,0.0
2019-06-18 00:00:00+01:00,3.07459633583051,0.0
2019-06-19 00:00:00+01:00,3.08118618789505,0.0
2019-06-20 00:00:00+01:00,3.07196031266318,0.0
2019-06-21 00:00:00+01:00,2.75277656967959,0.0
2019-06-22 00:00:00+01:00,2.42831490125326,0.0
2019-06-23 00:00:00+01:00,2.11072904839234,0.0
2019-06-24 00:00:00+01:00,1.83382438491134,0.0
2019-06-25 00:00:00+01:00,1.94787048777907,0.0
2019-06-26 00:00:00+01:00,2.01841971468689,0.0
2019-06-27 00:00:00+01:00,1.74660651834524,0.0
2019-06-28 00:00:00+01:00,1.50347415111431,0.0
2019-06-29 00:00:00+01:00,1.28573987838359,0.0
2019-06-30 00:00:00+01:00,1.1304653866897,0.0
2019-07-01 00:00:00+01:00,1.00392491749113,0.0
2019-07-02 00:00:00+01:00,0.867841385753195,0.0
2019-07-03 00:00:00+01:00,0.745692156519839,0.0
2019-07-04 00:00:00+01:00,0.637901507204126,0.0
2019-07-05 00:00:00+01:00,0.561192625299246,0.0
2019-07-06 00:00:00+01:00,1.04603755160095,0.0
2019-07-07 00:00:00+01:00,1.67978946787367,0.0
2019-07-08 00:00:00+01:00,1.71569724250657,0.0
2019-07-09 00:00:00+01:00,1.56491806307736,0.0
2019-07-10 00:00:00+01:00,1.35033981065733,0.0
2019-07-11 00:00:00+01:00,1.1561004440784,0.0
2019-07-12 00:00:00+01:00,0.985486089723727,0.0
2019-07-13 00:00:00+01:00,0.910865525931926,0.0
2019-07-14 00:00:00+01:00,0.835333811797085,0.0
2019-07-15 00:00:00+01:00,0.70330136794314,0.0
2019-07-16 00:00:00+01:00,0.589462601093239,0.0
2019-07-17 00:00:00+01:00,0.542004644611162,0.0
2019-07-18 00:00:00+01:00,0.595133586565674,0.0
2019-07-19 00:00:00+01:00,0.739836677227455,0.0
2019-07-20 00:00:00+01:00,1.74830625161986,0.0
2019-07-21 00:00:00+01:00,3.38253426969117,0.0
2019-07-22 00:00:00+01:00,3.89115784101543,0.0
2019-07-23 00:00:00+01:00,3.43128793207316,0.0
2019-07-24 00:00:00+01:00,2.97877214891293,0.0
2019-07-25 00:00:00+01:00,2.57933258855494,0.0
2019-07-26 00:00:00+01:00,2.22738310411257,0.0
2019-07-27 00:00:00+01:00,1.91906492226001,0.0
2019-07-28 00:00:00+01:00,3.40567617143158,0.0
2019-07-29 00:00:00+01:00,5.14419779288954,0.0
2019-07-30 00:00:00+01:00,3.85794628149786,0.0
2019-07-31 00:00:00+01:00,3.40391863265569,0.0
2019-08-01 00:00:00+01:00,3.000801215436,0.0
2019-08-02 00:00:00+01:00,2.61228608579908,0.0
2019-08-03 00:00:00+01:00,2.26767506850965,0.0
2019-08-04 00:00:00+01:00,1.96446025320155,0.0
2019-08-05 00:00:00+01:00,1.71500526182705,0.0
2019-08-06 00:00:00+01:00,1.77575142780179,0.0
2019-08-07 00:00:00+01:00,1.80741893653851,0.0
2019-08-08 00:00:00+01:00,1.57916250426903,0.0
2019-08-09 00:00:00+01:00,1.55336805122678,0.0
2019-08-10 00:00:00+01:00,2.89961045072456,0.0
2019-08-11 00:00:00+01:00,5.26875051289444,0.0
2019-08-12 00:00:00+01:00,5.13940160419156,0.0
2019-08-13 00:00:00+01:00,3.95182581955349,0.0
2019-08-14 00:00:00+01:00,3.32525633459528,0.0
2019-08-15 00:00:00+01:00,3.15147836339793,0.0
2019-08-16 00:00:00+01:00,3.35039151293907,0.0
2019-08-17 00:00:00+01:00,4.83637547995035,0.0
2019-08-18 00:00:00+01:00,7.50454948340941,0.0
2019-08-19 00:00:00+01:00,7.32182899227227,0.0
2019-08-20 00:00:00+01:00,5.29695631475176,0.0
2019-08-21 00:00:00+01:00,3.83455012013558,0.0
2019-08-22 00:00:00+01:00,4.66301534744651,0.0
2019-08-23 00:00:00+01:00,4.96901839806121,0.0
2019-08-24 00:00:00+01:00,3.66269170791588,0.0
2019-08-25 00:00:00+01:00,3.16695687091517,0.0
2019-08-26 00:00:00+01:00,2.75752102451627,0.0
2019-08-27 00:00:00+01:00,2.39836443796848,0.0
2019-08-28 00:00:00+01:00,2.95262853225475,0.0
2019-08-29 00:00:00+01:00,3.44747619687664,0.0
2019-08-30 00:00:00+01:00,3.0555109505683,0.0
2019-08-31 00:00:00+01:00,2.68607154334485,0.0
2019-09-01 00:00:00+01:00,2.35844010857888,0.0
2019-09-02 00:00:00+01:00,2.12865048689633,0.0
2019-09-03 00:00:00+01:00,1.9320103957609,0.0
2019-09-04 00:00:00+01:00,2.43749986053914,0.0
2019-09-05 00:00:00+01:00,2.87615708353393,0.0
2019-09-06 00:00:00+01:00,3.09304302892617,0.0
2019-09-07 00:00:00+01:00,3.28924143870806,0.0
2019-09-08 00:00:00+01:00,2.97173214573004,0.0
2019-09-09 00:00:00+01:00,2.78584754143859,0.0
2019-09-10 00:00:00+01:00,2.87335911556548,0.0
2019-09-11 00:00:00+01:00,3.03093391807996,0.0
2019-09-12 00:00:00+01:00,2.88453946079418,0.0
2019-09-13 00:00:00+01:00,2.52131350235143,0.0
2019-09-14 00:00:00+01:00,2.69547052445221,0.0
2019-09-15 00:00:00+01:00,2.8059708325037,0.0
2019-09-16 00:00:00+01:00,2.45709672721021,0.0
2019-09-17 00:00:00+01:00,2.14891895023747,0.0
2019-09-18 00:00:00+01:00,1.87863468338486,0.0
2019-09-19 00:00:00+01:00,1.64203926332359,0.0
2019-09-20 00:00:00+01:00,1.43071784930507,0.0
2019-09-21 00:00:00+01:00,1.24114659604462,0.0
2019-09-22 00:00:00+01:00,1.08182833324421,0.0
2019-09-23 00:00:00+01:00,0.947624424419051,0.0
2019-09-24 00:00:00+01:00,0.825445394834747,0.0
2019-09-25 00:00:00+01:00,0.714280055065426,0.0
2019-09-26 00:00:00+01:00,1.29198557706999,0.0
2019-09-27 00:00:00+01:00,1.87129458369299,0.0
2019-09-28 00:00:00+01:00,2.31666854740373,0.0
2019-09-29 00:00:00+01:00,2.57567628467042,0.0
2019-09-30 00:00:00+01:00,2.25552490023061,0.0
2019-10-01 00:00:00+01:00,2.00572270187888,0.0
2019-10-02 00:00:00+01:00,1.85695519690426,0.0
2019-10-03 00:00:00+01:00,2.40615959242893,1.27730714066391
2019-10-04 00:00:00+01:00,2.82190697467921,2.09671712214774
2019-10-05 00:00:00+01:00,2.52479607936774,2.11707346069182
2019-10-06 00:00:00+01:00,2.21705699745734,2.13278018067167
2019-10-07 00:00:00+01:00,2.01502442734938,9.84649950890386
2019-10-08 00:00:00+01:00,2.54714882113163,8.93421817545385
2019-10-09 00:00:00+01:00,3.31832417086056,6.52241910214526
2019-10-10 00:00:00+01:00,3.62402813028892,4.76752928385602
2019-10-11 00:00:00+01:00,3.89367451435451,4.63565732574745
2019-10-12 00:00:00+01:00,3.70117872798512,4.28484499352076
2019-10-13 00:00:00+01:00,4.6616540233204,3.54032377084559
2019-10-14 00:00:00+01:00,5.96383693446709,2.48839716023116
2019-10-15 00:00:00+01:00,10.3742628283685,3.90454873626909
2019-10-16 00:00:00+01:00,12.3515931639938,3.2260019233236
2019-10-17 00:00:00+01:00,10.0747381542457,2.78870720028359
2019-10-18 00:00:00+01:00,10.7232327932193,2.53353402546598
2019-10-19 00:00:00+01:00,10.6566178030514,2.21314148068558
2019-10-20 00:00:00+01:00,8.96270000598071,2.44793976771463
2019-10-21 00:00:00+01:00,7.00043772827185,2.44793976771463
2019-10-22 00:00:00+01:00,5.03494656407034,1.84024246216409
2019-10-23 00:00:00+01:00,3.84420661282661,1.11072942398822
2019-10-24 00:00:00+01:00,5.1318933267288,0.607700311091056
2019-10-25 00:00:00+01:00,6.2278780784644,0.435655838450486
2019-10-26 00:00:00+01:00,4.96551612372813,0.461030627040903
2019-10-27 00:00:00+01:00,3.71428517543795,0.489921797699829
2019-10-28 00:00:00+01:00,3.22723059442993,0.491807764352009
2019-10-29 00:00:00+01:00,2.83377595352884,0.5015995306335
2019-10-30 00:00:00+01:00,2.48856486009516,0.499469245868714
2019-10-31 00:00:00+01:00,2.19092787313801,0.470140066783933
2019-11-01 00:00:00+01:00,1.9255931957415,0.565682731724128
2019-11-02 00:00:00+01:00,1.693026246891,0.712768456905086
2019-11-03 00:00:00+01:00,1.49896789356432,1.0059042570382
2019-11-04 00:00:00+01:00,1.32467817615423,1.05570584300889
2019-11-05 00:00:00+01:00,1.16436719079618,1.10596768649003
2019-11-06 00:00:00+01:00,1.0225444042409,1.10596768649003
2019-11-07 00:00:00+01:00,0.897903732376571,1.12514152096981
2019-11-08 00:00:00+01:00,0.792801986996121,2.12614721229567
2019-11-09 00:00:00+01:00,0.703741107979232,3.00422716252349
2019-11-10 00:00:00+01:00,0.638484860388101,6.96803759380542
2019-11-11 00:00:00+01:00,0.585055938145748,8.99801801124758
2019-11-12 00:00:00+01:00,0.608663604729754,28.025583478043
2019-11-12 14:09:00+01:00,,27.975562098816162
