,q,s
2018-09-01 00:00:00+01:00,6.57951009100495,5.81525925070195e-07
2018-09-02 00:00:00+01:00,6.41560324253097,5.81525925070195e-07
2018-09-03 00:00:00+01:00,6.33235904488726,5.81525925070195e-07
2018-09-04 00:00:00+01:00,6.26389648003881,5.81525925070195e-07
2018-09-05 00:00:00+01:00,6.02784612523091,5.81525925070195e-07
2018-09-06 00:00:00+01:00,5.51604210431337,5.81525925070195e-07
2018-09-07 00:00:00+01:00,5.04700575714453,5.81525925070195e-07
2018-09-08 00:00:00+01:00,4.61896023994487,5.81525925070195e-07
2018-09-09 00:00:00+01:00,4.2296008278032,5.81525925070195e-07
2018-09-10 00:00:00+01:00,3.88033902107892,5.81525925070195e-07
2018-09-11 00:00:00+01:00,3.84027117346637,5.81525925070195e-07
2018-09-12 00:00:00+01:00,3.78776872093614,5.81525925070195e-07
2018-09-13 00:00:00+01:00,3.65649550904581,5.81525925070195e-07
2018-09-14 00:00:00+01:00,4.04181692464723,5.81525925070195e-07
2018-09-15 00:00:00+01:00,4.42607162953518,5.81525925070195e-07
2018-09-16 00:00:00+01:00,4.27775284765809,5.81525925070195e-07
2018-09-17 00:00:00+01:00,4.05424629855538,5.81525925070195e-07
2018-09-18 00:00:00+01:00,3.7441739621219,5.81525925070195e-07
2018-09-19 00:00:00+01:00,3.80273163569357,5.81525925070195e-07
2018-09-20 00:00:00+01:00,4.5549217872372,5.81525925070195e-07
2018-09-21 00:00:00+01:00,5.08899060384811,5.81525925070195e-07
2018-09-22 00:00:00+01:00,5.72569610802154,5.81525925070195e-07
2018-09-23 00:00:00+01:00,7.3421288040127,5.81525925070195e-07
2018-09-24 00:00:00+01:00,9.5767071276368,5.81525925070195e-07
2018-09-25 00:00:00+01:00,13.2537619493423,5.81525925070195e-07
2018-09-26 00:00:00+01:00,16.6734688176604,5.81525925070195e-07
2018-09-27 00:00:00+01:00,16.2399943488842,0.0722019727137214
2018-09-28 00:00:00+01:00,13.7898585493752,4.25065844437771
2018-09-29 00:00:00+01:00,11.572561132626,4.35379397252911
2018-09-30 00:00:00+01:00,10.4341146406771,1.02266226198269
2018-10-01 00:00:00+01:00,9.85136550666455,0.0861589896555809
2018-10-02 00:00:00+01:00,9.13704566095013,0.0129776139656215
2018-10-03 00:00:00+01:00,9.14480980163224,0.0117850449384209
2018-10-04 00:00:00+01:00,9.08506732174517,0.0137217596288278
2018-10-05 00:00:00+01:00,8.34097443913902,0.0137217596288278
2018-10-06 00:00:00+01:00,7.79419503877336,15.732069972783
2018-10-07 00:00:00+01:00,7.53632375015634,14.8589572508579
2018-10-08 00:00:00+01:00,7.66475393264652,11.2517864815313
2018-10-09 00:00:00+01:00,8.96530653400996,0.451013492840282
2018-10-10 00:00:00+01:00,9.48847068679847,0.0
2018-10-11 00:00:00+01:00,9.01923744486511,0.0
2018-10-12 00:00:00+01:00,8.45197959629794,0.0
2018-10-13 00:00:00+01:00,7.86497338278592,0.0
2018-10-14 00:00:00+01:00,8.45083778311708,0.0
2018-10-15 00:00:00+01:00,8.9750320796768,0.0
2018-10-16 00:00:00+01:00,8.99495750937267,0.0
2018-10-17 00:00:00+01:00,8.82162770013051,0.0
2018-10-18 00:00:00+01:00,9.11626615895608,0.0
2018-10-19 00:00:00+01:00,9.4039485961668,0.0
2018-10-20 00:00:00+01:00,9.07096347012212,0.0
2018-10-21 00:00:00+01:00,9.51304266184655,0.0
2018-10-22 00:00:00+01:00,10.1301458185037,0.0
2018-10-23 00:00:00+01:00,9.79346256111428,0.0
2018-10-24 00:00:00+01:00,8.95928088488889,0.0
2018-10-25 00:00:00+01:00,8.19613798749212,0.0
2018-10-26 00:00:00+01:00,7.5030093487844,0.482147085639448
2018-10-27 00:00:00+01:00,6.94910936520715,8.2292291719141
2018-10-28 00:00:00+01:00,6.43259500031098,8.54909144795855
2018-10-29 00:00:00+01:00,5.88760488017784,8.54909144795855
2018-10-30 00:00:00+01:00,5.38604998719759,8.54909144795855
2018-10-31 00:00:00+01:00,5.06778394234738,22.037666796749
2018-11-01 00:00:00+01:00,5.31986546437588,15.4987458413586
2018-11-02 00:00:00+01:00,5.69484803303538,14.2045676777997
2018-11-03 00:00:00+01:00,5.91360687794196,12.3199080830464
2018-11-04 00:00:00+01:00,6.56133595959045,5.71001340973623
2018-11-05 00:00:00+01:00,7.79811734702463,0.0701416629796264
2018-11-06 00:00:00+01:00,8.32153561959066,0.0
2018-11-07 00:00:00+01:00,7.89012386550134,0.00458362047185928
2018-11-08 00:00:00+01:00,7.22087337827489,0.0461827529859434
2018-11-09 00:00:00+01:00,6.60637687993319,0.0623994416604893
2018-11-10 00:00:00+01:00,6.04725986942542,0.0
2018-11-11 00:00:00+01:00,5.56315757185147,0.0
2018-11-12 00:00:00+01:00,5.64873253114338,0.0
2018-11-13 00:00:00+01:00,5.75520225770096,0.0
2018-11-14 00:00:00+01:00,5.51957991070946,0.0760402585386683
2018-11-15 00:00:00+01:00,5.38490487226107,0.0
2018-11-16 00:00:00+01:00,5.93594723083322,0.0
2018-11-17 00:00:00+01:00,6.29464412228485,0.0
2018-11-18 00:00:00+01:00,5.86379268847768,0.0
2018-11-19 00:00:00+01:00,5.62229311204881,0.988475062366226
2018-11-20 00:00:00+01:00,5.59915324841534,0.267398560746478
2018-11-21 00:00:00+01:00,5.55599236538048,0.090248312298397
2018-11-22 00:00:00+01:00,5.60089574508412,0.0
2018-11-23 00:00:00+01:00,8.14195042063551,0.0
2018-11-24 00:00:00+01:00,12.9765644845491,6.23545296785618
2018-11-25 00:00:00+01:00,14.4208987254452,27.2471795944067
2018-11-26 00:00:00+01:00,12.1943472649519,34.1150337990074
2018-11-27 00:00:00+01:00,10.5694046675026,49.2607554847586
2018-11-28 00:00:00+01:00,9.96710489848233,56.3712013722821
2018-11-29 00:00:00+01:00,9.39437761332489,60.887733070278
2018-11-30 00:00:00+01:00,8.64467659963317,61.6881083918805
2018-12-01 00:00:00+01:00,7.917481912869,61.8410335932872
2018-12-02 00:00:00+01:00,7.24631023545562,62.005784835048
2018-12-03 00:00:00+01:00,6.63068696184337,62.005784835048
2018-12-04 00:00:00+01:00,6.08512554389976,63.7546563799109
2018-12-05 00:00:00+01:00,5.66002566444564,70.6692172140569
2018-12-06 00:00:00+01:00,5.5944097420728,104.453918661866
2018-12-07 00:00:00+01:00,5.47145915858372,108.203362847992
2018-12-08 00:00:00+01:00,5.04034706822515,108.203362847992
2018-12-09 00:00:00+01:00,4.62936345082286,109.960638856092
2018-12-10 00:00:00+01:00,4.25477070976555,110.282070246518
2018-12-11 00:00:00+01:00,3.9138858216708,112.05931252522
2018-12-12 00:00:00+01:00,3.68460501230845,112.122834986167
2018-12-13 00:00:00+01:00,3.62140704621147,108.381847336517
2018-12-14 00:00:00+01:00,3.99474436338811,99.828527025575
2018-12-15 00:00:00+01:00,4.11980696781181,99.8750062967266
2018-12-16 00:00:00+01:00,3.78876533721701,99.8750062967266
2018-12-17 00:00:00+01:00,3.61680966783661,99.8750062967266
2018-12-18 00:00:00+01:00,3.47848382626224,99.8826783344998
2018-12-19 00:00:00+01:00,3.34544599389451,99.8826783344998
2018-12-20 00:00:00+01:00,3.21750678123798,99.8917140296882
2018-12-21 00:00:00+01:00,3.09454465027948,99.9104360982183
2018-12-22 00:00:00+01:00,2.99429900725086,103.798802299918
2018-12-23 00:00:00+01:00,2.95518378302225,116.509705706194
2018-12-24 00:00:00+01:00,2.94345569898951,126.783374228298
2018-12-25 00:00:00+01:00,2.9832641316991,150.270239853731
2018-12-26 00:00:00+01:00,3.00761245565803,158.756990840758
2018-12-27 00:00:00+01:00,2.96518105046909,166.687341658897
2018-12-28 00:00:00+01:00,3.08050078454142,178.033719470042
2018-12-29 00:00:00+01:00,4.23650001701523,182.480253848853
2018-12-30 00:00:00+01:00,5.33863282491878,195.746997134961
2018-12-31 00:00:00+01:00,5.01414841203611,196.389859915814
2019-01-01 00:00:00+01:00,4.85068089686821,221.105616640365
2019-01-02 00:00:00+01:00,4.80909069696006,234.680737559457
2019-01-03 00:00:00+01:00,4.82314589935345,263.204875402603
2019-01-04 00:00:00+01:00,4.68806013390272,264.182415372938
2019-01-05 00:00:00+01:00,4.34386932832296,268.004601945507
2019-01-06 00:00:00+01:00,4.94052435606367,262.412786492503
2019-01-07 00:00:00+01:00,6.93060371819442,271.711525341391
2019-01-08 00:00:00+01:00,7.64135357289685,283.178396736801
2019-01-09 00:00:00+01:00,7.27585978412421,300.307928533933
2019-01-10 00:00:00+01:00,8.90438745264068,314.349748309614
2019-01-11 00:00:00+01:00,12.7316780006559,344.163285415894
2019-01-12 00:00:00+01:00,13.6240124411209,370.252560631284
2019-01-13 00:00:00+01:00,11.576598769933,373.207256874049
2019-01-14 00:00:00+01:00,10.1808958554514,377.709503973193
2019-01-15 00:00:00+01:00,9.38457324411095,380.469486969835
2019-01-16 00:00:00+01:00,8.63539593586798,382.802513710236
2019-01-17 00:00:00+01:00,7.98450069467289,388.825820067648
2019-01-18 00:00:00+01:00,7.41364392828742,393.914856064975
2019-01-19 00:00:00+01:00,6.8771169190798,398.467878727167
2019-01-20 00:00:00+01:00,6.41893579915174,406.633177967483
2019-01-21 00:00:00+01:00,6.12055252796814,423.161632998183
2019-01-22 00:00:00+01:00,5.80778996953724,428.403179397746
2019-01-23 00:00:00+01:00,5.36198052156224,428.403179397746
2019-01-24 00:00:00+01:00,4.90546974552876,428.414852991877
2019-01-25 00:00:00+01:00,4.48961233595238,428.586772654643
2019-01-26 00:00:00+01:00,4.10894817587309,428.594508529468
2019-01-27 00:00:00+01:00,3.78143241494792,428.611186291202
2019-01-28 00:00:00+01:00,3.62346018549933,430.861206024186
2019-01-29 00:00:00+01:00,3.49818640369243,431.688101395007
2019-01-30 00:00:00+01:00,3.36790234171222,431.69681998295
2019-01-31 00:00:00+01:00,3.23924431911668,431.725636220393
2019-02-01 00:00:00+01:00,3.11545847956003,431.725636220393
2019-02-02 00:00:00+01:00,2.99777883891268,432.047067610819
2019-02-03 00:00:00+01:00,2.885278284324,432.222533530586
2019-02-04 00:00:00+01:00,2.77593645729644,432.284124402305
2019-02-05 00:00:00+01:00,2.68867125228125,436.302016782634
2019-02-06 00:00:00+01:00,2.65897273513079,448.403378800221
2019-02-07 00:00:00+01:00,2.60904657259859,448.564094495435
2019-02-08 00:00:00+01:00,2.50992277327438,448.564094495435
2019-02-09 00:00:00+01:00,2.41391270069523,448.564094495435
2019-02-10 00:00:00+01:00,2.34295064246216,453.166568140769
2019-02-11 00:00:00+01:00,2.32743520910287,464.943502293319
2019-02-12 00:00:00+01:00,2.35192221741606,478.690516065661
2019-02-13 00:00:00+01:00,2.32540071372763,479.867219467998
2019-02-14 00:00:00+01:00,2.40322536149044,514.708026934474
2019-02-15 00:00:00+01:00,2.56315554216978,533.4604205616
2019-02-16 00:00:00+01:00,2.90774092015121,548.194864522902
2019-02-17 00:00:00+01:00,3.16049210424339,549.721195167084
2019-02-18 00:00:00+01:00,3.11937325879826,565.511605916781
2019-02-19 00:00:00+01:00,3.10784983305579,574.382268146463
2019-02-20 00:00:00+01:00,3.02873528030284,574.888552021494
2019-02-21 00:00:00+01:00,2.91800354397311,575.531414802346
2019-02-22 00:00:00+01:00,2.95175175224215,606.246953641386
2019-02-23 00:00:00+01:00,3.54753328544495,604.878907309513
2019-02-24 00:00:00+01:00,6.17359916713403,599.069177616086
2019-02-25 00:00:00+01:00,8.31239937387249,599.0878808548
2019-02-26 00:00:00+01:00,9.52272643921419,603.662939795119
2019-02-27 00:00:00+01:00,10.8042342534484,605.737180607423
2019-02-28 00:00:00+01:00,10.8541036282538,611.065316263788
2019-03-01 00:00:00+01:00,9.85189127051391,612.024312115444
2019-03-02 00:00:00+01:00,9.02208809470438,612.045505393934
2019-03-03 00:00:00+01:00,8.40406483682104,626.444906149372
2019-03-04 00:00:00+01:00,7.96278456963255,639.912423175185
2019-03-05 00:00:00+01:00,7.70817198726643,668.517821700061
2019-03-06 00:00:00+01:00,7.51232044017824,687.161548787403
2019-03-07 00:00:00+01:00,7.0516110360647,687.687848536563
2019-03-08 00:00:00+01:00,6.46439278309371,688.491427012629
2019-03-09 00:00:00+01:00,5.95498930697223,691.715832954268
2019-03-10 00:00:00+01:00,5.47852325434621,691.776385178524
2019-03-11 00:00:00+01:00,5.11303008159699,701.417560784772
2019-03-12 00:00:00+01:00,4.88962623849041,713.149806535332
2019-03-13 00:00:00+01:00,4.61258735030885,716.042689049169
2019-03-14 00:00:00+01:00,4.26514165776155,717.810561696514
2019-03-15 00:00:00+01:00,3.97530318996365,723.271804647315
2019-03-16 00:00:00+01:00,3.76701396790295,729.391652938933
2019-03-17 00:00:00+01:00,3.64470743454784,731.32779029377
2019-03-18 00:00:00+01:00,3.51351189422723,731.338462282301
2019-03-19 00:00:00+01:00,3.38588192726053,732.78490353922
2019-03-20 00:00:00+01:00,3.27779121660237,735.404040724882
2019-03-21 00:00:00+01:00,3.2990525911293,749.183006576626
2019-03-22 00:00:00+01:00,3.46088460176522,750.83171381867
2019-03-23 00:00:00+01:00,3.80901487562928,744.05571319923
2019-03-24 00:00:00+01:00,4.49420003901786,754.225346963346
2019-03-25 00:00:00+01:00,4.74467617820355,775.004916520577
2019-03-26 00:00:00+01:00,4.63870201186997,785.047165416974
2019-03-27 00:00:00+01:00,5.32226562685979,791.795565999756
2019-03-28 00:00:00+01:00,7.4579028911114,790.56508872841
2019-03-29 00:00:00+01:00,8.71053818424828,802.151491797508
2019-03-30 00:00:00+01:00,8.79320781444877,835.779315821642
2019-03-31 00:00:00+01:00,8.78408207447779,876.719424804109
2019-04-01 00:00:00+01:00,8.78772727410034,886.770841112232
2019-04-02 00:00:00+01:00,9.38498947432006,888.659868824107
2019-04-03 00:00:00+01:00,10.1894639597062,886.382629335625
2019-04-04 00:00:00+01:00,10.0450429382988,886.382629335625
2019-04-05 00:00:00+01:00,9.18978379419048,886.395127483393
2019-04-06 00:00:00+01:00,8.46524685327295,891.951439436405
2019-04-07 00:00:00+01:00,7.83572882919282,895.753866818756
2019-04-08 00:00:00+01:00,7.20557024066066,895.91752602487
2019-04-09 00:00:00+01:00,6.59365461497488,895.932484768668
2019-04-10 00:00:00+01:00,6.03230658104831,895.932484768667
2019-04-11 00:00:00+01:00,5.61681685918246,905.354663163855
2019-04-12 00:00:00+01:00,5.45172068407483,905.078148383926
2019-04-13 00:00:00+01:00,5.7909158816132,898.645864212437
2019-04-14 00:00:00+01:00,6.28967803843631,889.622334448883
2019-04-15 00:00:00+01:00,6.67806459237554,883.011134170918
2019-04-16 00:00:00+01:00,6.56949159833699,881.411464117076
2019-04-17 00:00:00+01:00,6.09592799499363,881.411464117075
2019-04-18 00:00:00+01:00,5.81856972195562,877.340505458438
2019-04-19 00:00:00+01:00,6.22397368529383,869.575414172104
2019-04-20 00:00:00+01:00,8.12650864490677,842.927623919702
2019-04-21 00:00:00+01:00,10.3580858248304,827.991138924041
2019-04-22 00:00:00+01:00,18.2384932997176,814.78424806129
2019-04-23 00:00:00+01:00,26.2248797107998,793.556456923958
2019-04-24 00:00:00+01:00,26.787427397017,781.805066190014
2019-04-25 00:00:00+01:00,24.9784090952277,767.351735747302
2019-04-26 00:00:00+01:00,23.6714672311162,754.288381401499
2019-04-27 00:00:00+01:00,21.6082066439235,747.162640177465
2019-04-28 00:00:00+01:00,20.1114028548394,733.865142082721
2019-04-29 00:00:00+01:00,18.2092007406303,730.73986795992
2019-04-30 00:00:00+01:00,16.3001107583143,727.228643793212
2019-05-01 00:00:00+01:00,14.3471776508683,727.475698312916
2019-05-02 00:00:00+01:00,11.6717297392135,728.092071856373
2019-05-03 00:00:00+01:00,10.2439733224819,737.380034146109
2019-05-04 00:00:00+01:00,9.5328620550526,744.553958914854
2019-05-05 00:00:00+01:00,8.79623805348982,745.35753739092
2019-05-06 00:00:00+01:00,8.11755341163207,744.976649560144
2019-05-07 00:00:00+01:00,8.14811943431985,735.08022804274
2019-05-08 00:00:00+01:00,8.72106607030858,733.350508004963
2019-05-09 00:00:00+01:00,9.11019497519827,724.566734648421
2019-05-10 00:00:00+01:00,10.2377793620998,701.650665012571
2019-05-11 00:00:00+01:00,13.4054752885591,679.658455782006
2019-05-12 00:00:00+01:00,18.4296426452591,673.322251984738
2019-05-13 00:00:00+01:00,20.3487004231902,667.115050694427
2019-05-14 00:00:00+01:00,18.5591106262038,661.447623058216
2019-05-15 00:00:00+01:00,16.8393662137159,654.772159629335
2019-05-16 00:00:00+01:00,16.0463252778009,642.77384790766
2019-05-17 00:00:00+01:00,16.5794907828563,626.866386958122
2019-05-18 00:00:00+01:00,18.105862552379,606.806641218979
2019-05-19 00:00:00+01:00,20.2305892954234,583.941198904064
2019-05-20 00:00:00+01:00,22.4543907857623,558.935230086797
2019-05-21 00:00:00+01:00,23.4149949932738,541.230884867353
2019-05-22 00:00:00+01:00,22.5050669560641,529.443251422344
2019-05-23 00:00:00+01:00,20.6104057320015,521.037233704873
2019-05-24 00:00:00+01:00,18.9894473850129,510.450071038686
2019-05-25 00:00:00+01:00,17.1635986045265,505.495663772522
2019-05-26 00:00:00+01:00,16.1730631121982,499.873665437661
2019-05-27 00:00:00+01:00,15.6454280412822,491.798897660259
2019-05-28 00:00:00+01:00,16.1575612526195,475.556901307408
2019-05-29 00:00:00+01:00,20.0540208654521,460.935970619087
2019-05-30 00:00:00+01:00,21.8542376873843,452.606859227002
2019-05-31 00:00:00+01:00,20.2253176443492,443.8100156931
2019-06-01 00:00:00+01:00,19.5253085968991,436.869060589749
2019-06-02 00:00:00+01:00,18.6907816402329,429.843938877474
2019-06-03 00:00:00+01:00,17.7422995353976,416.994035007201
2019-06-04 00:00:00+01:00,17.8219249518951,403.304869666495
2019-06-05 00:00:00+01:00,19.1358980756723,385.623423641962
2019-06-06 00:00:00+01:00,20.5172741548794,366.809620360629
2019-06-07 00:00:00+01:00,22.2641107603685,344.868432803386
2019-06-08 00:00:00+01:00,24.1767106059128,331.788562012141
2019-06-09 00:00:00+01:00,23.9988946393408,319.618142414066
2019-06-10 00:00:00+01:00,21.5702022818422,314.399004702553
2019-06-11 00:00:00+01:00,18.7494027242899,308.909067124947
2019-06-12 00:00:00+01:00,16.7944646041279,300.689606123662
2019-06-13 00:00:00+01:00,15.9475676239586,288.746630376157
2019-06-14 00:00:00+01:00,15.4171731464527,278.497497173714
2019-06-15 00:00:00+01:00,14.9325163170837,267.339420103643
2019-06-16 00:00:00+01:00,14.2675078420032,258.940401241587
2019-06-17 00:00:00+01:00,13.689648504954,248.269130783638
2019-06-18 00:00:00+01:00,14.0093347636822,239.641545295386
2019-06-19 00:00:00+01:00,13.9867623836204,232.401396968197
2019-06-20 00:00:00+01:00,13.5088626438243,222.022649649565
2019-06-21 00:00:00+01:00,14.328358625054,212.27741650281
2019-06-22 00:00:00+01:00,21.3432114746547,206.228520337832
2019-06-23 00:00:00+01:00,25.6312717733105,200.075391459781
2019-06-24 00:00:00+01:00,23.6424481130587,193.295563388217
2019-06-25 00:00:00+01:00,21.4114208092975,186.707840362601
2019-06-26 00:00:00+01:00,19.6307377803459,180.691368698971
2019-06-27 00:00:00+01:00,18.6915584389589,176.947232890919
2019-06-28 00:00:00+01:00,19.3160886988119,172.181523777462
2019-06-29 00:00:00+01:00,21.0568731123783,169.544506881369
2019-06-30 00:00:00+01:00,20.2146896207607,165.244676058445
2019-07-01 00:00:00+01:00,19.1690282549417,161.088263960438
2019-07-02 00:00:00+01:00,18.017446818804,157.714471267825
2019-07-03 00:00:00+01:00,15.7774231295904,152.548751739037
2019-07-04 00:00:00+01:00,13.950804801686,148.830606034324
2019-07-05 00:00:00+01:00,12.8002837678145,143.06101370507
2019-07-06 00:00:00+01:00,11.9051612323055,139.290770743951
2019-07-07 00:00:00+01:00,11.1356526095657,131.262916896602
2019-07-08 00:00:00+01:00,10.6732803630289,123.931209031264
2019-07-09 00:00:00+01:00,10.3541887399244,117.501905389555
2019-07-10 00:00:00+01:00,9.97301076601028,112.232104580089
2019-07-11 00:00:00+01:00,9.55363850072682,107.390780009838
2019-07-12 00:00:00+01:00,9.07261292585752,103.972203342992
2019-07-13 00:00:00+01:00,8.57723398254443,100.175291427997
2019-07-14 00:00:00+01:00,8.06886035754958,97.8510748499124
2019-07-15 00:00:00+01:00,7.5326940191246,95.7961764766321
2019-07-16 00:00:00+01:00,7.02600273403376,93.931591734346
2019-07-17 00:00:00+01:00,6.5968793441278,91.5559093435305
2019-07-18 00:00:00+01:00,6.28897274235933,87.5054713738179
2019-07-19 00:00:00+01:00,6.11141693669364,82.0553513391127
2019-07-20 00:00:00+01:00,6.04634804710586,76.5180798397038
2019-07-21 00:00:00+01:00,6.02791885491517,70.789749083699
2019-07-22 00:00:00+01:00,6.00794305915013,65.6494781136292
2019-07-23 00:00:00+01:00,5.91418745869446,60.7977560295962
2019-07-24 00:00:00+01:00,5.76389919179247,56.7815367967917
2019-07-25 00:00:00+01:00,5.60581106878399,52.5587811388373
2019-07-26 00:00:00+01:00,5.39090855851713,48.9368810700217
2019-07-27 00:00:00+01:00,5.1133490110756,46.2594229545112
2019-07-28 00:00:00+01:00,4.81908527331007,43.7535859233508
2019-07-29 00:00:00+01:00,4.50278979365151,42.422146442781
2019-07-30 00:00:00+01:00,4.16849719375034,41.3180781071691
2019-07-31 00:00:00+01:00,3.88059565206053,39.7963022272907
2019-08-01 00:00:00+01:00,3.6940996003426,38.5065065711574
2019-08-02 00:00:00+01:00,3.57130476207347,37.3755251530692
2019-08-03 00:00:00+01:00,3.45091795754629,36.2102799241203
2019-08-04 00:00:00+01:00,3.33022540593772,35.4007316645633
2019-08-05 00:00:00+01:00,3.2060010434342,34.8776804003866
2019-08-06 00:00:00+01:00,3.08579684358645,34.1185258200591
2019-08-07 00:00:00+01:00,2.972742053531,33.3196816350849
2019-08-08 00:00:00+01:00,2.86442999302269,32.4778357685258
2019-08-09 00:00:00+01:00,2.77216298791263,31.153672453425
2019-08-10 00:00:00+01:00,2.68573373788028,29.9744797485023
2019-08-11 00:00:00+01:00,2.60806675357137,28.270568639921
2019-08-12 00:00:00+01:00,2.54907824851958,26.1749015940433
2019-08-13 00:00:00+01:00,2.48770560654532,24.496005976017
2019-08-14 00:00:00+01:00,2.42627954917057,23.0526922175787
2019-08-15 00:00:00+01:00,2.44850333161578,22.1371624262926
2019-08-16 00:00:00+01:00,2.49502525008347,21.1823486623365
2019-08-17 00:00:00+01:00,2.50241682969977,19.9484015793483
2019-08-18 00:00:00+01:00,2.58066488929248,18.4806982027543
2019-08-19 00:00:00+01:00,2.92185578440862,17.5191188619774
2019-08-20 00:00:00+01:00,3.14306010598702,16.7401499211843
2019-08-21 00:00:00+01:00,3.20281705565867,16.0354966243919
2019-08-22 00:00:00+01:00,3.22938413203327,15.7790254696403
2019-08-23 00:00:00+01:00,3.15979035085257,15.2867022428016
2019-08-24 00:00:00+01:00,3.09942657499455,15.1478142725275
2019-08-25 00:00:00+01:00,3.76302549465571,14.8708314324936
2019-08-26 00:00:00+01:00,4.82172695437215,14.258545895175
2019-08-27 00:00:00+01:00,4.65134593996174,13.3560063966354
2019-08-28 00:00:00+01:00,4.32679155624922,12.4756390592253
2019-08-29 00:00:00+01:00,4.40082777021527,11.4780298178013
2019-08-30 00:00:00+01:00,5.28601901319534,10.8747141595195
2019-08-31 00:00:00+01:00,5.84675726181515,10.3557737529903
2019-09-01 00:00:00+01:00,6.71326280231388,9.34245592351591
2019-09-02 00:00:00+01:00,7.52072875873897,8.74650300760018
2019-09-03 00:00:00+01:00,7.17982470841877,8.27536299947211
2019-09-04 00:00:00+01:00,6.97945020395755,7.86367840043766
2019-09-05 00:00:00+01:00,6.95090969925904,7.60088527722817
2019-09-06 00:00:00+01:00,7.40405719838504,7.39311047288048
2019-09-07 00:00:00+01:00,7.85027061813716,7.22086770679538
2019-09-08 00:00:00+01:00,7.5302088982948,7.08194968029609
2019-09-09 00:00:00+01:00,6.95650259047671,6.81040769456013
2019-09-10 00:00:00+01:00,6.52945568978535,6.51395988637499
2019-09-11 00:00:00+01:00,6.42963363707518,6.00594957309774
2019-09-12 00:00:00+01:00,7.0754738883031,5.65171566592552
2019-09-13 00:00:00+01:00,7.82263031716279,5.47317940070495
2019-09-14 00:00:00+01:00,7.74814105313914,5.39683743673876
2019-09-15 00:00:00+01:00,7.20296162108724,5.3136293692795
2019-09-16 00:00:00+01:00,6.59020354367202,5.26921155879233
2019-09-17 00:00:00+01:00,6.21322067188087,5.1647281964232
2019-09-18 00:00:00+01:00,7.11545260364135,5.11792027985552
2019-09-19 00:00:00+01:00,8.45400252788255,5.10621795843036
2019-09-20 00:00:00+01:00,9.16021395958735,5.06488837111635
2019-09-21 00:00:00+01:00,10.9443726805519,5.0650120894366
2019-09-22 00:00:00+01:00,11.9069381050828,5.0651501435993
2019-09-23 00:00:00+01:00,10.3330895311352,5.06515014359931
2019-09-24 00:00:00+01:00,9.50965829865844,5.09547522339746
2019-09-25 00:00:00+01:00,9.00022574587722,4.90771878793242
2019-09-26 00:00:00+01:00,8.5138613134214,4.63186300273518
2019-09-27 00:00:00+01:00,7.84263583763709,0.530119926124148
2019-09-28 00:00:00+01:00,7.51863156649522,0.468380540537139
2019-09-29 00:00:00+01:00,7.19943311314172,0.367469179604127
2019-09-30 00:00:00+01:00,6.71523326688956,0.32531578169012
2019-10-01 00:00:00+01:00,6.26605759251196,0.0
2019-10-02 00:00:00+01:00,5.74227501598959,0.0
2019-10-03 00:00:00+01:00,5.2583748000664,0.0
2019-10-04 00:00:00+01:00,5.16755308849156,0.0
2019-10-05 00:00:00+01:00,5.98548298452434,0.0
2019-10-06 00:00:00+01:00,7.64467301183603,0.0
2019-10-07 00:00:00+01:00,8.20056569292715,0.0
2019-10-08 00:00:00+01:00,7.52003255930211,0.000437254410147901
2019-10-09 00:00:00+01:00,6.88947000404153,0.131184644879415
2019-10-10 00:00:00+01:00,6.31163601097623,0.148863784777214
2019-10-11 00:00:00+01:00,5.77448328104091,0.162992637103648
2019-10-12 00:00:00+01:00,5.28289124486168,0.162992637103648
2019-10-13 00:00:00+01:00,4.8330289900407,0.162992637103648
2019-10-14 00:00:00+01:00,4.42172184576579,0.186721987731045
2019-10-15 00:00:00+01:00,4.04553563576074,0.1984960313364
2019-10-16 00:00:00+01:00,3.74357566416731,0.519927421762699
2019-10-17 00:00:00+01:00,3.59153201351152,0.544599359218763
2019-10-18 00:00:00+01:00,3.47128885978779,4.21064029588424
2019-10-19 00:00:00+01:00,3.35613213254432,4.67480520583551
2019-10-20 00:00:00+01:00,3.26554829869126,12.3891585760667
2019-10-21 00:00:00+01:00,3.19250440715022,16.5501055862005
2019-10-22 00:00:00+01:00,3.23159643261767,18.199807334943
2019-10-23 00:00:00+01:00,3.40423756483326,15.885652813731
2019-10-24 00:00:00+01:00,3.45863177473737,30.5452581262438
2019-10-25 00:00:00+01:00,3.41512393733614,31.3395683928116
2019-10-26 00:00:00+01:00,3.32993606188945,31.3856189413025
2019-10-27 00:00:00+01:00,3.22403759684044,35.9664577815124
2019-10-28 00:00:00+01:00,3.17800173940298,48.446356356326
2019-10-29 00:00:00+01:00,3.12046570734654,50.8977122349615
2019-10-30 00:00:00+01:00,3.0188311035759,52.4872081216849
2019-10-31 00:00:00+01:00,3.00846320851949,73.6734221851678
2019-11-01 00:00:00+01:00,3.03918775305146,85.826001292439
2019-11-02 00:00:00+01:00,3.09979044410171,112.868398455709
2019-11-03 00:00:00+01:00,3.13842790858114,122.158800949253
2019-11-04 00:00:00+01:00,3.12122232368934,135.864411037611
2019-11-05 00:00:00+01:00,3.07854927951949,139.935286614164
2019-11-06 00:00:00+01:00,2.97804829004863,139.952947679572
2019-11-07 00:00:00+01:00,2.86421448557486,139.952947679572
2019-11-08 00:00:00+01:00,2.75490633058781,140.005930875796
2019-11-09 00:00:00+01:00,2.64975652594847,140.005930875796
2019-11-10 00:00:00+01:00,2.54840516571854,140.005930875796
2019-11-11 00:00:00+01:00,2.45093042458135,140.005930875796
2019-11-12 00:00:00+01:00,2.35942328999008,140.488077961436
2019-11-12 14:09:00+01:00,,140.488077961436
