,q,s
2018-09-01 00:00:00+01:00,85.3152867592848,0.0
2018-09-02 00:00:00+01:00,84.5507513898455,0.0
2018-09-03 00:00:00+01:00,83.813413571951,0.0
2018-09-04 00:00:00+01:00,83.3524251546154,0.0
2018-09-05 00:00:00+01:00,82.8555426305104,0.0
2018-09-06 00:00:00+01:00,82.1130497514342,0.0
2018-09-07 00:00:00+01:00,81.477760593132,0.0
2018-09-08 00:00:00+01:00,80.8394409517562,0.0
2018-09-09 00:00:00+01:00,80.1150149526068,0.0
2018-09-10 00:00:00+01:00,79.3970807478347,0.0
2018-09-11 00:00:00+01:00,78.9139585623547,0.0
2018-09-12 00:00:00+01:00,78.5114997361404,0.0
2018-09-13 00:00:00+01:00,77.8945275671215,0.0
2018-09-14 00:00:00+01:00,77.301530357049,0.0
2018-09-15 00:00:00+01:00,85.121557120751,0.0
2018-09-16 00:00:00+01:00,91.7763225733764,0.0
2018-09-17 00:00:00+01:00,86.3052993871253,0.0
2018-09-18 00:00:00+01:00,79.8220485672426,0.0
2018-09-19 00:00:00+01:00,80.9148072413838,0.0
2018-09-20 00:00:00+01:00,89.5845777806135,0.0
2018-09-21 00:00:00+01:00,95.7448489828664,0.0
2018-09-22 00:00:00+01:00,106.63742047648,0.0
2018-09-23 00:00:00+01:00,125.031602406888,0.0
2018-09-24 00:00:00+01:00,129.106894136517,0.0
2018-09-25 00:00:00+01:00,122.501363599872,0.141885084796485
2018-09-26 00:00:00+01:00,123.376300799621,0.885772860408066
2018-09-27 00:00:00+01:00,123.884191006453,0.932466636240347
2018-09-28 00:00:00+01:00,225.768422048752,0.453229671485423
2018-09-29 00:00:00+01:00,211.93861608454,0.632642169930556
2018-09-30 00:00:00+01:00,200.932775788158,0.439052723214182
2018-10-01 00:00:00+01:00,190.338773139052,0.315473414529091
2018-10-02 00:00:00+01:00,179.10073412568,0.402438611345068
2018-10-03 00:00:00+01:00,168.220514998552,0.590166944324081
2018-10-04 00:00:00+01:00,157.956419720408,0.91648884610634
2018-10-05 00:00:00+01:00,148.69153022536,5.26197042516622
2018-10-06 00:00:00+01:00,139.853667424989,5.59496671424671
2018-10-07 00:00:00+01:00,130.70533138542,5.63850125439368
2018-10-08 00:00:00+01:00,122.072377880961,6.03133906225663
2018-10-09 00:00:00+01:00,113.951450356068,6.30730653210217
2018-10-10 00:00:00+01:00,106.755657999406,6.77130664570008
2018-10-11 00:00:00+01:00,99.8920947961396,6.77738100515115
2018-10-12 00:00:00+01:00,96.6778103279053,7.09922955789919
2018-10-13 00:00:00+01:00,122.25441973701,0.844013318655854
2018-10-14 00:00:00+01:00,162.724704788581,0.406541581121019
2018-10-15 00:00:00+01:00,187.382870959672,0.0
2018-10-16 00:00:00+01:00,178.720725624921,0.0080727073073872
2018-10-17 00:00:00+01:00,167.636283158884,0.0227362755166682
2018-10-18 00:00:00+01:00,157.270817027734,0.130821636759543
2018-10-19 00:00:00+01:00,147.446217417672,0.33110763050407
2018-10-20 00:00:00+01:00,138.429463232594,2.3845858289857
2018-10-21 00:00:00+01:00,138.775764427101,0.731512448581498
2018-10-22 00:00:00+01:00,136.401379947187,0.848849733523189
2018-10-23 00:00:00+01:00,127.626580031231,1.07684067257547
2018-10-24 00:00:00+01:00,119.453292481712,1.82407117511928
2018-10-25 00:00:00+01:00,112.022041583605,3.57304038605117
2018-10-26 00:00:00+01:00,104.902672331685,3.9547219677239
2018-10-27 00:00:00+01:00,100.782852237249,4.78515776200546
2018-10-28 00:00:00+01:00,99.9157666745651,5.09854466368103
2018-10-29 00:00:00+01:00,99.0372070201457,5.30222646449855
2018-10-30 00:00:00+01:00,98.2282967847906,7.41091411630052
2018-10-31 00:00:00+01:00,97.5835580320541,12.3556806176718
2018-11-01 00:00:00+01:00,96.8849810200132,12.9577953062526
2018-11-02 00:00:00+01:00,96.061367112211,13.7082231650763
2018-11-03 00:00:00+01:00,95.3093044626518,16.196922380365
2018-11-04 00:00:00+01:00,94.639869996626,19.307779800709
2018-11-05 00:00:00+01:00,93.9105975374681,19.9249840049598
2018-11-06 00:00:00+01:00,93.0918476794293,20.0251155148314
2018-11-07 00:00:00+01:00,92.2721999506425,20.3590007839961
2018-11-08 00:00:00+01:00,91.4670126558577,20.6863032073989
2018-11-09 00:00:00+01:00,90.6627316410942,20.8353619038858
2018-11-10 00:00:00+01:00,89.9072561214967,20.7174249089842
2018-11-11 00:00:00+01:00,89.7816378646554,20.0453618758099
2018-11-12 00:00:00+01:00,100.652846575149,17.2189492459126
2018-11-13 00:00:00+01:00,112.629803295137,17.4709401796121
2018-11-14 00:00:00+01:00,105.224580194568,19.1474954819844
2018-11-15 00:00:00+01:00,99.3907371093593,19.3649446047865
2018-11-16 00:00:00+01:00,104.060207295371,16.7392327561558
2018-11-17 00:00:00+01:00,152.292579278621,7.7378113620234
2018-11-18 00:00:00+01:00,173.7629265197,8.05593006437666
2018-11-19 00:00:00+01:00,162.739616280006,8.22335038987107
2018-11-20 00:00:00+01:00,152.991033729953,8.17184560655574
2018-11-21 00:00:00+01:00,143.690690860802,8.16667981528602
2018-11-22 00:00:00+01:00,135.429981736415,8.83551008320395
2018-11-23 00:00:00+01:00,129.391379135593,19.1022985218618
2018-11-24 00:00:00+01:00,122.930920602146,20.8753026244829
2018-11-25 00:00:00+01:00,115.741189309363,24.9550215286159
2018-11-26 00:00:00+01:00,108.996339180957,27.1981774603598
2018-11-27 00:00:00+01:00,101.840449978599,27.2335332524037
2018-11-28 00:00:00+01:00,96.3822756224705,27.3735819472998
2018-11-29 00:00:00+01:00,95.3418016012621,27.8775770348316
2018-11-30 00:00:00+01:00,94.5288860729849,28.6265679138172
2018-12-01 00:00:00+01:00,94.8516808807519,28.244286921989
2018-12-02 00:00:00+01:00,94.5177805636118,28.5375448854076
2018-12-03 00:00:00+01:00,93.4089438870539,29.5110343200284
2018-12-04 00:00:00+01:00,92.6387364969046,30.5709009485555
2018-12-05 00:00:00+01:00,92.1012439142735,38.1471317653622
2018-12-06 00:00:00+01:00,91.5268540684863,38.5278808357634
2018-12-07 00:00:00+01:00,90.7456350094718,39.3171781952337
2018-12-08 00:00:00+01:00,89.9761298750447,39.8694013244497
2018-12-09 00:00:00+01:00,89.3993191426228,46.0659305385511
2018-12-10 00:00:00+01:00,88.8179802234237,46.8020200695987
2018-12-11 00:00:00+01:00,88.0782223285741,47.767360890944
2018-12-12 00:00:00+01:00,87.3201507403736,47.7938847998631
2018-12-13 00:00:00+01:00,86.5396005452227,47.826551414675
2018-12-14 00:00:00+01:00,85.7711411325771,48.0024301118095
2018-12-15 00:00:00+01:00,85.0189399149218,48.3206823734834
2018-12-16 00:00:00+01:00,84.2733892054181,48.5057091793001
2018-12-17 00:00:00+01:00,83.5501634414547,49.2698653846587
2018-12-18 00:00:00+01:00,82.8340315533153,49.5207188353214
2018-12-19 00:00:00+01:00,82.0996302233657,49.5213346734819
2018-12-20 00:00:00+01:00,81.3644167864877,49.5355342399953
2018-12-21 00:00:00+01:00,80.6390184864412,49.6315196620107
2018-12-22 00:00:00+01:00,79.9257210293039,49.816063486673
2018-12-23 00:00:00+01:00,79.2263121832128,50.1383385190461
2018-12-24 00:00:00+01:00,78.5365352384618,50.4325455819709
2018-12-25 00:00:00+01:00,77.9160775006935,52.5966451293712
2018-12-26 00:00:00+01:00,77.3040633797844,53.1298203739822
2018-12-27 00:00:00+01:00,76.6388338733334,53.4444316959684
2018-12-28 00:00:00+01:00,75.9651095604506,53.5372814138187
2018-12-29 00:00:00+01:00,75.3312018559426,54.8201705232363
2018-12-30 00:00:00+01:00,74.7503490581312,56.3952229489009
2018-12-31 00:00:00+01:00,74.167030964248,57.4782490084367
2019-01-01 00:00:00+01:00,73.7294986113806,63.1180481664492
2019-01-02 00:00:00+01:00,73.2573763086364,63.4533441821366
2019-01-03 00:00:00+01:00,72.7342736128237,67.0415383903942
2019-01-04 00:00:00+01:00,72.195162562854,67.0415383903942
2019-01-05 00:00:00+01:00,71.5491395823219,67.0689678003384
2019-01-06 00:00:00+01:00,70.9969112037106,68.0114190493922
2019-01-07 00:00:00+01:00,70.5482747227759,68.0181257279195
2019-01-08 00:00:00+01:00,69.9190877646245,68.1000916676979
2019-01-09 00:00:00+01:00,69.3267755197197,69.0253863453916
2019-01-10 00:00:00+01:00,69.0025537184543,76.8525593614016
2019-01-11 00:00:00+01:00,68.789313571806,81.5057455108556
2019-01-12 00:00:00+01:00,68.3706428695404,83.0141710738462
2019-01-13 00:00:00+01:00,67.8356289086931,83.8993414619582
2019-01-14 00:00:00+01:00,67.2765944531831,84.5145557053422
2019-01-15 00:00:00+01:00,66.7208279261085,85.3265121861482
2019-01-16 00:00:00+01:00,66.2705056488771,88.8923807613175
2019-01-17 00:00:00+01:00,65.8938254268642,91.9653273537924
2019-01-18 00:00:00+01:00,65.4398390182189,93.1338320953904
2019-01-19 00:00:00+01:00,64.8973200170595,93.3444643783329
2019-01-20 00:00:00+01:00,64.3444480305231,93.9893055248734
2019-01-21 00:00:00+01:00,63.8178732084732,94.8592546112517
2019-01-22 00:00:00+01:00,63.295026485269,95.4937885165233
2019-01-23 00:00:00+01:00,62.7542687800646,95.6842553932218
2019-01-24 00:00:00+01:00,62.2109484879574,96.0656513058587
2019-01-25 00:00:00+01:00,61.6903996281908,96.7948216506247
2019-01-26 00:00:00+01:00,61.166751371901,96.9782199107651
2019-01-27 00:00:00+01:00,60.6549075845363,97.869950209097
2019-01-28 00:00:00+01:00,60.1453997527597,98.0462248874156
2019-01-29 00:00:00+01:00,59.6479104902281,99.0964273747942
2019-01-30 00:00:00+01:00,59.188581320926,100.329399826195
2019-01-31 00:00:00+01:00,58.701246807677,100.456514431306
2019-02-01 00:00:00+01:00,58.1984439316498,101.018609543994
2019-02-02 00:00:00+01:00,57.7041245812509,101.297905040381
2019-02-03 00:00:00+01:00,57.2045511832659,101.553750208718
2019-02-04 00:00:00+01:00,56.7281620598702,102.377516742794
2019-02-05 00:00:00+01:00,56.3216938661751,104.597936611865
2019-02-06 00:00:00+01:00,55.9346119538389,105.997134059941
2019-02-07 00:00:00+01:00,55.4884428274459,106.322442633358
2019-02-08 00:00:00+01:00,55.0015192163677,106.325620041594
2019-02-09 00:00:00+01:00,54.5320905283405,107.007816912079
2019-02-10 00:00:00+01:00,54.1285733673286,108.86947736949
2019-02-11 00:00:00+01:00,53.7516009242715,110.318989028645
2019-02-12 00:00:00+01:00,53.3246517080154,110.588137745807
2019-02-13 00:00:00+01:00,52.8629808737051,110.814058044823
2019-02-14 00:00:00+01:00,52.7696167427981,121.716380562998
2019-02-15 00:00:00+01:00,52.7837352966699,125.940785683253
2019-02-16 00:00:00+01:00,52.61268724617,130.885771589095
2019-02-17 00:00:00+01:00,52.3471940306646,132.366461693674
2019-02-18 00:00:00+01:00,52.0783438968965,136.857213596608
2019-02-19 00:00:00+01:00,51.9121703361198,141.515638223162
2019-02-20 00:00:00+01:00,51.6902491464567,144.348481140463
2019-02-21 00:00:00+01:00,51.3256902634921,144.631544466984
2019-02-22 00:00:00+01:00,50.9823973990752,147.779098432334
2019-02-23 00:00:00+01:00,50.6243736241543,147.779098432334
2019-02-24 00:00:00+01:00,50.2370692010432,147.594407599159
2019-02-25 00:00:00+01:00,50.0584334715199,150.340174355645
2019-02-26 00:00:00+01:00,49.7186348120833,150.999192920189
2019-02-27 00:00:00+01:00,49.4604674062671,155.867632718404
2019-02-28 00:00:00+01:00,49.1701240778909,155.867632718404
2019-03-01 00:00:00+01:00,48.7644415262824,156.888325987308
2019-03-02 00:00:00+01:00,48.3683757116897,157.147498182738
2019-03-03 00:00:00+01:00,47.9506140203159,157.36780451237
2019-03-04 00:00:00+01:00,47.6785485756912,161.769944803377
2019-03-05 00:00:00+01:00,47.4044046651022,162.204405557447
2019-03-06 00:00:00+01:00,47.1069472998766,165.525493973043
2019-03-07 00:00:00+01:00,46.8254362563712,166.586748499423
2019-03-08 00:00:00+01:00,46.4478663321588,166.841426281218
2019-03-09 00:00:00+01:00,46.0613740847215,167.476499417438
2019-03-10 00:00:00+01:00,45.6701051903081,167.521978071796
2019-03-11 00:00:00+01:00,45.264407543135,167.584407787191
2019-03-12 00:00:00+01:00,44.8684791890753,167.810444338114
2019-03-13 00:00:00+01:00,44.4738202852071,167.819860273178
2019-03-14 00:00:00+01:00,44.1339353690434,169.524522381713
2019-03-15 00:00:00+01:00,43.8283683031694,170.587632343598
2019-03-16 00:00:00+01:00,43.4834298573098,171.009252856191
2019-03-17 00:00:00+01:00,43.1173628650068,171.311862265696
2019-03-18 00:00:00+01:00,42.7718710194676,172.228781954747
2019-03-19 00:00:00+01:00,42.4292793449854,172.576508167639
2019-03-20 00:00:00+01:00,42.1704891943059,175.804347210809
2019-03-21 00:00:00+01:00,41.9137542538551,176.382714027933
2019-03-22 00:00:00+01:00,41.5671458907013,176.699048642355
2019-03-23 00:00:00+01:00,41.2132004459436,176.950704806504
2019-03-24 00:00:00+01:00,40.881002936198,177.804262798924
2019-03-25 00:00:00+01:00,40.5564720635056,178.242708676908
2019-03-26 00:00:00+01:00,40.2224202285745,178.698878983341
2019-03-27 00:00:00+01:00,39.9053331117935,179.546865296228
2019-03-28 00:00:00+01:00,39.6006215239125,180.31393283143
2019-03-29 00:00:00+01:00,39.2778919282961,180.549191972354
2019-03-30 00:00:00+01:00,39.0175361848691,183.009606916744
2019-03-31 00:00:00+01:00,38.8206929984577,185.215955836391
2019-04-01 00:00:00+01:00,38.5420966199283,185.215955836391
2019-04-02 00:00:00+01:00,38.2036958782504,185.420013903487
2019-04-03 00:00:00+01:00,37.9178939913821,186.88464678937
2019-04-04 00:00:00+01:00,37.625644644279,186.929899890803
2019-04-05 00:00:00+01:00,37.289891289372,186.929899890803
2019-04-06 00:00:00+01:00,36.9557256093842,186.929899890803
2019-04-07 00:00:00+01:00,36.6496710328817,187.663510014393
2019-04-08 00:00:00+01:00,36.344280542669,187.663510014393
2019-04-09 00:00:00+01:00,36.0222098353119,187.769275292083
2019-04-10 00:00:00+01:00,35.7027256304432,187.769275292083
2019-04-11 00:00:00+01:00,35.3850908582848,187.836683520135
2019-04-12 00:00:00+01:00,35.0701115150322,187.836683520135
2019-04-13 00:00:00+01:00,34.7935070920067,187.746739270864
2019-04-14 00:00:00+01:00,34.918553680374,187.105861580659
2019-04-15 00:00:00+01:00,37.4712540950631,185.620998977346
2019-04-16 00:00:00+01:00,38.3221106889419,185.620998977346
2019-04-17 00:00:00+01:00,36.942329249696,184.971514661974
2019-04-18 00:00:00+01:00,37.0750848256342,185.016379087331
2019-04-19 00:00:00+01:00,37.7320510533878,184.045249138799
2019-04-20 00:00:00+01:00,83.3406702357854,171.695961137725
2019-04-21 00:00:00+01:00,186.95371145787,157.116947525336
2019-04-22 00:00:00+01:00,274.776446900528,148.120089689792
2019-04-23 00:00:00+01:00,415.535389039557,129.742512551531
2019-04-24 00:00:00+01:00,715.230544250228,113.546366684142
2019-04-25 00:00:00+01:00,955.552368278245,98.6661073362224
2019-04-26 00:00:00+01:00,1141.7389223588,84.5434488612472
2019-04-27 00:00:00+01:00,1134.59169467918,83.343342457812
2019-04-28 00:00:00+01:00,1044.38361433363,78.0382875383618
2019-04-29 00:00:00+01:00,968.030016377906,75.9132297024284
2019-04-30 00:00:00+01:00,878.317499763113,74.9510365057451
2019-05-01 00:00:00+01:00,774.583102162219,75.1413257432174
2019-05-02 00:00:00+01:00,655.326848071619,75.735328867374
2019-05-03 00:00:00+01:00,553.677229643358,77.6109503265124
2019-05-04 00:00:00+01:00,465.901489662813,77.6487938698055
2019-05-05 00:00:00+01:00,392.127940607622,78.6817571530635
2019-05-06 00:00:00+01:00,357.479218905845,78.6817571530636
2019-05-07 00:00:00+01:00,357.530218703743,74.5096716844546
2019-05-08 00:00:00+01:00,416.032068199646,77.5260099425522
2019-05-09 00:00:00+01:00,480.161474095971,72.6281715037604
2019-05-10 00:00:00+01:00,623.210967206197,60.4045025390563
2019-05-11 00:00:00+01:00,766.091843207106,52.2508096620121
2019-05-12 00:00:00+01:00,890.071917562837,49.1377077758635
2019-05-13 00:00:00+01:00,910.022837768902,47.1110474370148
2019-05-14 00:00:00+01:00,824.452419864877,44.5466461264519
2019-05-15 00:00:00+01:00,758.224572668957,41.9947594326729
2019-05-16 00:00:00+01:00,709.921353981002,38.6573829580019
2019-05-17 00:00:00+01:00,694.196406061799,33.9307496548814
2019-05-18 00:00:00+01:00,718.959078507026,27.6751338902466
2019-05-19 00:00:00+01:00,744.800811442868,22.2670293839879
2019-05-20 00:00:00+01:00,758.609276921218,16.6629468625957
2019-05-21 00:00:00+01:00,727.752895161163,14.9401055840342
2019-05-22 00:00:00+01:00,641.426337397931,14.7808511345654
2019-05-23 00:00:00+01:00,545.338338214114,14.6294292204444
2019-05-24 00:00:00+01:00,475.361413825073,13.5113037645265
2019-05-25 00:00:00+01:00,439.81495361804,12.8514365476836
2019-05-26 00:00:00+01:00,418.234669328625,12.1628725701485
2019-05-27 00:00:00+01:00,398.79347023139,10.8735095026494
2019-05-28 00:00:00+01:00,391.067586370957,8.70167510814157
2019-05-29 00:00:00+01:00,466.944632948473,6.96360802466328
2019-05-30 00:00:00+01:00,768.830668078976,6.31755106950935
2019-05-31 00:00:00+01:00,1059.88317113962,5.88247599464555
2019-06-01 00:00:00+01:00,1057.67492743723,5.38898447280876
2019-06-02 00:00:00+01:00,918.072269100647,4.8039035847034
2019-06-03 00:00:00+01:00,792.446869337493,4.31994133137266
2019-06-04 00:00:00+01:00,744.235380882783,3.04738950809094
2019-06-05 00:00:00+01:00,704.021871115427,1.65060306663368
2019-06-06 00:00:00+01:00,617.522971278475,0.712058581125841
2019-06-07 00:00:00+01:00,545.6821987817,0.134699142554978
2019-06-08 00:00:00+01:00,480.869563690553,1.69035328174911e-07
2019-06-09 00:00:00+01:00,551.921070010923,1.69035328174911e-07
2019-06-10 00:00:00+01:00,673.177706610624,0.497773199386941
2019-06-11 00:00:00+01:00,640.635827366363,0.511420566459986
2019-06-12 00:00:00+01:00,554.39740943568,0.0188370964399577
2019-06-13 00:00:00+01:00,482.764217961448,1.69035328174911e-07
2019-06-14 00:00:00+01:00,416.745373847066,1.69035328174911e-07
2019-06-15 00:00:00+01:00,385.327741022894,1.69035328174911e-07
2019-06-16 00:00:00+01:00,364.772544292662,1.69035328174911e-07
2019-06-17 00:00:00+01:00,345.181332370049,1.69035328174911e-07
2019-06-18 00:00:00+01:00,344.352239765252,1.69035328174911e-07
2019-06-19 00:00:00+01:00,343.167289051782,1.69035328174911e-07
2019-06-20 00:00:00+01:00,325.675811672348,1.69035328174911e-07
2019-06-21 00:00:00+01:00,320.807500424681,1.69035328174911e-07
2019-06-22 00:00:00+01:00,355.075078104892,1.69035328174911e-07
2019-06-23 00:00:00+01:00,377.19403090921,1.69035328174911e-07
2019-06-24 00:00:00+01:00,367.072776338016,1.69035328174911e-07
2019-06-25 00:00:00+01:00,354.585785279274,1.69035328174911e-07
2019-06-26 00:00:00+01:00,336.831457554976,1.69035328174911e-07
2019-06-27 00:00:00+01:00,322.589951987114,1.69035328174911e-07
2019-06-28 00:00:00+01:00,308.427686409584,1.69035328174911e-07
2019-06-29 00:00:00+01:00,298.810480205516,1.69035328174911e-07
2019-06-30 00:00:00+01:00,289.08101716624,1.69035328174911e-07
2019-07-01 00:00:00+01:00,279.825498766461,1.69035328174911e-07
2019-07-02 00:00:00+01:00,276.936638456024,1.69035328174911e-07
2019-07-03 00:00:00+01:00,279.25137170355,1.69035328174911e-07
2019-07-04 00:00:00+01:00,276.900389098603,1.69035328174911e-07
2019-07-05 00:00:00+01:00,267.202506185749,1.69035328174911e-07
2019-07-06 00:00:00+01:00,264.204538854652,1.69035328174911e-07
2019-07-07 00:00:00+01:00,258.015417073928,1.69035328174911e-07
2019-07-08 00:00:00+01:00,244.195867935447,1.69035328174911e-07
2019-07-09 00:00:00+01:00,230.968337205683,1.69035328174911e-07
2019-07-10 00:00:00+01:00,218.345827685394,1.69035328174911e-07
2019-07-11 00:00:00+01:00,206.263781763055,1.69035328174911e-07
2019-07-12 00:00:00+01:00,194.686775013153,1.69035328174911e-07
2019-07-13 00:00:00+01:00,183.691806217379,1.69035328174911e-07
2019-07-14 00:00:00+01:00,174.792609137316,1.69035328174911e-07
2019-07-15 00:00:00+01:00,171.250579895649,1.69035328174911e-07
2019-07-16 00:00:00+01:00,169.278844151285,1.69035328174911e-07
2019-07-17 00:00:00+01:00,164.814364775892,1.69035328174911e-07
2019-07-18 00:00:00+01:00,157.641257181191,1.69035328174911e-07
2019-07-19 00:00:00+01:00,148.660036148915,1.69035328174911e-07
2019-07-20 00:00:00+01:00,138.791194400227,1.69035328174911e-07
2019-07-21 00:00:00+01:00,128.380290019712,1.69035328174911e-07
2019-07-22 00:00:00+01:00,118.443511309269,1.69035328174911e-07
2019-07-23 00:00:00+01:00,109.722128841351,1.69035328174911e-07
2019-07-24 00:00:00+01:00,101.449200147296,1.69035328174911e-07
2019-07-25 00:00:00+01:00,95.6260466767848,1.69035328174911e-07
2019-07-26 00:00:00+01:00,94.6753901309092,1.69035328174911e-07
2019-07-27 00:00:00+01:00,93.8269761230565,1.69035328174911e-07
2019-07-28 00:00:00+01:00,92.9861650025828,1.69035328174911e-07
2019-07-29 00:00:00+01:00,92.1528886377787,1.69035328174911e-07
2019-07-30 00:00:00+01:00,91.3270795074833,1.69035328174911e-07
2019-07-31 00:00:00+01:00,90.5086706956127,1.69035328174911e-07
2019-08-01 00:00:00+01:00,89.6975958857376,1.69035328174911e-07
2019-08-02 00:00:00+01:00,88.8937893557097,1.69035328174911e-07
2019-08-03 00:00:00+01:00,88.0971859723362,1.69035328174911e-07
2019-08-04 00:00:00+01:00,87.307721186102,1.69035328174911e-07
2019-08-05 00:00:00+01:00,86.5253310259394,1.69035328174911e-07
2019-08-06 00:00:00+01:00,85.7499520940438,1.69035328174911e-07
2019-08-07 00:00:00+01:00,84.9815215607374,1.69035328174911e-07
2019-08-08 00:00:00+01:00,84.2199771593775,1.69035328174911e-07
2019-08-09 00:00:00+01:00,83.6654598536709,1.69035328174911e-07
2019-08-10 00:00:00+01:00,83.3586766994092,1.69035328174911e-07
2019-08-11 00:00:00+01:00,82.8513477881067,1.69035328174911e-07
2019-08-12 00:00:00+01:00,82.1088925002467,1.69035328174911e-07
2019-08-13 00:00:00+01:00,81.5912468072227,1.69035328174911e-07
2019-08-14 00:00:00+01:00,81.103138508708,1.69035328174911e-07
2019-08-15 00:00:00+01:00,80.5126692084836,1.69035328174911e-07
2019-08-16 00:00:00+01:00,84.7267385408189,1.69035328174911e-07
2019-08-17 00:00:00+01:00,85.6310026097228,1.69035328174911e-07
2019-08-18 00:00:00+01:00,81.448763043316,1.69035328174911e-07
2019-08-19 00:00:00+01:00,111.64742012131,1.69035328174911e-07
2019-08-20 00:00:00+01:00,144.267451909844,1.69035328174911e-07
2019-08-21 00:00:00+01:00,142.835371004752,1.69035328174911e-07
2019-08-22 00:00:00+01:00,137.414587526497,1.69035328174911e-07
2019-08-23 00:00:00+01:00,138.029196120343,1.69035328174911e-07
2019-08-24 00:00:00+01:00,138.144549836343,1.69035328174911e-07
2019-08-25 00:00:00+01:00,147.53103574192,1.69035328174911e-07
2019-08-26 00:00:00+01:00,160.043237997157,1.69035328174911e-07
2019-08-27 00:00:00+01:00,153.459842654174,1.69035328174911e-07
2019-08-28 00:00:00+01:00,142.340790045989,1.69035328174911e-07
2019-08-29 00:00:00+01:00,131.847961250709,1.69035328174911e-07
2019-08-30 00:00:00+01:00,131.883198270262,1.69035328174911e-07
2019-08-31 00:00:00+01:00,131.084540139555,1.69035328174911e-07
2019-09-01 00:00:00+01:00,121.470253216723,1.69035328174911e-07
2019-09-02 00:00:00+01:00,185.637071367497,1.69035328174911e-07
2019-09-03 00:00:00+01:00,252.133403373655,1.69035328174911e-07
2019-09-04 00:00:00+01:00,238.012067399637,1.69035328174911e-07
2019-09-05 00:00:00+01:00,263.879489674716,1.69035328174911e-07
2019-09-06 00:00:00+01:00,290.50733089571,1.69035328174911e-07
2019-09-07 00:00:00+01:00,277.09359176284,1.69035328174911e-07
2019-09-08 00:00:00+01:00,266.159496555284,1.69035328174911e-07
2019-09-09 00:00:00+01:00,254.956689212052,1.69035328174911e-07
2019-09-10 00:00:00+01:00,238.904590116274,1.69035328174911e-07
2019-09-11 00:00:00+01:00,224.362422140596,1.69035328174911e-07
2019-09-12 00:00:00+01:00,235.808425346973,1.69035328174911e-07
2019-09-13 00:00:00+01:00,244.852063950077,1.69035328174911e-07
2019-09-14 00:00:00+01:00,230.895633396961,1.69035328174911e-07
2019-09-15 00:00:00+01:00,217.575939826632,1.69035328174911e-07
2019-09-16 00:00:00+01:00,210.237535467237,0.13280610149633
2019-09-17 00:00:00+01:00,203.209999924804,1.69035328174911e-07
2019-09-18 00:00:00+01:00,193.452844335627,0.0618170889645741
2019-09-19 00:00:00+01:00,186.298611964216,0.16458682715452
2019-09-20 00:00:00+01:00,176.797505859771,0.159501965136167
2019-09-21 00:00:00+01:00,167.488180739643,0.200870229094311
2019-09-22 00:00:00+01:00,159.371278102447,0.22465991757437
2019-09-23 00:00:00+01:00,151.332566482497,0.335803028561199
2019-09-24 00:00:00+01:00,143.976636804049,0.359522423343943
2019-09-25 00:00:00+01:00,138.259041776961,1.69035328174911e-07
2019-09-26 00:00:00+01:00,130.467884408592,1.69035328174911e-07
2019-09-27 00:00:00+01:00,121.971016700543,1.69035328174911e-07
2019-09-28 00:00:00+01:00,127.578978399744,0.315967341263019
2019-09-29 00:00:00+01:00,140.677331017092,1.56968236152709
2019-09-30 00:00:00+01:00,145.065276087312,2.92822247827342
2019-10-01 00:00:00+01:00,147.493872708056,0.954750539375385
2019-10-02 00:00:00+01:00,143.661555372756,1.02426732919229
2019-10-03 00:00:00+01:00,134.777341361547,1.22384234901937
2019-10-04 00:00:00+01:00,126.275053720733,1.22384234901937
2019-10-05 00:00:00+01:00,118.009852842992,1.22384234901937
2019-10-06 00:00:00+01:00,118.243747930958,0.672784446782951
2019-10-07 00:00:00+01:00,117.251420766966,0.699948456149422
2019-10-08 00:00:00+01:00,111.977912306651,1.0616765647243
2019-10-09 00:00:00+01:00,107.634296441428,1.36453790100916
2019-10-10 00:00:00+01:00,103.459034098316,1.52359574559417
2019-10-11 00:00:00+01:00,101.937561887199,1.5605372701698
2019-10-12 00:00:00+01:00,101.039772481335,1.81163512479494
2019-10-13 00:00:00+01:00,100.147869821867,1.97692680794228
2019-10-14 00:00:00+01:00,99.3775073774351,5.53744958843419
2019-10-15 00:00:00+01:00,98.6120572571929,5.9255617693765
2019-10-16 00:00:00+01:00,97.748911635986,6.1696814482986
2019-10-17 00:00:00+01:00,96.9034770405816,6.83726233489314
2019-10-18 00:00:00+01:00,96.0649553291488,7.09705225969184
2019-10-19 00:00:00+01:00,95.2225930716855,7.39923246752589
2019-10-20 00:00:00+01:00,94.3787649592081,7.39923246752589
2019-10-21 00:00:00+01:00,93.5408681145992,7.62878054851933
2019-10-22 00:00:00+01:00,93.1871439882056,21.5702960145298
2019-10-23 00:00:00+01:00,92.9828619395954,27.2069542759384
2019-10-24 00:00:00+01:00,92.9395441843803,45.1092026158239
2019-10-25 00:00:00+01:00,92.8982244580624,51.8079395648133
2019-10-26 00:00:00+01:00,92.2971772235385,52.4235533046414
2019-10-27 00:00:00+01:00,91.5120855097917,53.085936332367
2019-10-28 00:00:00+01:00,90.76854811663,54.7136563579886
2019-10-29 00:00:00+01:00,90.01733389116,55.0370844096809
2019-10-30 00:00:00+01:00,89.2358173522868,55.4751629475515
2019-10-31 00:00:00+01:00,88.4840405678919,56.4721679942061
2019-11-01 00:00:00+01:00,87.7244155076113,56.5304942525019
2019-11-02 00:00:00+01:00,86.9466225562065,56.7203383348589
2019-11-03 00:00:00+01:00,86.1823343369892,56.9804156665132
2019-11-04 00:00:00+01:00,85.4296309100125,57.3143958328019
2019-11-05 00:00:00+01:00,84.7172173200597,58.56036901716
2019-11-06 00:00:00+01:00,84.0103327653995,58.9448462528334
2019-11-07 00:00:00+01:00,83.270852962045,58.9824526253821
2019-11-08 00:00:00+01:00,82.5352101871445,59.2567427470087
2019-11-09 00:00:00+01:00,81.816987394492,59.6301934661635
2019-11-10 00:00:00+01:00,81.1040039964436,59.8777330332466
2019-11-11 00:00:00+01:00,80.4042701174354,60.4411400523881
2019-11-12 00:00:00+01:00,79.7530495652858,61.948657736726
